<?xml version="1.0" encoding="UTF-8" standalone="no"?>
<!-- Created with Inkscape (http://www.inkscape.org/) -->

<svg
   xmlns:dc="http://purl.org/dc/elements/1.1/"
   xmlns:cc="http://creativecommons.org/ns#"
   xmlns:rdf="http://www.w3.org/1999/02/22-rdf-syntax-ns#"
   xmlns:svg="http://www.w3.org/2000/svg"
   xmlns="http://www.w3.org/2000/svg"
   xmlns:sodipodi="http://sodipodi.sourceforge.net/DTD/sodipodi-0.dtd"
   xmlns:inkscape="http://www.inkscape.org/namespaces/inkscape"
   width="210mm"
   height="210mm"
   viewBox="0 0 210 210"
   version="1.1"
   id="svg16255"
   inkscape:version="0.92.2 (5c3e80d, 2017-08-06)"
   sodipodi:docname="Eliptischer-sphaerischer-Spiegel.svg"
   inkscape:export-filename="E:\Beschäftigungsverhältnis - Universität Hamburg - ab SS 2017\Wintersemester 2017 - 2018\Skript-Physik II\Vorlesungsskript-Physik-II-UniHH--dieter\v0.1\figures\Elliptischer-sphaerischer-Spiegel.png"
   inkscape:export-xdpi="96"
   inkscape:export-ydpi="96">
  <defs
     id="defs16249">
    <marker
       inkscape:stockid="TriangleOutL"
       orient="auto"
       refY="0.0"
       refX="0.0"
       id="TriangleOutL"
       style="overflow:visible"
       inkscape:isstock="true">
      <path
         id="path1011"
         d="M 5.77,0.0 L -2.88,5.0 L -2.88,-5.0 L 5.77,0.0 z "
         style="fill-rule:evenodd;stroke:#ff0000;stroke-width:1pt;stroke-opacity:1;fill:#ff0000;fill-opacity:1"
         transform="scale(0.8)" />
    </marker>
    <marker
       inkscape:stockid="Arrow2Mend"
       orient="auto"
       refY="0.0"
       refX="0.0"
       id="Arrow2Mend"
       style="overflow:visible;"
       inkscape:isstock="true">
      <path
         id="path896"
         style="fill-rule:evenodd;stroke-width:0.625;stroke-linejoin:round;stroke:#ff0000;stroke-opacity:1;fill:#ff0000;fill-opacity:1"
         d="M 8.7185878,4.0337352 L -2.2072895,0.016013256 L 8.7185884,-4.0017078 C 6.9730900,-1.6296469 6.9831476,1.6157441 8.7185878,4.0337352 z "
         transform="scale(0.6) rotate(180) translate(0,0)" />
    </marker>
    <marker
       inkscape:stockid="Arrow2Lend"
       orient="auto"
       refY="0.0"
       refX="0.0"
       id="marker16946"
       style="overflow:visible;"
       inkscape:isstock="true">
      <path
         id="path16944"
         style="fill-rule:evenodd;stroke-width:0.625;stroke-linejoin:round;stroke:#ff0000;stroke-opacity:1;fill:#ff0000;fill-opacity:1"
         d="M 8.7185878,4.0337352 L -2.2072895,0.016013256 L 8.7185884,-4.0017078 C 6.9730900,-1.6296469 6.9831476,1.6157441 8.7185878,4.0337352 z "
         transform="scale(1.1) rotate(180) translate(1,0)" />
    </marker>
    <marker
       inkscape:stockid="Arrow2Lend"
       orient="auto"
       refY="0.0"
       refX="0.0"
       id="Arrow2Lend"
       style="overflow:visible;"
       inkscape:isstock="true">
      <path
         id="path890"
         style="fill-rule:evenodd;stroke-width:0.625;stroke-linejoin:round;stroke:#000000;stroke-opacity:1;fill:#000000;fill-opacity:1"
         d="M 8.7185878,4.0337352 L -2.2072895,0.016013256 L 8.7185884,-4.0017078 C 6.9730900,-1.6296469 6.9831476,1.6157441 8.7185878,4.0337352 z "
         transform="scale(1.1) rotate(180) translate(1,0)" />
    </marker>
    <marker
       inkscape:stockid="Arrow2Lstart"
       orient="auto"
       refY="0.0"
       refX="0.0"
       id="Arrow2Lstart"
       style="overflow:visible"
       inkscape:isstock="true">
      <path
         id="path887"
         style="fill-rule:evenodd;stroke-width:0.625;stroke-linejoin:round;stroke:#000000;stroke-opacity:1;fill:#000000;fill-opacity:1"
         d="M 8.7185878,4.0337352 L -2.2072895,0.016013256 L 8.7185884,-4.0017078 C 6.9730900,-1.6296469 6.9831476,1.6157441 8.7185878,4.0337352 z "
         transform="scale(1.1) translate(1,0)" />
    </marker>
  </defs>
  <sodipodi:namedview
     id="base"
     pagecolor="#ffffff"
     bordercolor="#666666"
     borderopacity="1.0"
     inkscape:pageopacity="0.0"
     inkscape:pageshadow="2"
     inkscape:zoom="1.4"
     inkscape:cx="357.3772"
     inkscape:cy="486.3192"
     inkscape:document-units="mm"
     inkscape:current-layer="layer1"
     showgrid="true"
     inkscape:snap-global="false"
     inkscape:window-width="1920"
     inkscape:window-height="1172"
     inkscape:window-x="0"
     inkscape:window-y="0"
     inkscape:window-maximized="1">
    <inkscape:grid
       type="xygrid"
       id="grid16800" />
  </sodipodi:namedview>
  <metadata
     id="metadata16252">
    <rdf:RDF>
      <cc:Work
         rdf:about="">
        <dc:format>image/svg+xml</dc:format>
        <dc:type
           rdf:resource="http://purl.org/dc/dcmitype/StillImage" />
        <dc:title></dc:title>
      </cc:Work>
    </rdf:RDF>
  </metadata>
  <g
     inkscape:label="Ebene 1"
     inkscape:groupmode="layer"
     id="layer1"
     transform="translate(0,-87)">
    <ellipse
       style="fill:#ffffff;fill-opacity:1;stroke:#000000;stroke-width:0.2693316;stroke-linecap:square;stroke-miterlimit:4;stroke-dasharray:none;stroke-dashoffset:0;stroke-opacity:1"
       id="path16802"
       cx="146.28206"
       cy="138.58728"
       rx="45.706005"
       ry="27.532352" />
    <path
       style="fill:none;stroke:#ff2100;stroke-width:0.26458332px;stroke-linecap:butt;stroke-linejoin:miter;stroke-opacity:1"
       d="m 122.92622,138.00673 30.40191,27.59557 24.69866,-46.62908 v 0 l -75.78423,26.36384"
       id="path16940"
       inkscape:connector-curvature="0" />
    <path
       style="fill:none;stroke:#ff2100;stroke-width:0.26499999;stroke-linecap:butt;stroke-linejoin:miter;stroke-miterlimit:4;stroke-dasharray:none;stroke-opacity:1"
       d="m 122.92622,137.539 15.10073,-26.05877 c 16.04381,13.35671 32.49331,29.25531 45.43582,42.49585 l -81.91811,-21.64883"
       id="path16812"
       inkscape:connector-curvature="0"
       sodipodi:nodetypes="cccc" />
    <path
       id="ellipse16804"
       style="fill:#ffffff;fill-opacity:1;stroke:#000000;stroke-width:0.303;stroke-linecap:square;stroke-miterlimit:4;stroke-dasharray:none;stroke-dashoffset:0;stroke-opacity:1"
       sodipodi:type="arc"
       sodipodi:cx="46.249344"
       sodipodi:cy="138.32213"
       sodipodi:rx="39.848728"
       sodipodi:ry="39.848728"
       sodipodi:start="4.712389"
       sodipodi:end="1.5707963"
       d="m 46.249345,98.4734 a 39.848728,39.848728 0 0 1 39.848727,39.84873 39.848728,39.848728 0 0 1 -39.848727,39.84873"
       sodipodi:open="true" />
    <path
       style="fill:none;stroke:#ff1000;stroke-width:0.26458332px;stroke-linecap:butt;stroke-linejoin:miter;stroke-opacity:1"
       d="m 46.113094,138.55232 32.31696,-23.24554"
       id="path17184"
       inkscape:connector-curvature="0" />
    <path
       style="fill:none;stroke:#000000;stroke-width:0.26417428px;stroke-linecap:butt;stroke-linejoin:miter;stroke-opacity:1"
       d="M 192.0119,138.15551 H 100.54167"
       id="path16806"
       inkscape:connector-curvature="0" />
    <ellipse
       style="fill:#000000;fill-opacity:1;stroke:#000000;stroke-width:0.30299997;stroke-linecap:square;stroke-miterlimit:4;stroke-dasharray:none;stroke-dashoffset:0;stroke-opacity:1"
       id="path16808"
       cx="122.95963"
       cy="138.08165"
       rx="0.70158249"
       ry="0.66817379" />
    <ellipse
       ry="0.66817379"
       rx="0.70158249"
       cy="138.04825"
       cx="167.89433"
       id="ellipse16810"
       style="fill:#000000;fill-opacity:1;stroke:#000000;stroke-width:0.30299997;stroke-linecap:square;stroke-miterlimit:4;stroke-dasharray:none;stroke-dashoffset:0;stroke-opacity:1" />
    <path
       sodipodi:type="star"
       style="fill:#ff0000;fill-opacity:1;stroke:#ff2100;stroke-width:0.26499999;stroke-linecap:square;stroke-miterlimit:4;stroke-dasharray:none;stroke-dashoffset:0;stroke-opacity:1"
       id="path16934"
       sodipodi:sides="3"
       sodipodi:cx="69.155991"
       sodipodi:cy="119.06532"
       sodipodi:r1="1.0958865"
       sodipodi:r2="0.54794329"
       sodipodi:arg1="0.65569563"
       sodipodi:arg2="1.7028932"
       inkscape:flatsided="false"
       inkscape:rounded="0"
       inkscape:randomized="0"
       d="m 70.024617,119.7335 -0.940798,-0.12501 -0.940797,-0.125 0.578656,-0.75225 0.578655,-0.75226 0.362142,0.87726 z"
       inkscape:transform-center-x="0.2483373"
       inkscape:transform-center-y="-0.029154658"
       transform="rotate(19.38148,77.509676,298.8783)" />
    <path
       transform="rotate(6.6271058,124.8123,769.23656)"
       inkscape:transform-center-y="-0.14923383"
       inkscape:transform-center-x="0.13437685"
       d="m 70.024617,119.7335 -0.940798,-0.12501 -0.940797,-0.125 0.578656,-0.75225 0.578655,-0.75226 0.362142,0.87726 z"
       inkscape:randomized="0"
       inkscape:rounded="0"
       inkscape:flatsided="false"
       sodipodi:arg2="1.7028932"
       sodipodi:arg1="0.65569563"
       sodipodi:r2="0.54794329"
       sodipodi:r1="1.0958865"
       sodipodi:cy="119.06532"
       sodipodi:cx="69.155991"
       sodipodi:sides="3"
       id="path16936"
       style="fill:#ff0000;fill-opacity:1;stroke:#ff2100;stroke-width:0.26499999;stroke-linecap:square;stroke-miterlimit:4;stroke-dasharray:none;stroke-dashoffset:0;stroke-opacity:1"
       sodipodi:type="star" />
    <path
       sodipodi:type="star"
       style="fill:#ff0000;fill-opacity:1;stroke:#ff2100;stroke-width:0.26499999;stroke-linecap:square;stroke-miterlimit:4;stroke-dasharray:none;stroke-dashoffset:0;stroke-opacity:1"
       id="path16938"
       sodipodi:sides="3"
       sodipodi:cx="69.155991"
       sodipodi:cy="119.06532"
       sodipodi:r1="1.0958865"
       sodipodi:r2="0.54794329"
       sodipodi:arg1="0.65569563"
       sodipodi:arg2="1.7028932"
       inkscape:flatsided="false"
       inkscape:rounded="0"
       inkscape:randomized="0"
       d="m 70.024617,119.7335 -0.940798,-0.12501 -0.940797,-0.125 0.578656,-0.75225 0.578655,-0.75226 0.362142,0.87726 z"
       inkscape:transform-center-x="0.16735569"
       inkscape:transform-center-y="0.11594678"
       transform="rotate(34.647826,69.97991,310.114)" />
    <path
       style="fill:none;stroke:#ff0000;stroke-width:0.26499999;stroke-linecap:butt;stroke-linejoin:miter;stroke-miterlimit:4;stroke-dasharray:none;stroke-opacity:1;marker-end:url(#TriangleOutL)"
       d="m 101.91934,145.39871 13.0577,-1.70558"
       id="path16942"
       inkscape:connector-curvature="0" />
    <path
       style="fill:#ffffff;fill-opacity:1;stroke:#ff2505;stroke-width:0.26309338;stroke-linecap:butt;stroke-linejoin:miter;stroke-miterlimit:4;stroke-dasharray:2.104747, 2.104747;stroke-dashoffset:0;stroke-opacity:1"
       d="m 167.44908,138.43386 -52.18398,5.30292"
       id="path16978"
       inkscape:connector-curvature="0" />
    <path
       transform="rotate(2.9965802,-400.71532,1312.0839)"
       inkscape:transform-center-y="-0.18231941"
       inkscape:transform-center-x="0.10046954"
       d="m 70.024617,119.7335 -0.940798,-0.12501 -0.940797,-0.125 0.578656,-0.75225 0.578655,-0.75226 0.362142,0.87726 z"
       inkscape:randomized="0"
       inkscape:rounded="0"
       inkscape:flatsided="false"
       sodipodi:arg2="1.7028932"
       sodipodi:arg1="0.65569563"
       sodipodi:r2="0.54794329"
       sodipodi:r1="1.0958865"
       sodipodi:cy="119.06532"
       sodipodi:cx="69.155991"
       sodipodi:sides="3"
       id="path17158"
       style="fill:#ff0000;fill-opacity:1;stroke:#ff2100;stroke-width:0.26499999;stroke-linecap:square;stroke-miterlimit:4;stroke-dasharray:none;stroke-dashoffset:0;stroke-opacity:1"
       sodipodi:type="star" />
    <path
       sodipodi:type="star"
       style="fill:#ff0000;fill-opacity:1;stroke:#ff2100;stroke-width:0.26499999;stroke-linecap:square;stroke-miterlimit:4;stroke-dasharray:none;stroke-dashoffset:0;stroke-opacity:1"
       id="path17160"
       sodipodi:sides="3"
       sodipodi:cx="69.155991"
       sodipodi:cy="119.06532"
       sodipodi:r1="1.0958865"
       sodipodi:r2="0.54794329"
       sodipodi:arg1="0.65569563"
       sodipodi:arg2="1.7028932"
       inkscape:flatsided="false"
       inkscape:rounded="0"
       inkscape:randomized="0"
       d="m 70.024617,119.7335 -0.940798,-0.12501 -0.940797,-0.125 0.578656,-0.75225 0.578655,-0.75226 0.362142,0.87726 z"
       inkscape:transform-center-x="0.2540584"
       inkscape:transform-center-y="-0.0227249"
       transform="rotate(20.054583,18.940621,392.76403)" />
    <path
       transform="rotate(-1.5582285,266.79733,-3433.7735)"
       inkscape:transform-center-y="-0.22277738"
       inkscape:transform-center-x="0.057377578"
       d="m 70.024617,119.7335 -0.940798,-0.12501 -0.940797,-0.125 0.578656,-0.75225 0.578655,-0.75226 0.362142,0.87726 z"
       inkscape:randomized="0"
       inkscape:rounded="0"
       inkscape:flatsided="false"
       sodipodi:arg2="1.7028932"
       sodipodi:arg1="0.65569563"
       sodipodi:r2="0.54794329"
       sodipodi:r1="1.0958865"
       sodipodi:cy="119.06532"
       sodipodi:cx="69.155991"
       sodipodi:sides="3"
       id="path17162"
       style="fill:#ff0000;fill-opacity:1;stroke:#ff2100;stroke-width:0.26499999;stroke-linecap:square;stroke-miterlimit:4;stroke-dasharray:none;stroke-dashoffset:0;stroke-opacity:1"
       sodipodi:type="star" />
    <text
       xml:space="preserve"
       style="font-style:normal;font-weight:normal;font-size:10.58333302px;line-height:1.25;font-family:sans-serif;letter-spacing:0px;word-spacing:0px;fill:#000000;fill-opacity:1;stroke:none;stroke-width:0.26458332"
       x="115.89694"
       y="134.84822"
       id="text17166"><tspan
         sodipodi:role="line"
         id="tspan17164"
         x="115.89694"
         y="134.84822"
         style="font-style:normal;font-variant:normal;font-weight:normal;font-stretch:normal;font-size:8.46666622px;font-family:'Times New Roman';-inkscape-font-specification:'Times New Roman, Normal';font-variant-ligatures:normal;font-variant-caps:normal;font-variant-numeric:normal;font-feature-settings:normal;text-align:start;writing-mode:lr-tb;text-anchor:start;stroke-width:0.26458332">F<tspan
   style="font-size:64.99999762%;baseline-shift:sub"
   id="tspan17180">1</tspan></tspan></text>
    <text
       xml:space="preserve"
       style="font-style:normal;font-weight:normal;font-size:10.58333302px;line-height:1.25;font-family:sans-serif;letter-spacing:0px;word-spacing:0px;fill:#000000;fill-opacity:1;stroke:none;stroke-width:0.26458332"
       x="71.248512"
       y="128.56436"
       id="text17170"><tspan
         sodipodi:role="line"
         id="tspan17168"
         x="71.248512"
         y="138.21986"
         style="stroke-width:0.26458332" /></text>
    <text
       id="text17176"
       y="134.84821"
       x="173.44383"
       style="font-style:normal;font-weight:normal;font-size:10.58333302px;line-height:1.25;font-family:sans-serif;letter-spacing:0px;word-spacing:0px;fill:#000000;fill-opacity:1;stroke:none;stroke-width:0.26458332"
       xml:space="preserve"><tspan
         style="font-style:normal;font-variant:normal;font-weight:normal;font-stretch:normal;font-size:8.46666622px;font-family:'Times New Roman';-inkscape-font-specification:'Times New Roman, Normal';font-variant-ligatures:normal;font-variant-caps:normal;font-variant-numeric:normal;font-feature-settings:normal;text-align:start;writing-mode:lr-tb;text-anchor:start;stroke-width:0.26458332"
         y="134.84821"
         x="173.44383"
         id="tspan17174"
         sodipodi:role="line">F<tspan
   style="font-size:64.99999762%;baseline-shift:sub"
   id="tspan17178">2</tspan></tspan></text>
    <path
       transform="rotate(44.438412,46.488827,108.56992)"
       inkscape:transform-center-y="0.20532419"
       inkscape:transform-center-x="0.076194277"
       d="m 70.024617,119.7335 -0.940798,-0.12501 -0.940797,-0.125 0.578656,-0.75225 0.578655,-0.75226 0.362142,0.87726 z"
       inkscape:randomized="0"
       inkscape:rounded="0"
       inkscape:flatsided="false"
       sodipodi:arg2="1.7028932"
       sodipodi:arg1="0.65569563"
       sodipodi:r2="0.54794329"
       sodipodi:r1="1.0958865"
       sodipodi:cy="119.06532"
       sodipodi:cx="69.155991"
       sodipodi:sides="3"
       id="path17188"
       style="fill:#ff0000;fill-opacity:1;stroke:#ff2100;stroke-width:0.26499999;stroke-linecap:square;stroke-miterlimit:4;stroke-dasharray:none;stroke-dashoffset:0;stroke-opacity:1"
       sodipodi:type="star" />
    <path
       sodipodi:type="star"
       style="fill:#ff0000;fill-opacity:1;stroke:#ff2100;stroke-width:0.26499999;stroke-linecap:square;stroke-miterlimit:4;stroke-dasharray:none;stroke-dashoffset:0;stroke-opacity:1"
       id="path17190"
       sodipodi:sides="3"
       sodipodi:cx="69.155991"
       sodipodi:cy="119.06532"
       sodipodi:r1="1.0958865"
       sodipodi:r2="0.54794329"
       sodipodi:arg1="0.65569563"
       sodipodi:arg2="1.7028932"
       inkscape:flatsided="false"
       inkscape:rounded="0"
       inkscape:randomized="0"
       d="m 70.024617,119.7335 -0.940798,-0.12501 -0.940797,-0.125 0.578656,-0.75225 0.578655,-0.75226 0.362142,0.87726 z"
       inkscape:transform-center-x="-0.13261807"
       inkscape:transform-center-y="-0.15097417"
       transform="rotate(-21.575212,74.753071,116.39223)" />
    <path
       sodipodi:type="star"
       style="fill:#ff0000;fill-opacity:1;stroke:#ff2100;stroke-width:0.26499999;stroke-linecap:square;stroke-miterlimit:4;stroke-dasharray:none;stroke-dashoffset:0;stroke-opacity:1"
       id="path17192"
       sodipodi:sides="3"
       sodipodi:cx="69.155991"
       sodipodi:cy="119.06532"
       sodipodi:r1="1.0958865"
       sodipodi:r2="0.54794329"
       sodipodi:arg1="0.65569563"
       sodipodi:arg2="1.7028932"
       inkscape:flatsided="false"
       inkscape:rounded="0"
       inkscape:randomized="0"
       d="m 70.024617,119.7335 -0.940798,-0.12501 -0.940797,-0.125 0.578656,-0.75225 0.578655,-0.75226 0.362142,0.87726 z"
       inkscape:transform-center-x="0.071126234"
       inkscape:transform-center-y="-0.21005959"
       transform="rotate(-0.11047585,13597.266,7280.7542)" />
    <path
       transform="rotate(-66.132438,98.07406,136.50396)"
       inkscape:transform-center-y="0.26199162"
       inkscape:transform-center-x="-0.013727335"
       d="m 70.024617,119.7335 -0.940798,-0.12501 -0.940797,-0.125 0.578656,-0.75225 0.578655,-0.75226 0.362142,0.87726 z"
       inkscape:randomized="0"
       inkscape:rounded="0"
       inkscape:flatsided="false"
       sodipodi:arg2="1.7028932"
       sodipodi:arg1="0.65569563"
       sodipodi:r2="0.54794329"
       sodipodi:r1="1.0958865"
       sodipodi:cy="119.06532"
       sodipodi:cx="69.155991"
       sodipodi:sides="3"
       id="path17194"
       style="fill:#ff0000;fill-opacity:1;stroke:#ff2100;stroke-width:0.26499999;stroke-linecap:square;stroke-miterlimit:4;stroke-dasharray:none;stroke-dashoffset:0;stroke-opacity:1"
       sodipodi:type="star" />
    <path
       sodipodi:type="star"
       style="fill:#ff0000;fill-opacity:1;stroke:#ff2100;stroke-width:0.26499999;stroke-linecap:square;stroke-miterlimit:4;stroke-dasharray:none;stroke-dashoffset:0;stroke-opacity:1"
       id="path17196"
       sodipodi:sides="3"
       sodipodi:cx="69.155991"
       sodipodi:cy="119.06532"
       sodipodi:r1="1.0958865"
       sodipodi:r2="0.54794329"
       sodipodi:arg1="0.65569563"
       sodipodi:arg2="1.7028932"
       inkscape:flatsided="false"
       inkscape:rounded="0"
       inkscape:randomized="0"
       d="m 70.024617,119.7335 -0.940798,-0.12501 -0.940797,-0.125 0.578656,-0.75225 0.578655,-0.75226 0.362142,0.87726 z"
       inkscape:transform-center-x="0.26494195"
       inkscape:transform-center-y="0.010364645"
       transform="rotate(23.516077,23.067836,131.72235)" />
    <path
       transform="rotate(82.09298,50.876957,120.64119)"
       inkscape:transform-center-y="0.0032267245"
       inkscape:transform-center-x="-0.27116618"
       d="m 70.024617,119.7335 -0.940798,-0.12501 -0.940797,-0.125 0.578656,-0.75225 0.578655,-0.75226 0.362142,0.87726 z"
       inkscape:randomized="0"
       inkscape:rounded="0"
       inkscape:flatsided="false"
       sodipodi:arg2="1.7028932"
       sodipodi:arg1="0.65569563"
       sodipodi:r2="0.54794329"
       sodipodi:r1="1.0958865"
       sodipodi:cy="119.06532"
       sodipodi:cx="69.155991"
       sodipodi:sides="3"
       id="path17198"
       style="fill:#ff0000;fill-opacity:1;stroke:#ff2100;stroke-width:0.26499999;stroke-linecap:square;stroke-miterlimit:4;stroke-dasharray:none;stroke-dashoffset:0;stroke-opacity:1"
       sodipodi:type="star" />
    <path
       inkscape:connector-curvature="0"
       id="path17206"
       d="m 46.107364,138.46001 32.31696,23.24554"
       style="fill:none;stroke:#ff1000;stroke-width:0.26458332px;stroke-linecap:butt;stroke-linejoin:miter;stroke-opacity:1" />
    <path
       style="fill:none;stroke:#ff1000;stroke-width:0.26458332px;stroke-linecap:butt;stroke-linejoin:miter;stroke-opacity:1"
       d="m 46.305454,138.4821 39.80881,-0.003"
       id="path17208"
       inkscape:connector-curvature="0" />
    <ellipse
       ry="0.66817379"
       rx="0.70158249"
       cy="138.49344"
       cx="46.142105"
       id="ellipse17182"
       style="fill:#000000;fill-opacity:1;stroke:#000000;stroke-width:0.30299997;stroke-linecap:square;stroke-miterlimit:4;stroke-dasharray:none;stroke-dashoffset:0;stroke-opacity:1" />
    <text
       xml:space="preserve"
       style="font-style:normal;font-variant:normal;font-weight:normal;font-stretch:normal;font-size:8.46666622px;line-height:1.25;font-family:'Times New Roman';-inkscape-font-specification:'Times New Roman, Normal';font-variant-ligatures:normal;font-variant-caps:normal;font-variant-numeric:normal;font-feature-settings:normal;text-align:start;letter-spacing:0px;word-spacing:0px;writing-mode:lr-tb;text-anchor:start;fill:#000000;fill-opacity:1;stroke:none;stroke-width:0.26458332"
       x="7.0853338"
       y="141.98964"
       id="text17202"><tspan
         sodipodi:role="line"
         id="tspan17200"
         x="7.0853338"
         y="141.98964"
         style="font-style:normal;font-variant:normal;font-weight:normal;font-stretch:normal;font-size:8.46666622px;font-family:'Times New Roman';-inkscape-font-specification:'Times New Roman, Normal';font-variant-ligatures:normal;font-variant-caps:normal;font-variant-numeric:normal;font-feature-settings:normal;text-align:start;writing-mode:lr-tb;text-anchor:start;stroke-width:0.26458332">M = P = P´</tspan></text>
  </g>
</svg>
