<?xml version="1.0" encoding="UTF-8" standalone="no"?>
<!-- Created with Inkscape (http://www.inkscape.org/) -->

<svg
   xmlns:dc="http://purl.org/dc/elements/1.1/"
   xmlns:cc="http://creativecommons.org/ns#"
   xmlns:rdf="http://www.w3.org/1999/02/22-rdf-syntax-ns#"
   xmlns:svg="http://www.w3.org/2000/svg"
   xmlns="http://www.w3.org/2000/svg"
   xmlns:sodipodi="http://sodipodi.sourceforge.net/DTD/sodipodi-0.dtd"
   xmlns:inkscape="http://www.inkscape.org/namespaces/inkscape"
   width="280mm"
   height="210mm"
   viewBox="0 0 280 210"
   version="1.1"
   id="svg1915"
   inkscape:version="0.92.2 (5c3e80d, 2017-08-06)"
   sodipodi:docname="Linsentypen.svg"
   inkscape:export-filename="E:\Beschäftigungsverhältnis - Universität Hamburg - ab SS 2017\Wintersemester 2017 - 2018\Skript-Physik II\Vorlesungsskript-Physik-II-UniHH--dieter\v0.1\figures\Linsentypen.png"
   inkscape:export-xdpi="96"
   inkscape:export-ydpi="96">
  <defs
     id="defs1909">
    <marker
       inkscape:stockid="Arrow2Lstart"
       orient="auto"
       refY="0"
       refX="0"
       id="Arrow2Lstart"
       style="overflow:visible"
       inkscape:isstock="true">
      <path
         id="path869"
         style="fill:#000000;fill-opacity:1;fill-rule:evenodd;stroke:#000000;stroke-width:0.625;stroke-linejoin:round;stroke-opacity:1"
         d="M 8.7185878,4.0337352 -2.2072895,0.01601326 8.7185884,-4.0017078 c -1.7454984,2.3720609 -1.7354408,5.6174519 -6e-7,8.035443 z"
         transform="matrix(1.1,0,0,1.1,1.1,0)"
         inkscape:connector-curvature="0" />
    </marker>
    <inkscape:path-effect
       is_visible="true"
       id="path-effect4416"
       effect="spiro" />
    <inkscape:path-effect
       effect="spiro"
       id="path-effect4412"
       is_visible="true" />
    <marker
       inkscape:stockid="Arrow2Lend"
       orient="auto"
       refY="0"
       refX="0"
       id="marker4180"
       style="overflow:visible"
       inkscape:isstock="true">
      <path
         id="path4178"
         style="fill:#ff0000;fill-opacity:1;fill-rule:evenodd;stroke:#ff0000;stroke-width:0.625;stroke-linejoin:round;stroke-opacity:1"
         d="M 8.7185878,4.0337352 -2.2072895,0.01601326 8.7185884,-4.0017078 c -1.7454984,2.3720609 -1.7354408,5.6174519 -6e-7,8.035443 z"
         transform="matrix(-1.1,0,0,-1.1,-1.1,0)"
         inkscape:connector-curvature="0" />
    </marker>
    <marker
       inkscape:isstock="true"
       style="overflow:visible"
       id="marker3898"
       refX="0"
       refY="0"
       orient="auto"
       inkscape:stockid="Arrow2Lend"
       inkscape:collect="always">
      <path
         transform="matrix(-1.1,0,0,-1.1,-1.1,0)"
         d="M 8.7185878,4.0337352 -2.2072895,0.01601326 8.7185884,-4.0017078 c -1.7454984,2.3720609 -1.7354408,5.6174519 -6e-7,8.035443 z"
         style="fill:#ff0000;fill-opacity:1;fill-rule:evenodd;stroke:#ff0000;stroke-width:0.625;stroke-linejoin:round;stroke-opacity:1"
         id="path3896"
         inkscape:connector-curvature="0" />
    </marker>
    <marker
       inkscape:isstock="true"
       style="overflow:visible"
       id="marker3640"
       refX="0"
       refY="0"
       orient="auto"
       inkscape:stockid="Arrow2Lend">
      <path
         transform="matrix(-1.1,0,0,-1.1,-1.1,0)"
         d="M 8.7185878,4.0337352 -2.2072895,0.01601326 8.7185884,-4.0017078 c -1.7454984,2.3720609 -1.7354408,5.6174519 -6e-7,8.035443 z"
         style="fill:#ff0000;fill-opacity:1;fill-rule:evenodd;stroke:#ff0000;stroke-width:0.625;stroke-linejoin:round;stroke-opacity:1"
         id="path3638"
         inkscape:connector-curvature="0" />
    </marker>
    <marker
       inkscape:stockid="Arrow2Lend"
       orient="auto"
       refY="0"
       refX="0"
       id="marker3442"
       style="overflow:visible"
       inkscape:isstock="true"
       inkscape:collect="always">
      <path
         id="path3440"
         style="fill:#ff0000;fill-opacity:1;fill-rule:evenodd;stroke:#ff0000;stroke-width:0.625;stroke-linejoin:round;stroke-opacity:1"
         d="M 8.7185878,4.0337352 -2.2072895,0.01601326 8.7185884,-4.0017078 c -1.7454984,2.3720609 -1.7354408,5.6174519 -6e-7,8.035443 z"
         transform="matrix(-1.1,0,0,-1.1,-1.1,0)"
         inkscape:connector-curvature="0" />
    </marker>
    <marker
       inkscape:stockid="Arrow2Lend"
       orient="auto"
       refY="0"
       refX="0"
       id="marker3126"
       style="overflow:visible"
       inkscape:isstock="true">
      <path
         id="path3124"
         style="fill:#ff0000;fill-opacity:1;fill-rule:evenodd;stroke:#ff0000;stroke-width:0.625;stroke-linejoin:round;stroke-opacity:1"
         d="M 8.7185878,4.0337352 -2.2072895,0.01601326 8.7185884,-4.0017078 c -1.7454984,2.3720609 -1.7354408,5.6174519 -6e-7,8.035443 z"
         transform="matrix(-1.1,0,0,-1.1,-1.1,0)"
         inkscape:connector-curvature="0" />
    </marker>
    <marker
       inkscape:isstock="true"
       style="overflow:visible"
       id="marker2778"
       refX="0"
       refY="0"
       orient="auto"
       inkscape:stockid="Arrow2Lend"
       inkscape:collect="always">
      <path
         transform="matrix(-1.1,0,0,-1.1,-1.1,0)"
         d="M 8.7185878,4.0337352 -2.2072895,0.01601326 8.7185884,-4.0017078 c -1.7454984,2.3720609 -1.7354408,5.6174519 -6e-7,8.035443 z"
         style="fill:#ff0000;fill-opacity:1;fill-rule:evenodd;stroke:#ff0000;stroke-width:0.625;stroke-linejoin:round;stroke-opacity:1"
         id="path2776"
         inkscape:connector-curvature="0" />
    </marker>
    <marker
       inkscape:isstock="true"
       style="overflow:visible"
       id="marker2526"
       refX="0"
       refY="0"
       orient="auto"
       inkscape:stockid="Arrow2Lend">
      <path
         transform="matrix(-1.1,0,0,-1.1,-1.1,0)"
         d="M 8.7185878,4.0337352 -2.2072895,0.01601326 8.7185884,-4.0017078 c -1.7454984,2.3720609 -1.7354408,5.6174519 -6e-7,8.035443 z"
         style="fill:#ff0000;fill-opacity:1;fill-rule:evenodd;stroke:#ff0000;stroke-width:0.625;stroke-linejoin:round;stroke-opacity:1"
         id="path2524"
         inkscape:connector-curvature="0" />
    </marker>
    <marker
       inkscape:stockid="Arrow2Lend"
       orient="auto"
       refY="0"
       refX="0"
       id="Arrow2Lend"
       style="overflow:visible"
       inkscape:isstock="true"
       inkscape:collect="always">
      <path
         id="path872"
         style="fill:#ff0000;fill-opacity:1;fill-rule:evenodd;stroke:#ff0000;stroke-width:0.625;stroke-linejoin:round;stroke-opacity:1"
         d="M 8.7185878,4.0337352 -2.2072895,0.01601326 8.7185884,-4.0017078 c -1.7454984,2.3720609 -1.7354408,5.6174519 -6e-7,8.035443 z"
         transform="matrix(-1.1,0,0,-1.1,-1.1,0)"
         inkscape:connector-curvature="0" />
    </marker>
  </defs>
  <sodipodi:namedview
     id="base"
     pagecolor="#ffffff"
     bordercolor="#666666"
     borderopacity="1.0"
     inkscape:pageopacity="0.0"
     inkscape:pageshadow="2"
     inkscape:zoom="0.98994949"
     inkscape:cx="492.56085"
     inkscape:cy="378.03473"
     inkscape:document-units="mm"
     inkscape:current-layer="layer1"
     showgrid="true"
     inkscape:snap-global="false"
     inkscape:window-width="1920"
     inkscape:window-height="1017"
     inkscape:window-x="-8"
     inkscape:window-y="-8"
     inkscape:window-maximized="1">
    <inkscape:grid
       type="xygrid"
       id="grid2460" />
  </sodipodi:namedview>
  <metadata
     id="metadata1912">
    <rdf:RDF>
      <cc:Work
         rdf:about="">
        <dc:format>image/svg+xml</dc:format>
        <dc:type
           rdf:resource="http://purl.org/dc/dcmitype/StillImage" />
        <dc:title></dc:title>
      </cc:Work>
    </rdf:RDF>
  </metadata>
  <g
     inkscape:label="Ebene 1"
     inkscape:groupmode="layer"
     id="layer1"
     transform="translate(0,-87)">
    <path
       style="fill:#ffffff;fill-opacity:1;stroke:#ff0000;stroke-width:0.38765776;stroke-linecap:square;stroke-miterlimit:4;stroke-dasharray:2.32594663, 2.32594663;stroke-dashoffset:0;stroke-opacity:1"
       id="path4408"
       sodipodi:type="arc"
       sodipodi:cx="224.60103"
       sodipodi:cy="233.1189"
       sodipodi:rx="14.327948"
       sodipodi:ry="41.975697"
       sodipodi:start="2.1217625"
       sodipodi:end="4.2382602"
       sodipodi:open="true"
       d="m 217.10019,268.88299 a 14.327948,41.975697 0 0 1 -6.81654,-37.37635 14.327948,41.975697 0 0 1 7.77576,-35.73314" />
    <path
       style="fill:#ffffff;fill-opacity:1;stroke:#000000;stroke-width:0.32499999;stroke-linecap:square;stroke-miterlimit:4;stroke-dasharray:none;stroke-dashoffset:0;stroke-opacity:1"
       id="path2462"
       sodipodi:type="arc"
       sodipodi:cx="33.638775"
       sodipodi:cy="136.07635"
       sodipodi:rx="11.704483"
       sodipodi:ry="36.260098"
       sodipodi:start="1.7835694"
       sodipodi:end="4.5009423"
       sodipodi:open="true"
       d="m 31.167125,171.51875 a 11.704483,36.260098 0 0 1 -9.232831,-35.46644 11.704483,36.260098 0 0 1 9.248007,-35.42848" />
    <path
       d="m 213.85986,172.13411 a 11.202955,36.809708 0 0 1 -8.83721,-36.00403 11.202955,36.809708 0 0 1 8.85174,-35.96548"
       sodipodi:open="true"
       sodipodi:end="4.5009423"
       sodipodi:start="1.7835694"
       sodipodi:ry="36.809708"
       sodipodi:rx="11.202955"
       sodipodi:cy="136.1545"
       sodipodi:cx="216.2256"
       sodipodi:type="arc"
       id="path2464"
       style="fill:#ffffff;fill-opacity:1;stroke:#000000;stroke-width:0.32100001;stroke-linecap:square;stroke-miterlimit:4;stroke-dasharray:none;stroke-dashoffset:0;stroke-opacity:1" />
    <path
       transform="scale(-1,1)"
       style="fill:#ffffff;fill-opacity:1;stroke:#000000;stroke-width:0.32499999;stroke-linecap:square;stroke-miterlimit:4;stroke-dasharray:none;stroke-dashoffset:0;stroke-opacity:1"
       id="path2466"
       sodipodi:type="arc"
       sodipodi:cx="-21.85145"
       sodipodi:cy="136.13821"
       sodipodi:rx="36.556442"
       sodipodi:ry="36.556442"
       sodipodi:start="1.8325957"
       sodipodi:end="4.4505896"
       d="M -31.312953,171.44903 A 36.556442,36.556442 0 0 1 -58.407892,136.13821 36.556442,36.556442 0 0 1 -31.312953,100.8274"
       sodipodi:open="true" />
    <path
       d="m -137.81911,171.15901 a 11.202955,36.809708 0 0 1 -8.83721,-36.00402 11.202955,36.809708 0 0 1 8.85174,-35.965486"
       sodipodi:open="true"
       sodipodi:end="4.5009423"
       sodipodi:start="1.7835694"
       sodipodi:ry="36.809708"
       sodipodi:rx="11.202955"
       sodipodi:cy="135.1794"
       sodipodi:cx="-135.45337"
       sodipodi:type="arc"
       id="path2468"
       style="fill:#ffffff;fill-opacity:1;stroke:#000000;stroke-width:0.3205885;stroke-linecap:square;stroke-miterlimit:4;stroke-dasharray:none;stroke-dashoffset:0;stroke-opacity:1"
       transform="scale(-1,1)" />
    <path
       style="fill:none;stroke:#000000;stroke-width:0.39710084;stroke-linecap:butt;stroke-linejoin:miter;stroke-miterlimit:4;stroke-dasharray:none;stroke-opacity:1"
       d="M 98.006935,135.79316 H 7.7485117"
       id="path2470"
       inkscape:connector-curvature="0" />
    <path
       style="fill:none;stroke:#000000;stroke-width:0.26747921px;stroke-linecap:butt;stroke-linejoin:miter;stroke-opacity:1"
       d="M 93.261801,135.86916 23.520158,152.27191"
       id="path2472"
       inkscape:connector-curvature="0" />
    <path
       style="fill:none;stroke:#000000;stroke-width:0.26458332px;stroke-linecap:butt;stroke-linejoin:miter;stroke-opacity:1"
       d="M 43.564931,106.43683 12.962572,135.70284"
       id="path2474"
       inkscape:connector-curvature="0" />
    <path
       inkscape:connector-curvature="0"
       id="path2476"
       d="M 160.46416,135.60417 H 119.14944"
       style="fill:none;stroke:#000000;stroke-width:0.26866388;stroke-linecap:butt;stroke-linejoin:miter;stroke-miterlimit:4;stroke-dasharray:none;stroke-opacity:1" />
    <path
       style="fill:none;stroke:#000000;stroke-width:0.26458332px;stroke-linecap:butt;stroke-linejoin:miter;stroke-opacity:1"
       d="m 137.99425,99.432468 h -4.67722 v 71.928902 c 1.43661,-0.002 2.83977,0.0127 4.27631,0"
       id="path2478"
       inkscape:connector-curvature="0"
       sodipodi:nodetypes="cccc" />
    <path
       style="fill:#ffffff;fill-opacity:1;stroke:#000000;stroke-width:0.32100001;stroke-linecap:square;stroke-miterlimit:4;stroke-dasharray:none;stroke-dashoffset:0;stroke-opacity:1"
       id="path2480"
       sodipodi:type="arc"
       sodipodi:cx="232.26341"
       sodipodi:cy="136.15448"
       sodipodi:rx="22.524605"
       sodipodi:ry="36.721592"
       sodipodi:start="1.7835694"
       sodipodi:end="4.5009423"
       sodipodi:open="true"
       d="m 227.50686,172.04797 a 22.524605,36.721592 0 0 1 -17.76805,-35.91784 22.524605,36.721592 0 0 1 17.79726,-35.87939" />
    <path
       style="fill:none;stroke:#000000;stroke-width:0.26458332px;stroke-linecap:butt;stroke-linejoin:miter;stroke-opacity:1"
       d="m 213.82769,100.06659 h 14.16529"
       id="path2482"
       inkscape:connector-curvature="0" />
    <path
       style="fill:none;stroke:#000000;stroke-width:0.26458332px;stroke-linecap:butt;stroke-linejoin:miter;stroke-opacity:1"
       d="m 213.82769,172.22937 h 13.89802"
       id="path2484"
       inkscape:connector-curvature="0" />
    <path
       style="fill:none;stroke:#000000;stroke-width:0.26866388;stroke-linecap:butt;stroke-linejoin:miter;stroke-miterlimit:4;stroke-dasharray:none;stroke-opacity:1"
       d="M 237.53763,136.03751 H 196.22291"
       id="path2486"
       inkscape:connector-curvature="0" />
    <path
       style="fill:none;stroke:#ff0000;stroke-width:0.26458332px;stroke-linecap:butt;stroke-linejoin:miter;stroke-opacity:1;marker-end:url(#Arrow2Lend)"
       d="M 2.8348215,151.66816 H 17.008928 v 0"
       id="path2488"
       inkscape:connector-curvature="0" />
    <path
       inkscape:connector-curvature="0"
       id="path2522"
       d="M 2.9293156,120.48513 H 17.103422 v 0"
       style="fill:none;stroke:#ff0000;stroke-width:0.26458332px;stroke-linecap:butt;stroke-linejoin:miter;stroke-opacity:1;marker-end:url(#marker2526)" />
    <circle
       style="fill:#000000;fill-opacity:1;stroke:#000000;stroke-width:0.23484528;stroke-linecap:square;stroke-miterlimit:4;stroke-dasharray:none;stroke-dashoffset:0;stroke-opacity:1"
       id="path2710"
       cx="12.967986"
       cy="135.75769"
       r="0.38257736" />
    <circle
       r="0.38257736"
       cy="135.79111"
       cx="92.714531"
       id="circle2712"
       style="fill:#000000;fill-opacity:1;stroke:#000000;stroke-width:0.23484528;stroke-linecap:square;stroke-miterlimit:4;stroke-dasharray:none;stroke-dashoffset:0;stroke-opacity:1" />
    <text
       xml:space="preserve"
       style="font-style:normal;font-weight:normal;font-size:10.58333302px;line-height:1.25;font-family:sans-serif;letter-spacing:0px;word-spacing:0px;fill:#000000;fill-opacity:1;stroke:none;stroke-width:0.26458332"
       x="6.1471992"
       y="143.85457"
       id="text2716"><tspan
         sodipodi:role="line"
         id="tspan2714"
         x="6.1471992"
         y="143.85457"
         style="font-style:normal;font-variant:normal;font-weight:normal;font-stretch:normal;font-size:8.46666622px;font-family:'Times New Roman';-inkscape-font-specification:'Times New Roman, Normal';font-variant-ligatures:normal;font-variant-caps:normal;font-variant-numeric:normal;font-feature-settings:normal;text-align:start;writing-mode:lr-tb;text-anchor:start;stroke-width:0.26458332">M<tspan
   style="font-size:64.99999762%;baseline-shift:sub"
   id="tspan2724">2</tspan></tspan></text>
    <text
       id="text2720"
       y="143.85457"
       x="87.397133"
       style="font-style:normal;font-weight:normal;font-size:10.58333302px;line-height:1.25;font-family:sans-serif;letter-spacing:0px;word-spacing:0px;fill:#000000;fill-opacity:1;stroke:none;stroke-width:0.26458332"
       xml:space="preserve"><tspan
         style="font-style:normal;font-variant:normal;font-weight:normal;font-stretch:normal;font-size:8.46666622px;font-family:'Times New Roman';-inkscape-font-specification:'Times New Roman, Normal';font-variant-ligatures:normal;font-variant-caps:normal;font-variant-numeric:normal;font-feature-settings:normal;text-align:start;writing-mode:lr-tb;text-anchor:start;stroke-width:0.26458332"
         y="143.85457"
         x="87.397133"
         id="tspan2718"
         sodipodi:role="line">M<tspan
   style="font-size:64.99999762%;baseline-shift:sub"
   id="tspan2722">1</tspan></tspan></text>
    <text
       xml:space="preserve"
       style="font-style:normal;font-weight:normal;font-size:10.58333302px;line-height:1.25;font-family:sans-serif;letter-spacing:0px;word-spacing:0px;fill:#000000;fill-opacity:1;stroke:none;stroke-width:0.26458332"
       x="31.805073"
       y="124.21026"
       id="text2728"><tspan
         sodipodi:role="line"
         id="tspan2726"
         x="31.805073"
         y="124.21026"
         style="font-style:normal;font-variant:normal;font-weight:normal;font-stretch:normal;font-size:8.46666622px;font-family:'Times New Roman';-inkscape-font-specification:'Times New Roman, Normal';font-variant-ligatures:normal;font-variant-caps:normal;font-variant-numeric:normal;font-feature-settings:normal;text-align:start;writing-mode:lr-tb;text-anchor:start;stroke-width:0.26458332">R<tspan
   style="font-size:64.99999762%;baseline-shift:sub"
   id="tspan2736">2</tspan></tspan></text>
    <text
       id="text2732"
       y="150.00177"
       x="64.144684"
       style="font-style:normal;font-weight:normal;font-size:10.58333302px;line-height:1.25;font-family:sans-serif;letter-spacing:0px;word-spacing:0px;fill:#000000;fill-opacity:1;stroke:none;stroke-width:0.26458332"
       xml:space="preserve"><tspan
         style="font-style:normal;font-variant:normal;font-weight:normal;font-stretch:normal;font-size:8.46666622px;font-family:'Times New Roman';-inkscape-font-specification:'Times New Roman, Normal';font-variant-ligatures:normal;font-variant-caps:normal;font-variant-numeric:normal;font-feature-settings:normal;text-align:start;writing-mode:lr-tb;text-anchor:start;stroke-width:0.26458332"
         y="150.00177"
         x="64.144684"
         id="tspan2730"
         sodipodi:role="line">R<tspan
   style="font-size:64.99999762%;baseline-shift:sub"
   id="tspan2734">1</tspan></tspan></text>
    <text
       xml:space="preserve"
       style="font-style:normal;font-weight:normal;font-size:10.58333302px;line-height:1.25;font-family:sans-serif;letter-spacing:0px;word-spacing:0px;fill:#000000;fill-opacity:1;stroke:none;stroke-width:0.26458332"
       x="32.473248"
       y="158.28711"
       id="text2740"><tspan
         sodipodi:role="line"
         id="tspan2738"
         x="32.473248"
         y="158.28711"
         style="font-style:normal;font-variant:normal;font-weight:normal;font-stretch:normal;font-size:8.46666622px;font-family:'Times New Roman';-inkscape-font-specification:'Times New Roman, Normal';font-variant-ligatures:normal;font-variant-caps:normal;font-variant-numeric:normal;font-feature-settings:normal;text-align:start;writing-mode:lr-tb;text-anchor:start;stroke-width:0.26458332">n</tspan></text>
    <text
       xml:space="preserve"
       style="font-style:normal;font-weight:normal;font-size:10.58333302px;line-height:1.25;font-family:sans-serif;letter-spacing:0px;word-spacing:0px;fill:#000000;fill-opacity:1;stroke:none;stroke-width:0.26458332"
       x="16.83798"
       y="104.03141"
       id="text2744"><tspan
         sodipodi:role="line"
         id="tspan2742"
         x="16.83798"
         y="104.03141"
         style="font-style:normal;font-variant:normal;font-weight:normal;font-stretch:normal;font-size:8.46666622px;font-family:'Times New Roman';-inkscape-font-specification:'Times New Roman, Normal';font-variant-ligatures:normal;font-variant-caps:normal;font-variant-numeric:normal;font-feature-settings:normal;text-align:start;writing-mode:lr-tb;text-anchor:start;stroke-width:0.26458332">1</tspan></text>
    <text
       id="text2748"
       y="103.76414"
       x="47.573975"
       style="font-style:normal;font-weight:normal;font-size:10.58333302px;line-height:1.25;font-family:sans-serif;letter-spacing:0px;word-spacing:0px;fill:#000000;fill-opacity:1;stroke:none;stroke-width:0.26458332"
       xml:space="preserve"><tspan
         style="font-style:normal;font-variant:normal;font-weight:normal;font-stretch:normal;font-size:8.46666622px;font-family:'Times New Roman';-inkscape-font-specification:'Times New Roman, Normal';font-variant-ligatures:normal;font-variant-caps:normal;font-variant-numeric:normal;font-feature-settings:normal;text-align:start;writing-mode:lr-tb;text-anchor:start;stroke-width:0.26458332"
         y="103.76414"
         x="47.573975"
         id="tspan2746"
         sodipodi:role="line">2</tspan></text>
    <text
       xml:space="preserve"
       style="font-style:normal;font-weight:normal;font-size:10.58333302px;line-height:1.25;font-family:sans-serif;letter-spacing:0px;word-spacing:0px;fill:#000000;fill-opacity:1;stroke:none;stroke-width:0.26458332"
       x="11.626225"
       y="182.60864"
       id="text2752"><tspan
         sodipodi:role="line"
         id="tspan2750"
         x="11.626225"
         y="182.60864"
         style="font-style:normal;font-variant:normal;font-weight:normal;font-stretch:normal;font-size:8.46666622px;font-family:'Times New Roman';-inkscape-font-specification:'Times New Roman, Normal';font-variant-ligatures:normal;font-variant-caps:normal;font-variant-numeric:normal;font-feature-settings:normal;text-align:start;writing-mode:lr-tb;text-anchor:start;stroke-width:0.26458332">a) R<tspan
   style="font-size:64.99999762%;baseline-shift:sub"
   id="tspan2754">1 </tspan>&gt; 0, R<tspan
   style="font-size:64.99999762%;baseline-shift:sub"
   id="tspan2756">2 </tspan>&lt; 0</tspan></text>
    <text
       id="text2764"
       y="181.23317"
       x="102.24239"
       style="font-style:normal;font-weight:normal;font-size:10.58333302px;line-height:1.25;font-family:sans-serif;letter-spacing:0px;word-spacing:0px;fill:#000000;fill-opacity:1;stroke:none;stroke-width:0.26458332"
       xml:space="preserve"><tspan
         style="font-style:normal;font-variant:normal;font-weight:normal;font-stretch:normal;font-size:8.46666622px;font-family:'Times New Roman';-inkscape-font-specification:'Times New Roman, Normal';font-variant-ligatures:normal;font-variant-caps:normal;font-variant-numeric:normal;font-feature-settings:normal;text-align:start;writing-mode:lr-tb;text-anchor:start;stroke-width:0.26458332"
         y="181.23317"
         x="102.24239"
         id="tspan2762"
         sodipodi:role="line">b) R<tspan
   style="font-size:64.99999762%;baseline-shift:sub"
   id="tspan2766">1</tspan> = ∞, R<tspan
   id="tspan2760"
   style="font-size:64.99999762%;baseline-shift:sub">2 </tspan>&lt; 0</tspan></text>
    <path
       inkscape:connector-curvature="0"
       id="path2774"
       d="m 105.73359,151.80179 h 14.1741 v 0"
       style="fill:none;stroke:#ff0000;stroke-width:0.26458332px;stroke-linecap:butt;stroke-linejoin:miter;stroke-opacity:1;marker-end:url(#marker2778)" />
    <path
       style="fill:none;stroke:#ff0000;stroke-width:0.26458332px;stroke-linecap:butt;stroke-linejoin:miter;stroke-opacity:1;marker-end:url(#marker3126)"
       d="m 105.73359,121.8676 h 14.1741 v 0"
       id="path3122"
       inkscape:connector-curvature="0" />
    <text
       id="text3418"
       y="105.10049"
       x="119.60311"
       style="font-style:normal;font-weight:normal;font-size:10.58333302px;line-height:1.25;font-family:sans-serif;letter-spacing:0px;word-spacing:0px;fill:#000000;fill-opacity:1;stroke:none;stroke-width:0.26458332"
       xml:space="preserve"><tspan
         style="font-style:normal;font-variant:normal;font-weight:normal;font-stretch:normal;font-size:8.46666622px;font-family:'Times New Roman';-inkscape-font-specification:'Times New Roman, Normal';font-variant-ligatures:normal;font-variant-caps:normal;font-variant-numeric:normal;font-feature-settings:normal;text-align:start;writing-mode:lr-tb;text-anchor:start;stroke-width:0.26458332"
         y="105.10049"
         x="119.60311"
         id="tspan3416"
         sodipodi:role="line">1</tspan></text>
    <text
       xml:space="preserve"
       style="font-style:normal;font-weight:normal;font-size:10.58333302px;line-height:1.25;font-family:sans-serif;letter-spacing:0px;word-spacing:0px;fill:#000000;fill-opacity:1;stroke:none;stroke-width:0.26458332"
       x="148.46822"
       y="104.96685"
       id="text3422"><tspan
         sodipodi:role="line"
         id="tspan3420"
         x="148.46822"
         y="104.96685"
         style="font-style:normal;font-variant:normal;font-weight:normal;font-stretch:normal;font-size:8.46666622px;font-family:'Times New Roman';-inkscape-font-specification:'Times New Roman, Normal';font-variant-ligatures:normal;font-variant-caps:normal;font-variant-numeric:normal;font-feature-settings:normal;text-align:start;writing-mode:lr-tb;text-anchor:start;stroke-width:0.26458332">2</tspan></text>
    <text
       xml:space="preserve"
       style="font-style:normal;font-weight:normal;font-size:10.58333302px;line-height:1.25;font-family:sans-serif;letter-spacing:0px;word-spacing:0px;fill:#000000;fill-opacity:1;stroke:none;stroke-width:0.26458332"
       x="198.60013"
       y="104.9115"
       id="text3426"><tspan
         sodipodi:role="line"
         id="tspan3424"
         x="198.60013"
         y="104.9115"
         style="font-style:normal;font-variant:normal;font-weight:normal;font-stretch:normal;font-size:8.46666622px;font-family:'Times New Roman';-inkscape-font-specification:'Times New Roman, Normal';font-variant-ligatures:normal;font-variant-caps:normal;font-variant-numeric:normal;font-feature-settings:normal;text-align:start;writing-mode:lr-tb;text-anchor:start;stroke-width:0.26458332">1</tspan></text>
    <text
       id="text3430"
       y="104.77786"
       x="233.89084"
       style="font-style:normal;font-weight:normal;font-size:10.58333302px;line-height:1.25;font-family:sans-serif;letter-spacing:0px;word-spacing:0px;fill:#000000;fill-opacity:1;stroke:none;stroke-width:0.26458332"
       xml:space="preserve"><tspan
         style="font-style:normal;font-variant:normal;font-weight:normal;font-stretch:normal;font-size:8.46666622px;font-family:'Times New Roman';-inkscape-font-specification:'Times New Roman, Normal';font-variant-ligatures:normal;font-variant-caps:normal;font-variant-numeric:normal;font-feature-settings:normal;text-align:start;writing-mode:lr-tb;text-anchor:start;stroke-width:0.26458332"
         y="104.77786"
         x="233.89084"
         id="tspan3428"
         sodipodi:role="line">2</tspan></text>
    <path
       style="fill:none;stroke:#ff0000;stroke-width:0.26458332px;stroke-linecap:butt;stroke-linejoin:miter;stroke-opacity:1;marker-end:url(#marker3442)"
       d="m 178.68299,151.6128 h 14.1741 v 0"
       id="path3438"
       inkscape:connector-curvature="0" />
    <path
       inkscape:connector-curvature="0"
       id="path3636"
       d="m 178.11603,122.13066 h 14.1741 v 0"
       style="fill:none;stroke:#ff0000;stroke-width:0.26458332px;stroke-linecap:butt;stroke-linejoin:miter;stroke-opacity:1;marker-end:url(#marker3640)" />
    <text
       xml:space="preserve"
       style="font-style:normal;font-weight:normal;font-size:10.58333302px;line-height:1.25;font-family:sans-serif;letter-spacing:0px;word-spacing:0px;fill:#000000;fill-opacity:1;stroke:none;stroke-width:0.26458332"
       x="182.75131"
       y="181.23317"
       id="text3876"><tspan
         sodipodi:role="line"
         id="tspan3874"
         x="182.75131"
         y="181.23317"
         style="font-style:normal;font-variant:normal;font-weight:normal;font-stretch:normal;font-size:8.46666622px;font-family:'Times New Roman';-inkscape-font-specification:'Times New Roman, Normal';font-variant-ligatures:normal;font-variant-caps:normal;font-variant-numeric:normal;font-feature-settings:normal;text-align:start;writing-mode:lr-tb;text-anchor:start;stroke-width:0.26458332">c) R<tspan
   id="tspan3870"
   style="font-size:64.99999762%;baseline-shift:sub">1</tspan> &gt; 0, R<tspan
   style="font-size:65%;baseline-shift:sub"
   id="tspan4492">1</tspan> ≠ R<tspan
   style="font-size:64.99999762%;baseline-shift:sub"
   id="tspan3878">2</tspan> &gt; 0</tspan></text>
    <path
       style="fill:#ffffff;fill-opacity:1;stroke:#000000;stroke-width:0.32100001;stroke-linecap:square;stroke-miterlimit:4;stroke-dasharray:none;stroke-dashoffset:0;stroke-opacity:1"
       id="path3880"
       sodipodi:type="arc"
       sodipodi:cx="49.957092"
       sodipodi:cy="232.18253"
       sodipodi:rx="11.202955"
       sodipodi:ry="36.809708"
       sodipodi:start="1.7835694"
       sodipodi:end="4.5009423"
       sodipodi:open="true"
       d="m 47.59135,268.16214 a 11.202955,36.809708 0 0 1 -8.83721,-36.00403 11.202955,36.809708 0 0 1 8.851737,-35.96548" />
    <path
       d="m -20.390234,268.69669 a 11.202955,36.809708 0 0 1 -8.837211,-36.00403 11.202955,36.809708 0 0 1 8.851737,-35.96548"
       sodipodi:open="true"
       sodipodi:end="4.5009423"
       sodipodi:start="1.7835694"
       sodipodi:ry="36.809708"
       sodipodi:rx="11.202955"
       sodipodi:cy="232.71707"
       sodipodi:cx="-18.024492"
       sodipodi:type="arc"
       id="path3882"
       style="fill:#ffffff;fill-opacity:1;stroke:#000000;stroke-width:0.32100001;stroke-linecap:square;stroke-miterlimit:4;stroke-dasharray:none;stroke-dashoffset:0;stroke-opacity:1"
       transform="scale(-1,1)" />
    <path
       style="fill:none;stroke:#000000;stroke-width:0.26458332px;stroke-linecap:butt;stroke-linejoin:miter;stroke-opacity:1"
       d="M 20.221726,196.26935 H 47.624999"
       id="path3884"
       inkscape:connector-curvature="0" />
    <path
       style="fill:none;stroke:#000000;stroke-width:0.26458332px;stroke-linecap:butt;stroke-linejoin:miter;stroke-opacity:1"
       d="m 20.127232,268.74628 h 27.59226"
       id="path3886"
       inkscape:connector-curvature="0" />
    <path
       inkscape:connector-curvature="0"
       id="path3894"
       d="M 5.2916667,251.83185 H 19.465773 v 0"
       style="fill:none;stroke:#ff0000;stroke-width:0.26458332px;stroke-linecap:butt;stroke-linejoin:miter;stroke-opacity:1;marker-end:url(#marker3898)" />
    <path
       style="fill:none;stroke:#ff0000;stroke-width:0.26458332px;stroke-linecap:butt;stroke-linejoin:miter;stroke-opacity:1;marker-end:url(#marker4180)"
       d="M 5.4806548,215.16816 H 19.654761 v 0"
       id="path4176"
       inkscape:connector-curvature="0" />
    <path
       inkscape:connector-curvature="0"
       id="path4320"
       d="M 62.855148,231.04316 H 3.4017855"
       style="fill:none;stroke:#000000;stroke-width:0.32499999;stroke-linecap:butt;stroke-linejoin:miter;stroke-miterlimit:4;stroke-dasharray:none;stroke-opacity:1" />
    <text
       id="text4328"
       y="280.80417"
       x="9.1749439"
       style="font-style:normal;font-weight:normal;font-size:10.58333302px;line-height:1.25;font-family:sans-serif;letter-spacing:0px;word-spacing:0px;fill:#000000;fill-opacity:1;stroke:none;stroke-width:0.26458332"
       xml:space="preserve"><tspan
         style="font-style:normal;font-variant:normal;font-weight:normal;font-stretch:normal;font-size:8.46666622px;font-family:'Times New Roman';-inkscape-font-specification:'Times New Roman, Normal';font-variant-ligatures:normal;font-variant-caps:normal;font-variant-numeric:normal;font-feature-settings:normal;text-align:start;writing-mode:lr-tb;text-anchor:start;stroke-width:0.26458332"
         y="280.80417"
         x="9.1749439"
         id="tspan4326"
         sodipodi:role="line">d) R<tspan
   style="font-size:64.99999762%;baseline-shift:sub"
   id="tspan4330">1</tspan> &lt; 0, R<tspan
   style="font-size:64.99999762%;baseline-shift:sub"
   id="tspan4332">2 </tspan>&gt; 0</tspan></text>
    <text
       id="text4336"
       y="196.63557"
       x="14.381135"
       style="font-style:normal;font-weight:normal;font-size:10.58333302px;line-height:1.25;font-family:sans-serif;letter-spacing:0px;word-spacing:0px;fill:#000000;fill-opacity:1;stroke:none;stroke-width:0.26458332"
       xml:space="preserve"><tspan
         style="font-style:normal;font-variant:normal;font-weight:normal;font-stretch:normal;font-size:8.46666622px;font-family:'Times New Roman';-inkscape-font-specification:'Times New Roman, Normal';font-variant-ligatures:normal;font-variant-caps:normal;font-variant-numeric:normal;font-feature-settings:normal;text-align:start;writing-mode:lr-tb;text-anchor:start;stroke-width:0.26458332"
         y="196.63557"
         x="14.381135"
         id="tspan4334"
         sodipodi:role="line">1</tspan></text>
    <text
       xml:space="preserve"
       style="font-style:normal;font-weight:normal;font-size:10.58333302px;line-height:1.25;font-family:sans-serif;letter-spacing:0px;word-spacing:0px;fill:#000000;fill-opacity:1;stroke:none;stroke-width:0.26458332"
       x="49.841831"
       y="196.3683"
       id="text4340"><tspan
         sodipodi:role="line"
         id="tspan4338"
         x="49.841831"
         y="196.3683"
         style="font-style:normal;font-variant:normal;font-weight:normal;font-stretch:normal;font-size:8.46666622px;font-family:'Times New Roman';-inkscape-font-specification:'Times New Roman, Normal';font-variant-ligatures:normal;font-variant-caps:normal;font-variant-numeric:normal;font-feature-settings:normal;text-align:start;writing-mode:lr-tb;text-anchor:start;stroke-width:0.26458332">2</tspan></text>
    <path
       transform="scale(-1,1)"
       style="fill:#ffffff;fill-opacity:1;stroke:#000000;stroke-width:0.32100001;stroke-linecap:square;stroke-miterlimit:4;stroke-dasharray:none;stroke-dashoffset:0;stroke-opacity:1"
       id="path4344"
       sodipodi:type="arc"
       sodipodi:cx="-109.30574"
       sodipodi:cy="233.09505"
       sodipodi:rx="11.202955"
       sodipodi:ry="36.809708"
       sodipodi:start="1.7835694"
       sodipodi:end="4.5009423"
       sodipodi:open="true"
       d="m -111.67148,269.07466 a 11.202955,36.809708 0 0 1 -8.83721,-36.00403 11.202955,36.809708 0 0 1 8.85173,-35.96548" />
    <path
       inkscape:connector-curvature="0"
       id="path4346"
       d="m 111.50298,196.64733 h 27.40327"
       style="fill:none;stroke:#000000;stroke-width:0.26458332px;stroke-linecap:butt;stroke-linejoin:miter;stroke-opacity:1" />
    <path
       inkscape:connector-curvature="0"
       id="path4348"
       d="m 111.40848,269.12426 h 27.59226"
       style="fill:none;stroke:#000000;stroke-width:0.26458332px;stroke-linecap:butt;stroke-linejoin:miter;stroke-opacity:1" />
    <path
       style="fill:none;stroke:#ff0000;stroke-width:0.26458332px;stroke-linecap:butt;stroke-linejoin:miter;stroke-opacity:1;marker-end:url(#marker3898)"
       d="m 96.572917,252.20983 h 14.174103 v 0"
       id="path4350"
       inkscape:connector-curvature="0" />
    <path
       inkscape:connector-curvature="0"
       id="path4352"
       d="m 96.761905,215.54614 h 14.174105 v 0"
       style="fill:none;stroke:#ff0000;stroke-width:0.26458332px;stroke-linecap:butt;stroke-linejoin:miter;stroke-opacity:1;marker-end:url(#marker4180)" />
    <path
       style="fill:none;stroke:#000000;stroke-width:0.32499999;stroke-linecap:butt;stroke-linejoin:miter;stroke-miterlimit:4;stroke-dasharray:none;stroke-opacity:1"
       d="M 154.1364,231.42114 H 94.683036"
       id="path4354"
       inkscape:connector-curvature="0" />
    <text
       xml:space="preserve"
       style="font-style:normal;font-weight:normal;font-size:10.58333302px;line-height:1.25;font-family:sans-serif;letter-spacing:0px;word-spacing:0px;fill:#000000;fill-opacity:1;stroke:none;stroke-width:0.26458332"
       x="97.248962"
       y="281.18216"
       id="text4364"><tspan
         sodipodi:role="line"
         id="tspan4362"
         x="97.248962"
         y="281.18216"
         style="font-style:normal;font-variant:normal;font-weight:normal;font-stretch:normal;font-size:8.46666622px;font-family:'Times New Roman';-inkscape-font-specification:'Times New Roman, Normal';font-variant-ligatures:normal;font-variant-caps:normal;font-variant-numeric:normal;font-feature-settings:normal;text-align:start;writing-mode:lr-tb;text-anchor:start;stroke-width:0.26458332">e) R<tspan
   id="tspan4356"
   style="font-size:64.99999762%;baseline-shift:sub">1</tspan> &lt; 0, R<tspan
   style="font-size:64.99999762%;baseline-shift:sub"
   id="tspan4376">2</tspan> = ∞</tspan></text>
    <text
       xml:space="preserve"
       style="font-style:normal;font-weight:normal;font-size:10.58333302px;line-height:1.25;font-family:sans-serif;letter-spacing:0px;word-spacing:0px;fill:#000000;fill-opacity:1;stroke:none;stroke-width:0.26458332"
       x="105.66238"
       y="197.01355"
       id="text4368"><tspan
         sodipodi:role="line"
         id="tspan4366"
         x="105.66238"
         y="197.01355"
         style="font-style:normal;font-variant:normal;font-weight:normal;font-stretch:normal;font-size:8.46666622px;font-family:'Times New Roman';-inkscape-font-specification:'Times New Roman, Normal';font-variant-ligatures:normal;font-variant-caps:normal;font-variant-numeric:normal;font-feature-settings:normal;text-align:start;writing-mode:lr-tb;text-anchor:start;stroke-width:0.26458332">1</tspan></text>
    <text
       id="text4372"
       y="196.74628"
       x="141.12308"
       style="font-style:normal;font-weight:normal;font-size:10.58333302px;line-height:1.25;font-family:sans-serif;letter-spacing:0px;word-spacing:0px;fill:#000000;fill-opacity:1;stroke:none;stroke-width:0.26458332"
       xml:space="preserve"><tspan
         style="font-style:normal;font-variant:normal;font-weight:normal;font-stretch:normal;font-size:8.46666622px;font-family:'Times New Roman';-inkscape-font-specification:'Times New Roman, Normal';font-variant-ligatures:normal;font-variant-caps:normal;font-variant-numeric:normal;font-feature-settings:normal;text-align:start;writing-mode:lr-tb;text-anchor:start;stroke-width:0.26458332"
         y="196.74628"
         x="141.12308"
         id="tspan4370"
         sodipodi:role="line">2</tspan></text>
    <path
       style="fill:none;stroke:#000000;stroke-width:0.26458332px;stroke-linecap:butt;stroke-linejoin:miter;stroke-opacity:1"
       d="m 138.90625,196.64732 v 72.38244"
       id="path4374"
       inkscape:connector-curvature="0" />
    <path
       d="m 219.27177,268.69667 a 11.202955,36.809708 0 0 1 -8.83721,-36.00403 11.202955,36.809708 0 0 1 8.85174,-35.96548"
       sodipodi:open="true"
       sodipodi:end="4.5009423"
       sodipodi:start="1.7835694"
       sodipodi:ry="36.809708"
       sodipodi:rx="11.202955"
       sodipodi:cy="232.71706"
       sodipodi:cx="221.63751"
       sodipodi:type="arc"
       id="path4378"
       style="fill:#ffffff;fill-opacity:1;stroke:#000000;stroke-width:0.32100001;stroke-linecap:square;stroke-miterlimit:4;stroke-dasharray:none;stroke-dashoffset:0;stroke-opacity:1" />
    <path
       style="fill:none;stroke:#000000;stroke-width:0.32499999;stroke-linecap:butt;stroke-linejoin:miter;stroke-miterlimit:4;stroke-dasharray:none;stroke-opacity:1"
       d="m 219.60417,196.45834 h 7.37053"
       id="path4380"
       inkscape:connector-curvature="0" />
    <path
       style="fill:none;stroke:#000000;stroke-width:0.32499999;stroke-linecap:butt;stroke-linejoin:miter;stroke-miterlimit:4;stroke-dasharray:none;stroke-opacity:1"
       d="m 219.88764,268.93527 h 7.18155"
       id="path4382"
       inkscape:connector-curvature="0" />
    <path
       inkscape:connector-curvature="0"
       id="path4384"
       d="m 184.64137,252.02084 h 14.1741 v 0"
       style="fill:none;stroke:#ff0000;stroke-width:0.26458332px;stroke-linecap:butt;stroke-linejoin:miter;stroke-opacity:1;marker-end:url(#marker3898)" />
    <path
       style="fill:none;stroke:#ff0000;stroke-width:0.26458332px;stroke-linecap:butt;stroke-linejoin:miter;stroke-opacity:1;marker-end:url(#marker4180)"
       d="m 184.83036,215.35715 h 14.1741 v 0"
       id="path4386"
       inkscape:connector-curvature="0" />
    <path
       inkscape:connector-curvature="0"
       id="path4388"
       d="M 242.20485,231.23215 H 182.75149"
       style="fill:none;stroke:#000000;stroke-width:0.32499999;stroke-linecap:butt;stroke-linejoin:miter;stroke-miterlimit:4;stroke-dasharray:none;stroke-opacity:1" />
    <text
       id="text4392"
       y="196.55728"
       x="202.28346"
       style="font-style:normal;font-weight:normal;font-size:10.58333302px;line-height:1.25;font-family:sans-serif;letter-spacing:0px;word-spacing:0px;fill:#000000;fill-opacity:1;stroke:none;stroke-width:0.26458332"
       xml:space="preserve"><tspan
         style="font-style:normal;font-variant:normal;font-weight:normal;font-stretch:normal;font-size:8.46666622px;font-family:'Times New Roman';-inkscape-font-specification:'Times New Roman, Normal';font-variant-ligatures:normal;font-variant-caps:normal;font-variant-numeric:normal;font-feature-settings:normal;text-align:start;writing-mode:lr-tb;text-anchor:start;stroke-width:0.26458332"
         y="196.55728"
         x="202.28346"
         id="tspan4390"
         sodipodi:role="line">1</tspan></text>
    <text
       xml:space="preserve"
       style="font-style:normal;font-weight:normal;font-size:10.58333302px;line-height:1.25;font-family:sans-serif;letter-spacing:0px;word-spacing:0px;fill:#000000;fill-opacity:1;stroke:none;stroke-width:0.26458332"
       x="236.14053"
       y="196.55728"
       id="text4396"><tspan
         sodipodi:role="line"
         id="tspan4394"
         x="236.14053"
         y="196.55728"
         style="font-style:normal;font-variant:normal;font-weight:normal;font-stretch:normal;font-size:8.46666622px;font-family:'Times New Roman';-inkscape-font-specification:'Times New Roman, Normal';font-variant-ligatures:normal;font-variant-caps:normal;font-variant-numeric:normal;font-feature-settings:normal;text-align:start;writing-mode:lr-tb;text-anchor:start;stroke-width:0.26458332">2</tspan></text>
    <path
       inkscape:connector-curvature="0"
       id="path4398"
       d="m 226.9747,196.45833 v 72.38244"
       style="fill:none;stroke:#000000;stroke-width:0.26458332px;stroke-linecap:butt;stroke-linejoin:miter;stroke-opacity:1" />
    <text
       id="text4406"
       y="281.07144"
       x="184.36134"
       style="font-style:normal;font-weight:normal;font-size:10.58333302px;line-height:1.25;font-family:sans-serif;letter-spacing:0px;word-spacing:0px;fill:#000000;fill-opacity:1;stroke:none;stroke-width:0.26458332"
       xml:space="preserve"><tspan
         style="font-style:normal;font-variant:normal;font-weight:normal;font-stretch:normal;font-size:8.46666622px;font-family:'Times New Roman';-inkscape-font-specification:'Times New Roman, Normal';font-variant-ligatures:normal;font-variant-caps:normal;font-variant-numeric:normal;font-feature-settings:normal;text-align:start;writing-mode:lr-tb;text-anchor:start;stroke-width:0.26458332"
         y="281.07144"
         x="184.36134"
         id="tspan4404"
         sodipodi:role="line">f) nicht - sphärisch</tspan></text>
    <path
       style="fill:none;stroke:#000000;stroke-width:0.26499999;stroke-linecap:butt;stroke-linejoin:miter;stroke-miterlimit:4;stroke-dasharray:none;stroke-opacity:1;marker-start:url(#Arrow2Lstart)"
       d="m 214.3125,212.33334 h 15.49702"
       id="path4418"
       inkscape:connector-curvature="0" />
    <text
       xml:space="preserve"
       style="font-style:normal;font-weight:normal;font-size:10.58333302px;line-height:1.25;font-family:sans-serif;letter-spacing:0px;word-spacing:0px;fill:#000000;fill-opacity:1;stroke:none;stroke-width:0.26458332"
       x="231.79111"
       y="215.13574"
       id="text4490"><tspan
         sodipodi:role="line"
         id="tspan4488"
         x="231.79111"
         y="215.13574"
         style="font-style:normal;font-variant:normal;font-weight:normal;font-stretch:normal;font-size:8.46666622px;font-family:'Times New Roman';-inkscape-font-specification:'Times New Roman, Normal';font-variant-ligatures:normal;font-variant-caps:normal;font-variant-numeric:normal;font-feature-settings:normal;text-align:start;writing-mode:lr-tb;text-anchor:start;stroke-width:0.26458332">Kugelfläche</tspan></text>
  </g>
</svg>
