<?xml version="1.0" encoding="UTF-8" standalone="no"?>
<!-- Created with Inkscape (http://www.inkscape.org/) -->

<svg
   xmlns:dc="http://purl.org/dc/elements/1.1/"
   xmlns:cc="http://creativecommons.org/ns#"
   xmlns:rdf="http://www.w3.org/1999/02/22-rdf-syntax-ns#"
   xmlns:svg="http://www.w3.org/2000/svg"
   xmlns="http://www.w3.org/2000/svg"
   xmlns:sodipodi="http://sodipodi.sourceforge.net/DTD/sodipodi-0.dtd"
   xmlns:inkscape="http://www.inkscape.org/namespaces/inkscape"
   width="210mm"
   height="210mm"
   viewBox="0 0 210 210"
   version="1.1"
   id="svg8"
   inkscape:version="0.92.2 (5c3e80d, 2017-08-06)"
   sodipodi:docname="RL-Kreis-I-Onset-Offset.svg"
   inkscape:export-filename="E:\Beschäftigungsverhältnis - Universität Hamburg - ab SS 2017\Wintersemester 2017 - 2018\Skript-Physik II\Vorlesungsskript-Physik-II-UniHH--dieter\v0.1\figures\RL-Kreis-I-Onset-Offset.png"
   inkscape:export-xdpi="96"
   inkscape:export-ydpi="96">
  <defs
     id="defs2">
    <marker
       inkscape:stockid="Arrow2Mend"
       orient="auto"
       refY="0"
       refX="0"
       id="Arrow2Mend"
       style="overflow:visible"
       inkscape:isstock="true">
      <path
         inkscape:connector-curvature="0"
         id="path1309"
         style="fill:#000000;fill-opacity:1;fill-rule:evenodd;stroke:#000000;stroke-width:0.625;stroke-linejoin:round;stroke-opacity:1"
         d="M 8.7185878,4.0337352 -2.2072895,0.01601326 8.7185884,-4.0017078 c -1.7454984,2.3720609 -1.7354408,5.6174519 -6e-7,8.035443 z"
         transform="scale(-0.6)" />
    </marker>
    <clipPath
       id="clipEmfPath1"
       clipPathUnits="userSpaceOnUse">
      <path
         id="path815"
         d="M 11.981102,33.662589 H 525.67087 V 350.83898 H 11.981102 Z"
         inkscape:connector-curvature="0" />
    </clipPath>
    <clipPath
       id="clipPath1696"
       clipPathUnits="userSpaceOnUse">
      <path
         id="path1694"
         d="M 11.981102,33.662589 H 525.67087 V 350.83898 H 11.981102 Z"
         inkscape:connector-curvature="0" />
    </clipPath>
    <clipPath
       id="clipEmfPath4"
       clipPathUnits="userSpaceOnUse">
      <path
         id="path824"
         d="m 587.82283,204.96776 h 31.4504 v 16.45727 h -31.4504 z"
         inkscape:connector-curvature="0" />
    </clipPath>
    <clipPath
       id="clipEmfPath3"
       clipPathUnits="userSpaceOnUse">
      <path
         id="path821"
         d="m 587.82283,171.30517 h 31.4504 v 15.70921 h -31.4504 z"
         inkscape:connector-curvature="0" />
    </clipPath>
    <clipPath
       id="clipEmfPath2"
       clipPathUnits="userSpaceOnUse">
      <path
         id="path818"
         d="m 587.82283,136.89453 h 31.4504 v 16.45726 h -31.4504 z"
         inkscape:connector-curvature="0" />
    </clipPath>
    <marker
       inkscape:stockid="Arrow2Mend"
       orient="auto"
       refY="0"
       refX="0"
       id="Arrow2Mend-8"
       style="overflow:visible"
       inkscape:isstock="true">
      <path
         inkscape:connector-curvature="0"
         id="path1309-1"
         style="fill:#000000;fill-opacity:1;fill-rule:evenodd;stroke:#000000;stroke-width:0.625;stroke-linejoin:round;stroke-opacity:1"
         d="M 8.7185878,4.0337352 -2.2072895,0.01601326 8.7185884,-4.0017078 c -1.7454984,2.3720609 -1.7354408,5.6174519 -6e-7,8.035443 z"
         transform="scale(-0.6)" />
    </marker>
    <clipPath
       id="clipEmfPath3-8"
       clipPathUnits="userSpaceOnUse">
      <path
         inkscape:connector-curvature="0"
         id="path2673"
         d="m 587.82283,201.64409 h 31.4504 v 15.74174 h -31.4504 z" />
    </clipPath>
    <clipPath
       id="clipEmfPath2-8"
       clipPathUnits="userSpaceOnUse">
      <path
         inkscape:connector-curvature="0"
         id="path2670"
         d="m 587.82283,167.1622 h 31.4504 v 15.74174 h -31.4504 z" />
    </clipPath>
    <clipPath
       id="clipEmfPath1-3"
       clipPathUnits="userSpaceOnUse">
      <path
         inkscape:connector-curvature="0"
         id="path2667"
         d="m 587.82283,132.68031 h 31.4504 v 15.74174 h -31.4504 z" />
    </clipPath>
    <clipPath
       id="clipEmfPath1-0"
       clipPathUnits="userSpaceOnUse">
      <path
         id="path2368"
         d="M 8.2456693,32.160961 L 493.99055,32.160961 L 493.99055,331.33269 L 8.2456693,331.33269 z" />
    </clipPath>
    <clipPath
       id="clipEmfPath2-3"
       clipPathUnits="userSpaceOnUse">
      <path
         id="path2371"
         d="M 0,0.74792933 L 512.73071,0.74792933 L 512.73071,332.08062 L 0,332.08062 z" />
    </clipPath>
    <clipPath
       id="clipEmfPath3-86"
       clipPathUnits="userSpaceOnUse">
      <path
         id="path2374"
         d="M 532.97008,127.14799 L 589.94016,127.14799 L 589.94016,141.35864 L 532.97008,141.35864 z" />
    </clipPath>
    <clipPath
       id="clipEmfPath4-8"
       clipPathUnits="userSpaceOnUse">
      <path
         id="path2377"
         d="M 532.97008,158.56102 L 589.94016,158.56102 L 589.94016,172.02375 L 532.97008,172.02375 z" />
    </clipPath>
    <clipPath
       id="clipEmfPath5"
       clipPathUnits="userSpaceOnUse">
      <path
         id="path2380"
         d="M 532.97008,189.22612 L 589.94016,189.22612 L 589.94016,203.43678 L 532.97008,203.43678 z" />
    </clipPath>
    <pattern
       y="0"
       x="0"
       height="6"
       width="6"
       patternUnits="userSpaceOnUse"
       id="EMFhbasepattern" />
    <clipPath
       id="clipEmfPath1-6"
       clipPathUnits="userSpaceOnUse">
      <path
         id="path2936"
         d="M 2.2488189,0.7496063 L 486.70878,0.7496063 L 486.70878,320.08189 L 2.2488189,320.08189 z" />
    </clipPath>
    <clipPath
       id="clipEmfPath2-9"
       clipPathUnits="userSpaceOnUse">
      <path
         id="path2939-3"
         d="M 505.42825,122.18583 L 559.34033,122.18583 L 559.34033,135.67874 L 505.42825,135.67874 z" />
    </clipPath>
    <clipPath
       id="clipEmfPath3-4"
       clipPathUnits="userSpaceOnUse">
      <path
         id="path2942"
         d="M 505.42825,152.91969 L 559.34033,152.91969 L 559.34033,166.4126 L 505.42825,166.4126 z" />
    </clipPath>
    <clipPath
       id="clipEmfPath4-9"
       clipPathUnits="userSpaceOnUse">
      <path
         id="path2945"
         d="M 505.42825,183.65354 L 559.34033,183.65354 L 559.34033,197.14646 L 505.42825,197.14646 z" />
    </clipPath>
    <pattern
       y="0"
       x="0"
       height="6"
       width="6"
       patternUnits="userSpaceOnUse"
       id="EMFhbasepattern-1" />
  </defs>
  <sodipodi:namedview
     id="base"
     pagecolor="#ffffff"
     bordercolor="#666666"
     borderopacity="1.0"
     inkscape:pageopacity="0.0"
     inkscape:pageshadow="2"
     inkscape:zoom="1.979899"
     inkscape:cx="1063.745"
     inkscape:cy="417.2097"
     inkscape:document-units="mm"
     inkscape:current-layer="layer1"
     showgrid="true"
     showguides="false"
     inkscape:snap-global="false"
     inkscape:window-width="1920"
     inkscape:window-height="1017"
     inkscape:window-x="-8"
     inkscape:window-y="-8"
     inkscape:window-maximized="1">
    <inkscape:grid
       type="xygrid"
       id="grid815" />
  </sodipodi:namedview>
  <metadata
     id="metadata5">
    <rdf:RDF>
      <cc:Work
         rdf:about="">
        <dc:format>image/svg+xml</dc:format>
        <dc:type
           rdf:resource="http://purl.org/dc/dcmitype/StillImage" />
        <dc:title />
      </cc:Work>
    </rdf:RDF>
  </metadata>
  <g
     inkscape:label="Ebene 1"
     inkscape:groupmode="layer"
     id="layer1"
     transform="translate(0,-87)">
    <rect
       style="fill:#ffffff;stroke:#000000;stroke-width:0.19440375;stroke-miterlimit:4;stroke-dasharray:0.58321128, 0.19440376;stroke-dashoffset:0;stroke-opacity:1"
       id="rect1218"
       width="16.628016"
       height="27.030014"
       x="43.924641"
       y="175.7274"
       inkscape:export-xdpi="96"
       inkscape:export-ydpi="96" />
    <text
       id="text996-5"
       y="173.33618"
       x="76.711128"
       style="font-style:normal;font-variant:normal;font-weight:bold;font-stretch:normal;font-size:5.1414938px;line-height:125%;font-family:'Times New Roman';-inkscape-font-specification:'Times New Roman, Bold';font-variant-ligatures:normal;font-variant-caps:normal;font-variant-numeric:normal;font-feature-settings:normal;text-align:start;letter-spacing:0px;word-spacing:0px;writing-mode:lr-tb;text-anchor:start;fill:#000000;fill-opacity:1;stroke:none;stroke-width:0.20825879"
       xml:space="preserve"
       inkscape:transform-center-x="-0.071718078"
       inkscape:transform-center-y="-0.30854963"
       inkscape:export-xdpi="96"
       inkscape:export-ydpi="96"
       transform="scale(0.96421481,1.0371133)"><tspan
         id="tspan994-7"
         y="173.33618"
         x="76.711128"
         sodipodi:role="line"
         style="font-style:normal;font-variant:normal;font-weight:bold;font-stretch:normal;font-size:5.1414938px;font-family:'Times New Roman';-inkscape-font-specification:'Times New Roman, Bold';font-variant-ligatures:normal;font-variant-caps:normal;font-variant-numeric:normal;font-feature-settings:normal;text-align:start;writing-mode:lr-tb;text-anchor:start;fill:#000000;stroke-width:0.20825879"><tspan
           id="tspan992-3"
           style="font-style:normal;font-variant:normal;font-weight:bold;font-stretch:normal;font-size:5.1414938px;font-family:'Times New Roman';-inkscape-font-specification:'Times New Roman, Bold';font-variant-ligatures:normal;font-variant-caps:normal;font-variant-numeric:normal;font-feature-settings:normal;text-align:start;writing-mode:lr-tb;text-anchor:start;fill:#000000;stroke-width:0.20825879"
           dy="0 0 0 0 0 0 0 0 0 0 0 0"
           dx="0 0 0 0 0 0 0 0 0 0 0 0">I(t = τ) = I<tspan
   style="font-size:3.34197092px;baseline-shift:sub;fill:#000000;stroke-width:0.20825879"
   id="tspan1270">0</tspan><tspan
   style="font-size:3.34197092px;baseline-shift:super;fill:#000000;stroke-width:0.20825879"
   id="tspan1276">.</tspan>(1-e<tspan
   style="font-size:3.34197092px;baseline-shift:super;fill:#000000;stroke-width:0.20825879"
   id="tspan1278">-1</tspan>) = 0,63<tspan
   style="font-size:64.99999762%;baseline-shift:super"
   id="tspan2371">.</tspan>I<tspan
   style="font-size:64.99999762%;baseline-shift:sub"
   id="tspan2369">0</tspan></tspan></tspan></text>
    <path
       style="fill:#000000;fill-opacity:1;stroke:#000000;stroke-width:0.44472277;stroke-linecap:butt;stroke-linejoin:miter;stroke-miterlimit:4;stroke-dasharray:none;stroke-opacity:1;marker-end:url(#Arrow2Mend)"
       d="m 72.071842,177.62325 -8.67859,-0.96345"
       id="path1280"
       inkscape:connector-curvature="0"
       inkscape:export-xdpi="96"
       inkscape:export-ydpi="96" />
    <text
       xml:space="preserve"
       style="font-style:normal;font-weight:normal;font-size:10.58333302px;line-height:1.25;font-family:sans-serif;letter-spacing:0px;word-spacing:0px;fill:#000000;fill-opacity:1;stroke:none;stroke-width:0.26458332"
       x="77.317429"
       y="129.75041"
       id="text2367"><tspan
         sodipodi:role="line"
         id="tspan2365"
         x="77.317429"
         y="129.75041"
         style="font-style:normal;font-variant:normal;font-weight:bold;font-stretch:normal;font-size:5.64444447px;font-family:'Times New Roman';-inkscape-font-specification:'Times New Roman, Bold';font-variant-ligatures:normal;font-variant-caps:normal;font-variant-numeric:normal;font-feature-settings:normal;text-align:start;writing-mode:lr-tb;text-anchor:start;stroke-width:0.26458332">Einschaltvorgang </tspan></text>
    <text
       xml:space="preserve"
       style="font-style:normal;font-weight:normal;font-size:10.58333302px;line-height:1.25;font-family:sans-serif;letter-spacing:0px;word-spacing:0px;fill:#000000;fill-opacity:1;stroke:none;stroke-width:0.26458332"
       x="76.351189"
       y="104.42113"
       id="text2375"><tspan
         sodipodi:role="line"
         id="tspan2373"
         x="76.351189"
         y="104.42113"
         style="font-style:normal;font-variant:normal;font-weight:bold;font-stretch:normal;font-size:10.58333302px;font-family:'Times New Roman';-inkscape-font-specification:'Times New Roman, Bold';font-variant-ligatures:normal;font-variant-caps:normal;font-variant-numeric:normal;font-feature-settings:normal;text-align:start;writing-mode:lr-tb;text-anchor:start;stroke-width:0.26458332">RL-Kreis</tspan></text>
    <rect
       style="fill:#ffffff;fill-opacity:1;stroke:#000000;stroke-width:0.482;stroke-miterlimit:4;stroke-dasharray:0.964,0.482;stroke-dashoffset:0;stroke-opacity:1"
       id="rect3118"
       width="21.882914"
       height="19.828377"
       x="42.488766"
       y="267.05402" />
    <ellipse
       style="fill:#000000;fill-opacity:1;stroke:#000000;stroke-width:0.49943066;stroke-miterlimit:4;stroke-dasharray:0.99886131, 0.49943066;stroke-dashoffset:0;stroke-opacity:1"
       id="path3120"
       cx="64.246674"
       cy="267.2836"
       rx="0.84582257"
       ry="0.73619282" />
    <text
       xml:space="preserve"
       style="font-style:normal;font-weight:normal;font-size:8.18568802px;line-height:1.25;font-family:sans-serif;letter-spacing:0px;word-spacing:0px;fill:#000000;fill-opacity:1;stroke:none;stroke-width:0.20464219"
       x="81.054779"
       y="264.03287"
       id="text3124"><tspan
         sodipodi:role="line"
         id="tspan3122"
         x="81.054779"
         y="264.03287"
         style="font-style:normal;font-variant:normal;font-weight:bold;font-stretch:normal;font-size:5.64444447px;font-family:'Times New Roman';-inkscape-font-specification:'Times New Roman, Bold';font-variant-ligatures:normal;font-variant-caps:normal;font-variant-numeric:normal;font-feature-settings:normal;text-align:start;writing-mode:lr-tb;text-anchor:start;stroke-width:0.20464219">I(t=τ)=I<tspan
   style="font-style:normal;font-variant:normal;font-weight:bold;font-stretch:normal;font-size:5.64444447px;font-family:'Times New Roman';-inkscape-font-specification:'Times New Roman, Bold';font-variant-ligatures:normal;font-variant-caps:normal;font-variant-numeric:normal;font-feature-settings:normal;text-align:start;writing-mode:lr-tb;baseline-shift:sub;text-anchor:start;stroke-width:0.20464219"
   id="tspan3140">0</tspan><tspan
   style="font-style:normal;font-variant:normal;font-weight:bold;font-stretch:normal;font-size:5.64444447px;font-family:'Times New Roman';-inkscape-font-specification:'Times New Roman, Bold';font-variant-ligatures:normal;font-variant-caps:normal;font-variant-numeric:normal;font-feature-settings:normal;text-align:start;writing-mode:lr-tb;baseline-shift:super;text-anchor:start;stroke-width:0.20464219"
   id="tspan3136">.</tspan>e<tspan
   style="font-style:normal;font-variant:normal;font-weight:bold;font-stretch:normal;font-size:5.64444447px;font-family:'Times New Roman';-inkscape-font-specification:'Times New Roman, Bold';font-variant-ligatures:normal;font-variant-caps:normal;font-variant-numeric:normal;font-feature-settings:normal;text-align:start;writing-mode:lr-tb;baseline-shift:super;text-anchor:start"
   id="tspan3800">-1</tspan>=0,37<tspan
   style="font-style:normal;font-variant:normal;font-weight:bold;font-stretch:normal;font-size:5.64444447px;font-family:'Times New Roman';-inkscape-font-specification:'Times New Roman, Bold';font-variant-ligatures:normal;font-variant-caps:normal;font-variant-numeric:normal;font-feature-settings:normal;text-align:start;writing-mode:lr-tb;baseline-shift:super;text-anchor:start"
   id="tspan3798">.</tspan>I<tspan
   style="font-style:normal;font-variant:normal;font-weight:bold;font-stretch:normal;font-size:5.64444447px;font-family:'Times New Roman';-inkscape-font-specification:'Times New Roman, Bold';font-variant-ligatures:normal;font-variant-caps:normal;font-variant-numeric:normal;font-feature-settings:normal;text-align:start;writing-mode:lr-tb;baseline-shift:sub;text-anchor:start"
   id="tspan3796">0</tspan></tspan></text>
    <path
       style="fill:none;stroke:#000000;stroke-width:0.51434481;stroke-linecap:butt;stroke-linejoin:miter;stroke-miterlimit:4;stroke-dasharray:none;stroke-opacity:1;marker-end:url(#Arrow2Mend-8)"
       d="m 78.334995,263.56321 -11.78303,3.30752"
       id="path3142"
       inkscape:connector-curvature="0"
       sodipodi:nodetypes="cc" />
    <text
       xml:space="preserve"
       style="font-style:normal;font-weight:normal;font-size:10.58333302px;line-height:1.25;font-family:sans-serif;letter-spacing:0px;word-spacing:0px;fill:#000000;fill-opacity:1;stroke:none;stroke-width:0.26458332"
       x="77.990067"
       y="226.8661"
       id="text2367-6"><tspan
         sodipodi:role="line"
         id="tspan2365-8"
         x="77.990067"
         y="226.8661"
         style="font-style:normal;font-variant:normal;font-weight:bold;font-stretch:normal;font-size:5.64444447px;font-family:'Times New Roman';-inkscape-font-specification:'Times New Roman, Bold';font-variant-ligatures:normal;font-variant-caps:normal;font-variant-numeric:normal;font-feature-settings:normal;text-align:start;writing-mode:lr-tb;text-anchor:start;stroke-width:0.26458332">Ausschaltvorgang </tspan></text>
    <flowRoot
       xml:space="preserve"
       id="flowRoot3820"
       style="font-style:normal;font-weight:normal;font-size:40px;line-height:1.25;font-family:sans-serif;letter-spacing:0px;word-spacing:0px;fill:#000000;fill-opacity:1;stroke:none"
       transform="matrix(0.26458333,0,0,0.26458333,0,117)"><flowRegion
         id="flowRegion3822"><rect
           id="rect3824"
           width="725.71429"
           height="402.14285"
           x="57.142857"
           y="314.60065" /></flowRegion><flowPara
         id="flowPara3826" /></flowRoot>    <path
       id="path2388"
       d="m 25.720866,331.84689 0.281103,-6.77811 2.295669,0.0935 -0.327953,6.7781 z m 0.562205,-12.48107 0.281102,-5.65621 2.248819,0.14023 -0.234252,5.65622 z m 0.515354,-11.31243 0.140551,-2.38402 0.187402,-3.27219 2.248819,0.0935 -0.140551,3.27219 -0.140552,2.38402 z m 0.609055,-11.31243 0.327953,-5.70296 2.248819,0.14024 -0.281102,5.65621 z m 0.609055,-11.35918 0.140552,-2.571 0.187401,-3.08521 2.295669,0.14024 -0.187401,3.0852 -0.140551,2.57101 z m 0.702756,-11.31243 0.327953,-5.65621 2.295669,0.14023 -0.374803,5.65622 z m 0.702756,-11.31243 0.281103,-4.48757 0.0937,-1.21539 2.29567,0.18698 -0.0937,1.16864 v 0 l -0.281102,4.48758 z m 0.796457,-11.35917 0.140551,-1.82308 0.281102,-3.83314 2.29567,0.18698 -0.327953,3.78639 v 0 l -0.140551,1.86983 z m 0.890157,-11.31244 0.421654,-5.65621 2.295669,0.18698 -0.468504,5.65622 z m 0.890158,-11.31243 0.187401,-2.0568 0.374804,-3.59941 2.248819,0.23373 -0.327953,3.55266 v 0 l -0.187402,2.05681 z m 1.077559,-11.31243 0.04685,-0.56094 0.327953,-3.03847 0.234252,-2.0568 2.248819,0.28047 L 35.7,214.09477 v 0 l -0.281102,3.03846 -0.0937,0.56095 z m 1.21811,-11.26568 0.0937,-0.88817 0.281102,-2.6645 0.281103,-2.10355 2.248819,0.28047 -0.234252,2.10356 v 0 l -0.327953,2.61775 -0.0937,0.88816 z m 1.358662,-11.31243 0.796456,-5.60947 2.248819,0.28047 -0.749606,5.65621 z m 1.592913,-11.26569 0.468504,-2.71124 0.140551,-0.88817 0.140551,-0.84142 0.187402,-1.16864 2.248819,0.42071 -0.187402,1.12189 v 0 l -0.140551,0.84142 -0.140551,0.88817 v 0 l -0.421654,2.71124 z m 1.967717,-11.21894 0.234251,-1.12189 0.562205,-2.85148 0.374803,-1.58935 2.248819,0.5142 -0.374803,1.58935 v -0.0468 l -0.562205,2.80474 v 0 l -0.234252,1.16864 z m 2.48307,-11.12545 0.0937,-0.32722 0.562205,-2.19704 0.140551,-0.5142 0.140551,-0.56095 0.327953,-0.98166 0.234252,-0.93491 2.201968,0.65444 -0.281102,0.88817 v 0 l -0.281102,1.0284 v 0 l -0.140551,0.5142 v 0 l -0.140552,0.5142 v -0.0467 l -0.562204,2.19704 v 0 l -0.0937,0.32722 z m 3.326378,-10.93847 0.843307,-2.24378 0.140552,-0.37397 0.140551,-0.37396 0.281102,-0.70119 0.609055,-1.30887 0.140551,-0.28048 v -0.0935 l 2.061418,0.98166 v 0.0468 0 l -0.140551,0.28047 v 0 l -0.562205,1.30888 v -0.0468 l -0.281102,0.70118 v 0 l -0.140552,0.32722 v 0 l -0.140551,0.32722 v 0 l -0.796457,2.19704 z m 4.919292,-10.47101 0.562204,-0.93491 0.140552,-0.23373 0.140551,-0.23372 0.327953,-0.42071 0.562204,-0.79468 0.140551,-0.18698 0.140552,-0.18698 0.327952,-0.42071 0.562205,-0.70119 0.140551,-0.18698 0.140551,-0.14024 0.281103,-0.28047 1.686614,1.49586 -0.234252,0.28047 v -0.0467 l -0.140551,0.18698 v 0 l -0.140551,0.14024 h 0.04685 l -0.562205,0.70118 v -0.0468 l -0.281102,0.37397 v 0 l -0.140551,0.18698 v 0 l -0.140551,0.18698 v 0 l -0.562205,0.74793 h 0.04685 l -0.327952,0.42071 0.04685,-0.0467 -0.140551,0.23373 v 0 l -0.140551,0.18698 v 0 l -0.562205,0.88816 z m 7.870866,-8.69467 0.140551,-0.0935 0.140551,-0.14023 0.327953,-0.18698 0.655905,-0.42071 1.264961,-0.74793 0.187402,-0.0935 0.140551,-0.0935 0.327953,-0.14023 0.655905,-0.32722 0.140551,-0.0935 0.187402,-0.0468 0.327953,-0.14024 0.609055,-0.28047 0.0937,-0.0467 0.890157,2.10355 -0.0937,0.0467 v 0 l -0.609055,0.23373 v 0 l -0.281102,0.14024 v 0 l -0.140551,0.0467 v 0 l -0.140552,0.0935 v 0 l -0.609055,0.28048 v 0 l -0.281102,0.14023 v 0 l -0.140551,0.0935 v 0 l -0.140551,0.0935 v -0.0468 l -1.218111,0.70118 h 0.04685 l -0.609055,0.37397 v 0 l -0.281103,0.18698 v 0 l -0.140551,0.14024 v -0.0467 l -0.140551,0.0935 z m 10.822441,-4.58107 0.374803,-0.0935 1.17126,-0.23373 h 0.187401 l 0.140552,-0.0468 0.281102,-0.0467 0.562205,-0.0935 0.187401,-0.0468 h 0.140551 l 0.281103,-0.0467 0.562204,-0.0935 0.187402,-0.0467 h 0.140551 l 0.281103,-0.0468 0.562204,-0.0935 0.655906,-0.0935 0.281102,2.29054 -0.609055,0.0467 v 0 l -0.562205,0.0935 v 0 l -0.281102,0.0468 v 0 h -0.140551 l -0.140551,0.0467 v 0 l -0.562205,0.0935 v 0 l -0.281102,0.0468 v -0.0468 l -0.140552,0.0468 h -0.140551 v 0 l -0.609055,0.14024 h 0.04685 l -0.281102,0.0467 v 0 h -0.140551 l -0.140551,0.0468 v 0 l -1.17126,0.23373 h 0.04685 l -0.374803,0.0467 z m 11.478346,-1.49586 h 0.0937 0.327953 l 0.609055,-0.0467 h 0.187401 0.140552 l 0.327952,-0.0467 0.609056,-0.0468 h 0.140551 0.187401 0.281103 l 0.655905,-0.0467 1.21811,-0.0468 h 0.187402 0.140551 0.327953 l 0.281102,-0.0467 0.0937,2.29053 h -0.327953 -0.281102 -0.140551 l -0.187402,0.0467 -1.21811,0.0467 v 0 h -0.609055 l -0.327953,0.0467 h -0.140551 -0.140551 l -0.655906,0.0467 h -0.281102 -0.140551 -0.187402 l -0.609055,0.0468 v 0 l -0.327953,0.0467 h -0.0937 z m 11.431496,-0.42071 h 0.0937 0.609055 0.187402 0.140551 0.281102 l 0.609055,-0.0467 h 1.264961 0.140551 0.140551 0.281103 0.562205 0.140551 0.140551 0.281102 l 0.562205,-0.0467 h 0.140551 0.140551 v 2.29053 H 97.167716 97.027164 96.46496 96.183857 96.043306 95.902755 95.2937 95.012597 l -0.140551,0.0468 h -0.140551 -1.21811 -0.609055 -0.281103 -0.187401 -0.140551 l -0.609056,0.0467 h -0.0937 z m 11.431501,-0.14024 h 0.8433 0.1874 0.14056 0.2811 0.6559 0.14055 0.14056 0.32795 0.60905 0.14055 0.18741 0.2811 0.60905 1.12441 v 2.29054 h -1.07756 -0.6559 -0.2811 -0.18741 -0.14055 -0.60905 -0.32795 -0.14056 -0.14055 -0.60905 -0.32795 -0.14056 -0.14055 -0.89015 z m 11.38464,0 h 0.51536 0.14055 0.14055 0.2811 0.5622 0.18741 0.14055 0.2811 0.5622 1.17126 0.14056 0.14055 0.2811 0.5622 0.14056 0.14055 0.32795 v 2.24379 h -0.32795 -0.14055 -0.14056 -0.5622 -0.2811 -0.14055 -0.14056 -1.17126 -0.5622 -0.2811 -0.14055 -0.14055 -0.60906 -0.2811 -0.14055 -0.14055 -0.51536 z m 11.38465,0 v 0 h 0.5622 1.17126 0.14055 0.14055 0.28111 0.5622 0.14055 0.14055 0.28111 0.5622 0.14055 l 0.14055,-0.0467 h 0.2811 0.56221 0.60905 v 2.29053 h -0.60905 -0.56221 -0.2811 -0.14055 -0.14055 -0.5622 -0.28111 -0.14055 -0.14055 -0.5622 -0.28111 -0.14055 -0.14055 -1.12441 -0.60905 v 0 z m 11.38464,-0.0467 h 0.0469 0.32796 0.60905 0.14055 0.1874 0.28111 0.60905 0.14055 0.1874 0.28111 0.60905 1.26496 0.14055 0.14055 0.28111 0.4685 v 2.29053 h -0.4685 -0.28111 -0.14055 -0.14055 -1.26496 -0.60905 -0.28111 -0.1874 -0.14055 -0.60905 -0.28111 -0.1874 -0.14055 -0.60905 -0.32796 -0.0469 z m 11.4315,0 h 0.0937 0.14055 0.14055 0.2811 0.56221 1.17126 0.14055 0.1874 0.2811 0.60906 0.1874 0.14055 0.32795 0.60906 0.14055 0.14055 0.32795 0.18741 v 2.29053 h -0.18741 -0.32795 -0.14055 -0.14055 -0.60906 -0.32795 -0.14055 -0.1874 -0.60906 -0.2811 -0.1874 -0.14055 -1.17126 -0.56221 -0.2811 -0.14055 -0.14055 -0.0937 z m 11.38464,0 h 0.93701 0.14055 0.14055 0.32796 0.60905 0.14055 0.14055 0.32796 0.60905 0.14055 0.14055 0.32796 0.60905 1.07756 v 2.29053 h -1.07756 -0.60905 -0.32796 -0.14055 -0.14055 -0.60905 -0.32796 -0.14055 -0.14055 -0.60905 -0.32796 -0.14055 -0.14055 -0.93701 z m 11.38465,0 h 0.42165 0.28111 0.2811 0.5622 0.56221 0.5622 1.17126 0.56221 0.5622 0.56221 0.1874 v 2.29053 h -0.1874 -0.56221 -0.5622 -0.56221 -1.17126 -0.5622 -0.56221 -0.5622 -0.2811 -0.28111 -0.42165 z m 11.38465,0 h 0.6559 1.26496 2.43622 1.35866 v 2.29053 h -1.35866 -2.43622 -1.26496 -0.6559 z m 11.38464,0 h 0.0469 4.59134 1.07756 v 2.29053 h -1.07756 -4.59134 -0.0469 z m 11.4315,0 h 3.18582 2.48307 v 2.29053 h -2.48307 -3.18582 z m 11.38464,0 h 1.59292 4.07598 v 2.29053 h -4.07598 -1.59292 z m 11.38465,0 h 4.26338 1.45237 v 2.29053 h -1.45237 -4.26338 z m 11.38464,0 h 2.43622 3.27953 v 2.29053 h -3.27953 -2.43622 z m 11.38465,0 h 0.23425 4.49764 0.98386 v 2.29053 h -0.98386 -4.49764 -0.23425 z m 11.4315,0 h 3.13897 2.52992 v 2.29053 h -2.52992 -3.13897 z m 11.38464,0 h 0.93701 4.73189 v 2.29053 h -4.73189 -0.93701 z m 11.38465,0 h 4.35708 1.35867 v 2.29053 h -1.35867 -4.35708 z m 11.38464,0 h 2.38937 3.32638 v 2.29053 h -3.32638 -2.38937 z m 11.38465,0 h 0.51535 4.91929 0.28111 v 2.29053 h -0.28111 -4.91929 -0.51535 z m 11.43149,0 h 3.23268 2.43622 v 2.29053 h -2.43622 -3.23268 z m 11.38465,0 h 0.89016 4.77874 v 2.29053 h -4.77874 -0.89016 z m 11.38465,0 h 3.84173 1.87401 v 2.29053 h -1.87401 -3.84173 z m 11.38464,0 h 2.01457 3.70118 v 2.29053 h -3.70118 -2.01457 z m 11.38465,0 h 0.1874 4.63819 0.89016 v 2.29053 h -0.89016 -4.63819 -0.1874 z m 11.43149,0 h 2.48307 3.18583 v 2.29053 h -3.18583 -2.48307 z m 11.38465,0 h 0.93701 4.73189 v 2.29053 h -4.73189 -0.93701 z m 11.38464,0 h 5.71575 v 2.29053 h -5.71575 z m 11.38465,0 h 5.71575 v 2.29053 h -5.71575 z m 11.38465,0 h 4.82559 0.89015 v 2.29053 h -0.89015 -4.82559 z m 11.43149,0 h 3.27953 2.38937 v 2.29053 h -2.38937 -3.27953 z m 11.38465,0 h 1.12441 4.54449 v 2.29053 h -4.54449 -1.12441 z m 11.38464,0 h 5.71575 v 2.29053 h -5.71575 z m 11.38465,0 h 5.71575 v 2.29053 h -5.71575 z m 11.38464,0 h 0.0937 6.27795 v 2.29053 h -6.27795 -0.0937 z"
       clip-path="url(#clipEmfPath1-0)"
       style="fill:#5e81b5;fill-opacity:1;fill-rule:nonzero;stroke:#5e81b5;stroke-width:0.74960631px;stroke-linecap:butt;stroke-linejoin:bevel;stroke-miterlimit:4;stroke-dasharray:none;stroke-opacity:1"
       inkscape:connector-curvature="0"
       transform="matrix(0.22890647,0,0,0.26458333,37.244242,120.39211)" />
    <path
       id="path2390"
       d="m 19.06811,330.77175 0.140551,-0.32722 0.562205,-1.26213 1.12441,-2.52427 2.295669,-5.00177 4.591338,-9.5361 9.885434,-19.21244 9.276377,-16.08048 9.042126,-14.30415 9.838583,-13.97693 9.182677,-11.77988 9.932284,-11.45267 9.791732,-10.14379 9.088974,-8.5077 9.88544,-8.32071 9.22952,-6.96509 9.04213,-6.21717 9.83858,-6.07692 9.13583,-5.09527 9.93228,-4.95503 9.74488,-4.39409 9.08898,-3.6929 9.83858,-3.59941 9.18268,-3.03846 9.97913,-2.99172 9.79174,-2.61775 9.13582,-2.19704 9.88544,-2.1503 9.22952,-1.77633 9.04213,-1.58935 9.83858,-1.58935 9.18268,-1.30888 9.93228,-1.26213 9.74488,-1.16864 9.13583,-0.93491 9.83858,-0.93491 9.22953,-0.79468 9.04213,-0.70118 9.79173,-0.65444 9.13583,-0.56095 9.93228,-0.56094 9.22953,-0.46746 9.08897,-0.42071 9.83859,-0.42071 9.18267,-0.32722 9.97914,-0.32722 9.74488,-0.32722 9.13583,-0.23372 9.88543,-0.23373 9.22953,-0.18698 9.04212,-0.18699 9.79174,-0.18698 9.18267,-0.14024 h 0.14055 0.18741 0.32795 l 0.60905,-0.0467 h 1.31181 l 2.52993,-0.0468 h 0.1874 0.14055 0.32795 0.60906 l 1.31181,-0.0467 h 0.14055 0.1874 0.2811 0.65591 0.14055 0.1874 0.32795 0.14055 0.14056 0.1874 0.14055"
       clip-path="url(#clipEmfPath1-0)"
       style="fill:none;stroke:#000000;stroke-width:2.29566932px;stroke-linecap:square;stroke-linejoin:miter;stroke-miterlimit:3;stroke-dasharray:none;stroke-opacity:1"
       inkscape:connector-curvature="0"
       transform="matrix(0.22890647,0,0,0.26458333,37.244242,120.39211)" />
    <path
       id="path2392"
       d="m 41.201528,203.23366 0.28956,-0.0618 0.03218,-0.0124 0.06437,-0.0124 0.128692,-0.0371 0.257385,-0.0618 0.525488,-0.12368 0.235937,-0.0495 0.107245,0.58131 -0.235937,0.0618 -0.525497,0.12369 -0.257385,0.0618 -0.128692,0.0247 -0.06437,0.0247 h -0.03218 l -0.289551,0.0742 z m 2.809783,-0.66788 1.276195,-0.29683 0.107246,0.59367 -1.276196,0.29683 z m 2.552399,-0.59367 1.286923,-0.29683 0.09652,0.59367 -1.276203,0.29683 z m 2.563118,-0.59367 0.879399,-0.19789 0.396796,-0.0866 0.107245,0.5813 -0.396796,0.0866 -0.890127,0.21026 z m 2.552399,-0.5813 0.579111,-0.13605 0.707812,-0.14841 0.09652,0.5813 -0.697084,0.16078 -0.579111,0.13605 z m 2.563118,-0.5813 0.117973,-0.0247 1.16895,-0.25973 0.09652,0.59367 -1.158231,0.25973 -0.128692,0.0247 z m 2.563127,-0.56893 1.276195,-0.28447 0.107245,0.59367 -1.286923,0.28447 z m 2.563118,-0.56893 1.276204,-0.2721 0.09652,0.5813 -1.276204,0.28447 z m 2.563127,-0.55657 1.276195,-0.2721 0.09652,0.59367 -1.276195,0.2721 z m 2.563118,-0.5442 0.847223,-0.18552 0.4397,-0.0866 0.08582,0.5813 -0.428971,0.0989 -0.847232,0.17315 z m 2.563118,-0.54419 0.35391,-0.0742 0.933013,-0.19789 0.09652,0.59367 -0.933021,0.18552 -0.353902,0.0742 z m 2.563126,-0.5442 h 0.03218 l 1.254748,-0.25973 0.09652,0.5813 -1.254748,0.25973 -0.03218,0.0124 z m 2.573846,-0.53183 1.286923,-0.25973 0.08582,0.59367 -1.286923,0.25973 z m 2.563118,-0.51946 1.286923,-0.25973 0.09652,0.5813 -1.286923,0.2721 z m 2.573846,-0.51946 0.997364,-0.21025 0.289559,-0.0495 0.08582,0.59367 -0.278832,0.0495 -1.008091,0.21026 z m 2.573846,-0.51946 0.686357,-0.13605 0.600566,-0.11131 0.08582,0.59367 -0.600567,0.11131 -0.686356,0.13605 z m 2.563127,-0.50709 0.22521,-0.0371 1.061713,-0.21026 0.08582,0.59367 -1.061714,0.21026 -0.21449,0.0371 z m 2.573838,-0.49472 1.286931,-0.24737 0.08582,0.59367 -1.286932,0.24736 z m 2.573854,-0.49473 1.286923,-0.24736 0.08582,0.59367 -1.286923,0.24736 z m 2.573838,-0.49472 1.286931,-0.235 0.08582,0.5813 -1.286921,0.24737 z m 2.573853,-0.48236 0.922293,-0.17315 0.36463,-0.0618 0.08582,0.59367 -0.364629,0.0618 -0.922294,0.17315 z m 2.573837,-0.48235 0.42898,-0.0742 0.857952,-0.16079 0.08582,0.59367 -0.868679,0.16079 -0.418244,0.0742 z m 2.584574,-0.46999 0.08582,-0.0124 1.201133,-0.22263 0.0751,0.59367 -1.190406,0.22263 -0.09652,0.0124 z m 2.573844,-0.45762 1.28692,-0.23499 0.0858,0.59366 -1.29764,0.235 z m 2.57385,-0.46999 1.28692,-0.22263 0.0858,0.59367 -1.28692,0.22263 z m 2.58457,-0.44525 1.05099,-0.18552 0.23593,-0.0495 0.0751,0.59367 -0.23594,0.0495 -1.05098,0.18552 z m 2.57385,-0.45762 0.73998,-0.12368 0.54694,-0.099 0.0858,0.59367 -0.55767,0.099 -0.73998,0.12368 z m 2.58456,-0.44525 0.25739,-0.0371 1.02954,-0.18552 0.0751,0.59367 -1.02954,0.18552 -0.25738,0.0371 z m 2.57385,-0.43289 1.29765,-0.22262 0.0751,0.59367 -1.29765,0.22262 z m 2.58457,-0.43288 1.28693,-0.22263 0.0751,0.59367 -1.28692,0.22263 z m 2.58458,-0.43288 1.19039,-0.19789 0.0965,-0.0124 0.0751,0.59367 -0.0965,0.0124 -1.19041,0.19789 z m 2.58456,-0.42052 0.72926,-0.12368 0.55767,-0.0866 0.0751,0.59367 -0.55766,0.0866 -0.73998,0.12368 z m 2.58458,-0.42051 0.21449,-0.0371 1.07243,-0.17315 0.0751,0.59367 -1.07244,0.17315 -0.22521,0.0371 z m 2.57384,-0.40815 1.29765,-0.21026 0.0751,0.59367 -1.29765,0.21026 z m 2.58457,-0.40815 1.29765,-0.21026 0.0644,0.59367 -1.28693,0.21026 z m 2.58457,-0.40815 1.29765,-0.19788 0.0644,0.59366 -1.28692,0.19789 z m 2.5953,-0.39577 0.84723,-0.13606 0.43969,-0.0618 0.0644,0.59366 -0.4397,0.0618 -0.84723,0.13605 z m 2.58457,-0.39578 0.5255,-0.0742 0.76142,-0.12368 0.0751,0.59367 -0.77216,0.12367 -0.52549,0.0742 z m 2.58456,-0.39578 h 0.0536 l 1.2333,-0.18552 0.0751,0.59366 -1.24402,0.18553 -0.0536,0.0124 z m 2.58458,-0.38341 1.29765,-0.18553 0.0644,0.59367 -1.29765,0.19789 z m 2.58457,-0.37105 1.29764,-0.18552 v 0 l 0.0644,0.59367 v 0 l -1.28692,0.18552 z m 2.5953,-0.38341 h 0.0214 l 0.13942,-0.0247 0.30028,-0.0371 h 0.0322 l 0.0322,-0.0124 0.0751,-0.0124 0.15015,-0.0124 0.0322,-0.0124 h 0.0429 l 0.0751,-0.0124 h 0.0322 l 0.0322,-0.0124 h 0.0429 l 0.28956,-0.0495 0.0644,0.59367 -0.28956,0.0495 h -0.0429 l -0.0322,0.0124 h -0.0322 l -0.0751,0.0124 h -0.0429 l -0.0322,0.0124 -0.15014,0.0247 h -0.0644 l -0.0429,0.0124 h -0.0322 l -0.30028,0.0495 -0.13942,0.0124 -0.0215,0.0124 z"
       style="fill:#8fb131;fill-opacity:1;fill-rule:nonzero;stroke:#8fb131;stroke-width:0.18447755px;stroke-linecap:butt;stroke-linejoin:bevel;stroke-miterlimit:10;stroke-dasharray:none;stroke-opacity:1"
       inkscape:connector-curvature="0" />
    <path
       id="path2394"
       d="M 39.292591,202.97393 H 147.26543"
       style="fill:none;stroke:#000000;stroke-width:0.34589541px;stroke-linecap:butt;stroke-linejoin:miter;stroke-miterlimit:3;stroke-dasharray:none;stroke-opacity:1"
       inkscape:connector-curvature="0" />
    <path
       id="path2396"
       d="m 146.96515,201.97211 0.0429,0.11132 0.10725,0.27209 0.0644,0.16079 0.0429,0.17315 0.0322,0.16079 0.0107,0.12368 -0.0107,0.12368 -0.0322,0.14842 -0.0429,0.17315 -0.0644,0.17315 -0.10725,0.30921 -0.0429,0.12368 3.32455,-1.05129 z"
       style="fill:#000000;fill-opacity:1;fill-rule:evenodd;stroke:none;stroke-width:0.24609923"
       inkscape:connector-curvature="0" />
    <path
       id="path2404"
       d="M 27.735433,330.77175 V 45.530198"
       clip-path="url(#clipEmfPath2-3)"
       style="fill:none;stroke:#000000;stroke-width:1.40551186px;stroke-linecap:butt;stroke-linejoin:miter;stroke-miterlimit:3;stroke-dasharray:none;stroke-opacity:1"
       inkscape:connector-curvature="0"
       transform="matrix(0.22890647,0,0,0.26458333,37.244242,120.39211)" />
    <path
       id="path2406"
       d="m 42.724388,132.79731 0.09652,-0.0618 0.235938,-0.12368 0.150139,-0.0618 0.139421,-0.0495 0.139411,-0.0495 0.107245,-0.0124 0.107245,0.0124 0.128693,0.0495 0.150139,0.0495 0.160868,0.0618 0.257384,0.12368 0.107245,0.0618 -0.911574,-3.83411 z"
       style="fill:#000000;fill-opacity:1;fill-rule:evenodd;stroke:none;stroke-width:0.24609923"
       inkscape:connector-curvature="0" />
    <path
       id="path2438"
       d="m 532.97008,132.47698 h 6.84016 v 2.24379 h -6.84016 z m 12.5559,0 h 5.71575 v 2.24379 h -5.71575 z m 11.38465,0 h 5.71575 v 2.24379 h -5.71575 z m 11.38465,0 h 5.71574 v 2.24379 h -5.71574 z m 11.43149,0 h 5.6689 v 2.24379 h -5.6689 z"
       clip-path="url(#clipEmfPath3-86)"
       style="fill:#5e81b5;fill-opacity:1;fill-rule:nonzero;stroke:#5e81b5;stroke-width:0.74960631px;stroke-linecap:butt;stroke-linejoin:bevel;stroke-miterlimit:4;stroke-dasharray:none;stroke-opacity:1"
       inkscape:connector-curvature="0"
       transform="matrix(0.22890647,0,0,0.26458333,37.244242,120.39211)" />
    <text
       id="text2444"
       y="146.4015"
       x="187.43915"
       style="font-style:normal;font-variant:normal;font-weight:700;font-size:5.35265827px;line-height:125%;font-family:'Times New Roman';text-align:start;letter-spacing:0px;word-spacing:0px;text-anchor:start;fill:#000000;fill-opacity:1;stroke:none;stroke-width:0.24609923"
       xml:space="preserve"
       transform="scale(0.93013887,1.0751083)"><tspan
         id="tspan2442"
         y="146.4015"
         x="187.43915"
         sodipodi:role="line"
         style="stroke-width:0.24609923"><tspan
           id="tspan2440"
           style="font-style:normal;font-variant:normal;font-weight:700;font-size:5.35265827px;font-family:'Times New Roman';fill:#000000;stroke-width:0.24609923"
           dy="0"
           dx="0">L</tspan></tspan></text>
    <path
       id="path2446"
       d="m 174.34444,157.39747 m 4.24684,-3.32702 -1.08316,3.94543 h -0.33245 l 1.09388,-3.94543 z"
       style="fill:#000000;fill-opacity:1;fill-rule:evenodd;stroke:none;stroke-width:0.24609923"
       inkscape:connector-curvature="0" />
    <text
       id="text2452"
       y="146.4015"
       x="192.23557"
       style="font-style:normal;font-variant:normal;font-weight:700;font-size:5.35265827px;line-height:125%;font-family:'Times New Roman';text-align:start;letter-spacing:0px;word-spacing:0px;text-anchor:start;fill:#000000;fill-opacity:1;stroke:none;stroke-width:0.24609923"
       xml:space="preserve"
       transform="scale(0.93013887,1.0751083)"><tspan
         id="tspan2450"
         y="146.4015"
         x="192.23557"
         sodipodi:role="line"
         style="stroke-width:0.24609923"><tspan
           id="tspan2448"
           style="font-style:normal;font-variant:normal;font-weight:700;font-size:5.35265827px;font-family:'Times New Roman';fill:#000000;stroke-width:0.24609923"
           dy="0"
           dx="0">R</tspan></tspan></text>
    <path
       id="path2454"
       d="m 178.80577,157.39747 m 6.63838,-1.64496 h -2.18777 v -0.44525 h 2.18777 z m 0,1.10077 h -2.18777 v -0.44526 h 2.18777 z"
       style="fill:#000000;fill-opacity:1;fill-rule:evenodd;stroke:none;stroke-width:0.24609923"
       inkscape:connector-curvature="0" />
    <path
       id="path2456"
       d="m 188.80088,155.18358 -0.1287,0.43288 h -0.68636 l -0.23593,0.84104 c -0.0107,0.0124 -0.0107,0.0371 -0.0107,0.0495 -0.0107,0.0247 -0.0107,0.0371 -0.0107,0.0495 0,0.0618 0.0215,0.0989 0.0751,0.13605 0.0429,0.0371 0.0751,0.0742 0.10725,0.11131 0.0107,0.0247 0.0322,0.0618 0.0429,0.099 0.0107,0.0247 0.0107,0.0742 0.0107,0.11131 0,0.0742 -0.0215,0.14842 -0.0644,0.19789 -0.0536,0.0495 -0.11798,0.0742 -0.22522,0.0742 -0.0965,0 -0.18231,-0.0371 -0.23594,-0.11132 -0.0536,-0.0742 -0.0858,-0.18552 -0.0858,-0.32156 0,-0.099 0.0536,-0.33394 0.16087,-0.69262 0.10723,-0.35867 0.16085,-0.5442 0.16085,-0.5442 h -0.21448 c -0.15014,0 -0.25738,0.0124 -0.35391,0.0247 -0.0858,0.0124 -0.16086,0.0742 -0.22521,0.19789 h -0.0751 c 0.0751,-0.23499 0.18231,-0.39578 0.32173,-0.50709 0.1287,-0.099 0.25739,-0.14842 0.37535,-0.14842 z"
       style="fill:#000000;fill-opacity:1;fill-rule:evenodd;stroke:none;stroke-width:0.24609923"
       inkscape:connector-curvature="0" />
    <path
       id="path2458"
       d="m 192.30774,155.75251 h -2.18777 v -0.44525 h 2.18777 z m 0,1.10077 h -2.18777 v -0.44526 h 2.18777 z"
       style="fill:#000000;fill-opacity:1;fill-rule:evenodd;stroke:none;stroke-width:0.24609923"
       inkscape:connector-curvature="0" />
    <text
       id="text2464"
       y="146.4015"
       x="208.28513"
       style="font-style:normal;font-variant:normal;font-weight:700;font-size:5.35265827px;line-height:125%;font-family:'Times New Roman';text-align:start;letter-spacing:0px;word-spacing:0px;text-anchor:start;fill:#000000;fill-opacity:1;stroke:none;stroke-width:0.24609923"
       xml:space="preserve"
       transform="scale(0.93013887,1.0751083)"><tspan
         id="tspan2462"
         y="146.4015"
         x="208.28513"
         sodipodi:role="line"
         style="stroke-width:0.24609923"><tspan
           id="tspan2460"
           style="font-style:normal;font-variant:normal;font-weight:700;font-size:5.35265827px;font-family:'Times New Roman';fill:#000000;stroke-width:0.24609923"
           dy="0"
           dx="0">0.1</tspan></tspan></text>
    <path
       id="path2466"
       d="m 534.14134,164.91842 h 53.9248"
       clip-path="url(#clipEmfPath4-8)"
       style="fill:none;stroke:#000000;stroke-width:2.29566932px;stroke-linecap:square;stroke-linejoin:miter;stroke-miterlimit:3;stroke-dasharray:none;stroke-opacity:1"
       inkscape:connector-curvature="0"
       transform="matrix(0.22890647,0,0,0.26458333,37.244242,120.39211)" />
    <text
       id="text2472"
       y="154.13223"
       x="187.43915"
       style="font-style:normal;font-variant:normal;font-weight:700;font-size:5.35265827px;line-height:125%;font-family:'Times New Roman';text-align:start;letter-spacing:0px;word-spacing:0px;text-anchor:start;fill:#000000;fill-opacity:1;stroke:none;stroke-width:0.24609923"
       xml:space="preserve"
       transform="scale(0.93013887,1.0751083)"><tspan
         id="tspan2470"
         y="154.13223"
         x="187.43915"
         sodipodi:role="line"
         style="stroke-width:0.24609923"><tspan
           id="tspan2468"
           style="font-style:normal;font-variant:normal;font-weight:700;font-size:5.35265827px;font-family:'Times New Roman';fill:#000000;stroke-width:0.24609923"
           dy="0"
           dx="0">L</tspan></tspan></text>
    <path
       id="path2474"
       d="m 174.34444,165.70884 m 4.24684,-3.33939 -1.08316,3.94542 h -0.33245 l 1.09388,-3.94542 z"
       style="fill:#000000;fill-opacity:1;fill-rule:evenodd;stroke:none;stroke-width:0.24609923"
       inkscape:connector-curvature="0" />
    <text
       id="text2480"
       y="154.13223"
       x="192.23557"
       style="font-style:normal;font-variant:normal;font-weight:700;font-size:5.35265827px;line-height:125%;font-family:'Times New Roman';text-align:start;letter-spacing:0px;word-spacing:0px;text-anchor:start;fill:#000000;fill-opacity:1;stroke:none;stroke-width:0.24609923"
       xml:space="preserve"
       transform="scale(0.93013887,1.0751083)"><tspan
         id="tspan2478"
         y="154.13223"
         x="192.23557"
         sodipodi:role="line"
         style="stroke-width:0.24609923"><tspan
           id="tspan2476"
           style="font-style:normal;font-variant:normal;font-weight:700;font-size:5.35265827px;font-family:'Times New Roman';fill:#000000;stroke-width:0.24609923"
           dy="0"
           dx="0">R</tspan></tspan></text>
    <path
       id="path2482"
       d="m 178.80577,165.70884 m 6.63838,-1.6697 h -2.18777 v -0.44525 h 2.18777 z m 0,1.10076 h -2.18777 v -0.44525 h 2.18777 z"
       style="fill:#000000;fill-opacity:1;fill-rule:evenodd;stroke:none;stroke-width:0.24609923"
       inkscape:connector-curvature="0" />
    <path
       id="path2484"
       d="m 188.80088,163.47021 -0.1287,0.43288 h -0.68636 l -0.23593,0.84103 c -0.0107,0.0247 -0.0107,0.0371 -0.0107,0.0618 -0.0107,0.0247 -0.0107,0.0371 -0.0107,0.0495 0,0.0495 0.0215,0.0989 0.0751,0.12368 0.0429,0.0371 0.0751,0.0742 0.10725,0.12368 0.0107,0.0247 0.0322,0.0495 0.0429,0.0866 0.0107,0.0371 0.0107,0.0742 0.0107,0.12368 0,0.0742 -0.0215,0.13605 -0.0644,0.18552 -0.0536,0.0618 -0.11798,0.0866 -0.22522,0.0866 -0.0965,0 -0.18231,-0.0371 -0.23594,-0.11132 -0.0536,-0.0742 -0.0858,-0.18552 -0.0858,-0.32157 0,-0.11131 0.0536,-0.3463 0.16087,-0.70498 0.10723,-0.35868 0.16085,-0.5442 0.16085,-0.5442 h -0.21448 c -0.15014,0 -0.25738,0.0124 -0.35391,0.0247 -0.0858,0.0247 -0.16086,0.0866 -0.22521,0.19789 h -0.0751 c 0.0751,-0.22263 0.18231,-0.39578 0.32173,-0.49472 0.1287,-0.11132 0.25739,-0.16079 0.37535,-0.16079 z"
       style="fill:#000000;fill-opacity:1;fill-rule:evenodd;stroke:none;stroke-width:0.24609923"
       inkscape:connector-curvature="0" />
    <path
       id="path2486"
       d="m 192.30774,164.03914 h -2.18777 v -0.44525 h 2.18777 z m 0,1.10076 h -2.18777 v -0.44525 h 2.18777 z"
       style="fill:#000000;fill-opacity:1;fill-rule:evenodd;stroke:none;stroke-width:0.24609923"
       inkscape:connector-curvature="0" />
    <text
       id="text2492"
       y="154.13223"
       x="208.28513"
       style="font-style:normal;font-variant:normal;font-weight:700;font-size:5.35265827px;line-height:125%;font-family:'Times New Roman';text-align:start;letter-spacing:0px;word-spacing:0px;text-anchor:start;fill:#000000;fill-opacity:1;stroke:none;stroke-width:0.24609923"
       xml:space="preserve"
       transform="scale(0.93013887,1.0751083)"><tspan
         id="tspan2490"
         y="154.13223"
         x="208.28513"
         sodipodi:role="line"
         style="stroke-width:0.24609923"><tspan
           id="tspan2488"
           style="font-style:normal;font-variant:normal;font-weight:700;font-size:5.35265827px;font-family:'Times New Roman';fill:#000000;stroke-width:0.24609923"
           dy="0"
           dx="0">1</tspan></tspan></text>
    <path
       id="path2494"
       d="m 532.97008,195.16281 h 6.84016 v 2.24379 h -6.84016 z m 12.5559,0 h 5.71575 v 2.24379 h -5.71575 z m 11.38465,0 h 5.71575 v 2.24379 h -5.71575 z m 11.38465,0 h 5.71574 v 2.24379 h -5.71574 z m 11.43149,0 h 5.6689 v 2.24379 h -5.6689 z"
       clip-path="url(#clipEmfPath5)"
       style="fill:#8fb131;fill-opacity:1;fill-rule:nonzero;stroke:#8fb131;stroke-width:0.74960631px;stroke-linecap:butt;stroke-linejoin:bevel;stroke-miterlimit:4;stroke-dasharray:none;stroke-opacity:1"
       inkscape:connector-curvature="0"
       transform="matrix(0.22890647,0,0,0.26458333,37.244242,120.39211)" />
    <text
       id="text2500"
       y="161.86296"
       x="187.43915"
       style="font-style:normal;font-variant:normal;font-weight:700;font-size:5.35265827px;line-height:125%;font-family:'Times New Roman';text-align:start;letter-spacing:0px;word-spacing:0px;text-anchor:start;fill:#000000;fill-opacity:1;stroke:none;stroke-width:0.24609923"
       xml:space="preserve"
       transform="scale(0.93013887,1.0751083)"><tspan
         id="tspan2498"
         y="161.86296"
         x="187.43915"
         sodipodi:role="line"
         style="stroke-width:0.24609923"><tspan
           id="tspan2496"
           style="font-style:normal;font-variant:normal;font-weight:700;font-size:5.35265827px;font-family:'Times New Roman';fill:#000000;stroke-width:0.24609923"
           dy="0"
           dx="0">L</tspan></tspan></text>
    <path
       id="path2502"
       d="m 174.34444,174.0202 m 4.24684,-3.36412 -1.08316,3.94542 h -0.33245 l 1.09388,-3.94542 z"
       style="fill:#000000;fill-opacity:1;fill-rule:evenodd;stroke:none;stroke-width:0.24609923"
       inkscape:connector-curvature="0" />
    <text
       id="text2508"
       y="161.86296"
       x="192.23557"
       style="font-style:normal;font-variant:normal;font-weight:700;font-size:5.35265827px;line-height:125%;font-family:'Times New Roman';text-align:start;letter-spacing:0px;word-spacing:0px;text-anchor:start;fill:#000000;fill-opacity:1;stroke:none;stroke-width:0.24609923"
       xml:space="preserve"
       transform="scale(0.93013887,1.0751083)"><tspan
         id="tspan2506"
         y="161.86296"
         x="192.23557"
         sodipodi:role="line"
         style="stroke-width:0.24609923"><tspan
           id="tspan2504"
           style="font-style:normal;font-variant:normal;font-weight:700;font-size:5.35265827px;font-family:'Times New Roman';fill:#000000;stroke-width:0.24609923"
           dy="0"
           dx="0">R</tspan></tspan></text>
    <path
       id="path2510"
       d="m 178.80577,174.0202 m 6.63838,-1.68206 h -2.18777 v -0.44525 h 2.18777 z m 0,1.10076 h -2.18777 v -0.44525 h 2.18777 z"
       style="fill:#000000;fill-opacity:1;fill-rule:evenodd;stroke:none;stroke-width:0.24609923"
       inkscape:connector-curvature="0" />
    <path
       id="path2512"
       d="m 188.80088,171.76921 -0.1287,0.43288 h -0.68636 l -0.23593,0.84103 c -0.0107,0.0124 -0.0107,0.0371 -0.0107,0.0495 -0.0107,0.0247 -0.0107,0.0371 -0.0107,0.0495 0,0.0618 0.0215,0.0989 0.0751,0.13604 0.0429,0.0371 0.0751,0.0742 0.10725,0.11132 0.0107,0.0247 0.0322,0.0618 0.0429,0.0989 0.0107,0.0247 0.0107,0.0742 0.0107,0.12368 0,0.0618 -0.0215,0.13605 -0.0644,0.18553 -0.0536,0.0495 -0.11798,0.0742 -0.22522,0.0742 -0.0965,0 -0.18231,-0.0371 -0.23594,-0.11131 -0.0536,-0.0742 -0.0858,-0.18552 -0.0858,-0.32157 0,-0.0989 0.0536,-0.33394 0.16087,-0.69261 0.10723,-0.35868 0.16085,-0.5442 0.16085,-0.5442 h -0.21448 c -0.15014,0 -0.25738,0.0124 -0.35391,0.0247 -0.0858,0.0124 -0.16086,0.0742 -0.22521,0.19789 h -0.0751 c 0.0751,-0.235 0.18231,-0.39578 0.32173,-0.5071 0.1287,-0.0989 0.25739,-0.14841 0.37535,-0.14841 z"
       style="fill:#000000;fill-opacity:1;fill-rule:evenodd;stroke:none;stroke-width:0.24609923"
       inkscape:connector-curvature="0" />
    <path
       id="path2514"
       d="m 192.30774,172.33814 h -2.18777 v -0.44525 h 2.18777 z m 0,1.10076 h -2.18777 v -0.44525 h 2.18777 z"
       style="fill:#000000;fill-opacity:1;fill-rule:evenodd;stroke:none;stroke-width:0.24609923"
       inkscape:connector-curvature="0" />
    <text
       id="text2520"
       y="161.86296"
       x="208.28513"
       style="font-style:normal;font-variant:normal;font-weight:700;font-size:5.35265827px;line-height:125%;font-family:'Times New Roman';text-align:start;letter-spacing:0px;word-spacing:0px;text-anchor:start;fill:#000000;fill-opacity:1;stroke:none;stroke-width:0.24609923"
       xml:space="preserve"
       transform="scale(0.93013887,1.0751083)"><tspan
         id="tspan2518"
         y="161.86296"
         x="208.28513"
         sodipodi:role="line"
         style="stroke-width:0.24609923"><tspan
           id="tspan2516"
           style="font-style:normal;font-variant:normal;font-weight:700;font-size:5.35265827px;font-family:'Times New Roman';fill:#000000;stroke-width:0.24609923"
           dy="0"
           dx="0">10</tspan></tspan></text>
    <ellipse
       style="fill:#000000;fill-opacity:1;stroke:#000000;stroke-width:0.21216775;stroke-miterlimit:4;stroke-dasharray:0.63650329, 0.21216776000000001;stroke-dashoffset:0;stroke-opacity:1"
       id="path1220"
       cx="60.444027"
       cy="175.68736"
       inkscape:export-xdpi="96"
       inkscape:export-ydpi="96"
       rx="0.53067738"
       ry="0.59455758" />
    <flowRoot
       xml:space="preserve"
       id="flowRoot2897"
       style="fill:black;fill-opacity:1;stroke:none;font-family:sans-serif;font-style:normal;font-weight:normal;font-size:40px;line-height:1.25;letter-spacing:0px;word-spacing:0px"><flowRegion
         id="flowRegion2899"><rect
           id="rect2901"
           width="77.781746"
           height="40.911179"
           x="126.77415"
           y="115.38335" /></flowRegion><flowPara
         id="flowPara2903"></flowPara></flowRoot>    <flowRoot
       xml:space="preserve"
       id="flowRoot2905"
       style="fill:black;fill-opacity:1;stroke:none;font-family:sans-serif;font-style:normal;font-weight:normal;font-size:40px;line-height:1.25;letter-spacing:0px;word-spacing:0px"><flowRegion
         id="flowRegion2907"><rect
           id="rect2909"
           width="88.388351"
           height="67.175148"
           x="134.85536"
           y="92.654922" /></flowRegion><flowPara
         id="flowPara2911"></flowPara></flowRoot>    <text
       xml:space="preserve"
       style="font-style:normal;font-weight:normal;font-size:10.58333302px;line-height:1.25;font-family:sans-serif;letter-spacing:0px;word-spacing:0px;fill:#000000;fill-opacity:1;stroke:none;stroke-width:0.26458332"
       x="39.154987"
       y="126.88294"
       id="text2915"><tspan
         sodipodi:role="line"
         id="tspan2913"
         x="39.154987"
         y="126.88294"
         style="stroke-width:0.26458332;-inkscape-font-specification:'Times New Roman, Bold';font-family:'Times New Roman';font-weight:bold;font-style:normal;font-stretch:normal;font-variant:normal;font-size:7.05555556px;text-anchor:start;text-align:start;writing-mode:lr;font-variant-ligatures:normal;font-variant-caps:normal;font-variant-numeric:normal;font-feature-settings:normal">I(t)</tspan></text>
    <text
       xml:space="preserve"
       style="font-style:normal;font-weight:normal;font-size:10.58333302px;line-height:1.25;font-family:sans-serif;letter-spacing:0px;word-spacing:0px;fill:#000000;fill-opacity:1;stroke:none;stroke-width:0.26458332"
       x="151.94272"
       y="204.92566"
       id="text2920"><tspan
         sodipodi:role="line"
         id="tspan2918"
         x="151.94272"
         y="204.92566"
         style="font-style:normal;font-variant:normal;font-weight:bold;font-stretch:normal;font-size:7.05555534px;font-family:'Times New Roman';-inkscape-font-specification:'Times New Roman, Bold';font-variant-ligatures:normal;font-variant-caps:normal;font-variant-numeric:normal;font-feature-settings:normal;text-align:start;writing-mode:lr-tb;text-anchor:start;stroke-width:0.26458332">t</tspan></text>
    <path
       style="fill:none;stroke:#000000;stroke-width:0.5;stroke-linecap:butt;stroke-linejoin:miter;stroke-opacity:1;stroke-miterlimit:4;stroke-dasharray:none"
       d="m 42.333333,152.80208 h 2.740326"
       id="path2922"
       inkscape:connector-curvature="0" />
    <text
       xml:space="preserve"
       style="font-style:normal;font-weight:normal;font-size:10.58333302px;line-height:1.25;font-family:sans-serif;letter-spacing:0px;word-spacing:0px;fill:#000000;fill-opacity:1;stroke:none;stroke-width:0.26458332"
       x="36.191223"
       y="155.06995"
       id="text2926"><tspan
         sodipodi:role="line"
         id="tspan2924"
         x="36.191223"
         y="155.06995"
         style="font-style:normal;font-variant:normal;font-weight:bold;font-stretch:normal;font-size:7.05555534px;font-family:'Times New Roman';-inkscape-font-specification:'Times New Roman, Bold';font-variant-ligatures:normal;font-variant-caps:normal;font-variant-numeric:normal;font-feature-settings:normal;text-align:start;writing-mode:lr-tb;text-anchor:start;stroke-width:0.26458332">I<tspan
   style="font-size:64.99999762%;baseline-shift:sub"
   id="tspan2928">0</tspan></tspan></text>
    <path
       inkscape:connector-curvature="0"
       id="path2930"
       d="m 60.617931,204.44307 v -2.74032"
       style="fill:none;stroke:#000000;stroke-width:0.5;stroke-linecap:butt;stroke-linejoin:miter;stroke-miterlimit:4;stroke-dasharray:none;stroke-opacity:1" />
    <text
       xml:space="preserve"
       style="font-style:normal;font-weight:normal;font-size:10.58333302px;line-height:1.25;font-family:sans-serif;letter-spacing:0px;word-spacing:0px;fill:#000000;fill-opacity:1;stroke:none;stroke-width:0.26458332"
       x="56.507442"
       y="209.87648"
       id="text2934"><tspan
         sodipodi:role="line"
         id="tspan2932"
         x="56.507442"
         y="209.87648"
         style="font-style:normal;font-variant:normal;font-weight:bold;font-stretch:normal;font-size:7.05555534px;font-family:'Times New Roman';-inkscape-font-specification:'Times New Roman, Bold';font-variant-ligatures:normal;font-variant-caps:normal;font-variant-numeric:normal;font-feature-settings:normal;text-align:start;writing-mode:lr-tb;text-anchor:start;stroke-width:0.26458332">t=τ</tspan></text>
    <path
       id="path2953"
       d="m 42.54643,225.71608 0.04429,1.20002 0.01109,0.41943 -0.509608,0.0117 -0.0111,-0.40778 -0.04429,-1.20002 z m 0.110782,2.95928 0.03319,0.94371 0.01109,0.39611 -0.509609,0.0233 -0.01109,-0.39612 -0.03319,-0.95536 z m 0.09971,2.67966 0.04429,1.33983 -0.509609,0.0233 -0.04429,-1.33983 z m 0.09971,2.67966 0.02219,0.61749 0.03319,0.72234 -0.509609,0.0233 -0.03319,-0.72234 -0.02219,-0.61749 z m 0.110783,2.67966 0.05538,1.33983 -0.509609,0.0233 -0.05538,-1.33983 z m 0.110783,2.67966 0.03328,0.58254 0.03319,0.71069 v 0.0466 l -0.509609,0.035 v -0.0583 l -0.03319,-0.71069 -0.03328,-0.58254 z m 0.121859,2.67966 0.0111,0.0117 0.05538,1.32817 -0.509608,0.035 -0.05538,-1.33983 v 0 z m 0.132945,2.67966 0.07757,1.33983 -0.5096,0.035 -0.07757,-1.33983 z m 0.144022,2.67967 0.07757,1.33983 -0.509609,0.035 -0.07757,-1.33983 z m 0.144021,2.67966 0.01109,0.0699 0.02219,0.55923 0.04429,0.7107 -0.509608,0.035 -0.04429,-0.71069 -0.02219,-0.55923 -0.01109,-0.0699 z m 0.166174,2.67966 0.06648,1.13012 0.01109,0.20971 -0.509609,0.035 -0.01109,-0.20972 -0.06648,-1.13011 z m 0.166175,2.67966 0.03319,0.40777 v 0 l 0.06648,0.93206 -0.509608,0.035 -0.06648,-0.93206 -0.03319,-0.40777 z m 0.188336,2.67966 v 0.0116 l 0.03319,0.44273 0.06648,0.85049 v 0 0.0233 l -0.509609,0.0466 v -0.0233 l -0.06648,-0.86215 -0.03319,-0.43108 v -0.0233 z m 0.210489,2.66801 0.02219,0.26796 v 0 l 0.08867,1.07187 -0.509609,0.0466 -0.08866,-1.07186 -0.02219,-0.26797 z m 0.232643,2.668 0.04429,0.57089 v 0 l 0.03319,0.37283 0.03319,0.37281 0.0111,0.0233 -0.509609,0.0466 v -0.0117 l -0.04429,-0.37283 -0.03319,-0.38447 -0.04429,-0.57088 z m 0.254804,2.66802 0.06648,0.74564 v -0.0117 l 0.04429,0.33787 0.02219,0.26796 -0.509609,0.0583 -0.02219,-0.26796 -0.03319,-0.32623 -0.07757,-0.74564 z m 0.288043,2.66801 0.06648,0.55924 v -0.0117 l 0.03319,0.29127 0.03319,0.27962 v 0 l 0.02219,0.20971 -0.498532,0.0699 -0.03319,-0.20972 -0.03319,-0.27962 -0.03319,-0.29127 -0.06648,-0.55923 z m 0.332348,2.65636 0.01109,0.0699 v -0.0117 l 0.188336,1.25827 -0.509609,0.0816 -0.188327,-1.25827 v -0.0699 z m 0.398826,2.63305 0.03319,0.18642 v 0 l 0.144021,0.8039 v 0 l 0.03319,0.19806 0.02219,0.12815 -0.498532,0.10487 -0.03319,-0.13981 -0.03319,-0.18642 -0.132945,-0.81555 -0.03319,-0.18641 z m 0.487446,2.62142 0.03319,0.15145 v 0 l 0.06648,0.32622 v 0 l 0.144021,0.61749 v -0.0117 l 0.05538,0.22136 -0.498523,0.12817 -0.05538,-0.20972 -0.132945,-0.62914 -0.07757,-0.32622 -0.03319,-0.15146 z m 0.631477,2.58645 0.02219,0.0816 v 0 l 0.132945,0.44272 v 0 l 0.03319,0.10487 h -0.0111 l 0.03319,0.10485 v 0 l 0.06648,0.19806 v 0 l 0.110783,0.32622 -0.47637,0.18641 -0.110783,-0.33786 -0.06648,-0.20972 -0.03319,-0.10485 -0.03319,-0.10486 -0.132935,-0.45438 -0.02219,-0.0816 z m 0.864119,2.49325 0.06648,0.16311 v -0.0117 l 0.02219,0.0699 v 0 l 0.03319,0.0699 v 0 l 0.06648,0.1398 v 0 l 0.132936,0.26797 v 0 l 0.03319,0.0583 v 0 l 0.03319,0.0699 h -0.01109 l 0.06648,0.11651 v 0 l 0.121868,0.22136 -0.443141,0.26797 -0.121859,-0.22136 -0.06648,-0.12816 -0.03319,-0.0699 -0.03319,-0.0699 -0.132936,-0.26796 -0.06648,-0.15146 -0.03319,-0.0699 -0.03319,-0.0816 -0.06648,-0.16311 z m 1.274013,2.22528 0.05538,0.0699 v -0.0117 l 0.03319,0.0466 v 0 l 0.03328,0.035 h -0.01109 l 0.06648,0.0699 v 0 l 0.121868,0.13981 v 0 l 0.03319,0.035 v 0 l 0.03319,0.0233 v 0 l 0.05538,0.0699 v 0 l 0.132936,0.11651 h -0.0111 l 0.254805,0.23302 v -0.0117 l 0.02219,0.0233 v 0 l 0.03319,0.0233 v 0 l 0.02219,0.0233 -0.310196,0.43107 -0.02219,-0.0233 -0.03319,-0.035 -0.03319,-0.0233 -0.265881,-0.24467 -0.144021,-0.12816 -0.06648,-0.0699 -0.03319,-0.035 -0.03319,-0.035 -0.132936,-0.15147 -0.06648,-0.0699 -0.03328,-0.0466 -0.03319,-0.035 -0.05538,-0.0816 z m 1.916565,1.53789 0.132945,0.0699 -0.01109,-0.0117 0.03328,0.0233 v 0 l 0.03319,0.0117 v 0 l 0.07757,0.035 -0.01109,-0.0116 0.144021,0.0583 h -0.01109 l 0.04429,0.0116 h -0.0111 l 0.04429,0.0117 h -0.01109 l 0.07757,0.035 h -0.01109 l 0.144021,0.0466 h -0.01109 l 0.288034,0.0816 h -0.01109 l 0.03319,0.0117 v 0 l 0.03319,0.0117 v 0 l 0.06648,0.0233 v 0 l 0.09971,0.0233 -0.132936,0.52428 -0.09971,-0.035 -0.06648,-0.0233 h -0.03319 l -0.04429,-0.0117 -0.288043,-0.0932 -0.144021,-0.0583 -0.06648,-0.0233 -0.03319,-0.0117 -0.04429,-0.0233 -0.144021,-0.0583 -0.06648,-0.0233 -0.04429,-0.0233 -0.03328,-0.0117 -0.132936,-0.0699 z m 2.381869,0.6874 h 0.02219 v 0 l 0.132936,0.0116 h -0.01109 l 0.03319,0.0117 h 0.03319 l 0.06648,0.0117 v 0 l 0.132945,0.0117 h -0.01109 l 0.26588,0.035 v 0 h 0.03328 0.03319 l 0.05538,0.0117 v 0 l 0.132945,0.0117 v 0 h 0.03319 l 0.03319,0.0116 h 0.06648 v 0 l 0.121859,0.0117 h 0.03319 l 0.03328,0.0116 h 0.01109 l -0.03319,0.53594 h -0.02219 l -0.03319,-0.0117 h -0.03319 l -0.12186,-0.0117 h -0.06648 l -0.03319,-0.0117 h -0.03319 l -0.132945,-0.0116 -0.06648,-0.0117 h -0.03319 -0.03319 l -0.265881,-0.035 -0.132945,-0.0117 -0.06648,-0.0116 -0.03319,-0.0116 h -0.03319 l -0.132936,-0.0233 h -0.01109 z m 2.514804,0.2097 0.02219,0.0117 v 0 l 0.276958,0.0116 h 0.03319 0.03319 0.07757 0.132936 l 0.04429,0.0117 h 0.03319 0.06648 0.144021 0.03319 0.03319 l 0.07757,0.0116 h 0.132945 0.132936 l -0.01109,0.53594 h -0.132935 -0.144022 l -0.06648,-0.0117 h -0.03328 -0.03319 -0.144021 -0.07757 -0.03319 l -0.03319,-0.0117 h -0.144012 -0.06648 -0.03319 -0.04429 l -0.276966,-0.0117 -0.02219,-0.0117 z m 2.548033,0.0699 h 0.02219 0.03319 0.06648 0.132944 0.03319 l 0.04429,0.0117 h 0.06648 0.132936 0.03319 0.04429 0.06648 0.132945 0.276957 0.03319 0.03319 0.06648 0.04429 v 0.53593 h -0.04429 -0.06648 -0.03319 -0.03319 -0.276957 -0.144022 -0.06648 -0.03319 -0.03319 -0.144021 -0.06648 -0.03319 -0.03328 l -0.144022,-0.0117 h -0.06648 -0.03319 -0.02219 z m 2.536957,0.0233 h 0.09971 0.03319 0.03328 0.06648 0.121869 0.265881 0.03319 0.03319 0.06648 0.144021 0.03319 0.03319 0.07757 0.132936 0.03319 0.04429 0.02219 v 0.53594 h -0.03319 -0.03319 -0.03319 -0.132936 -0.07757 -0.03319 -0.03319 -0.144022 -0.06648 -0.03319 -0.03319 -0.265881 -0.121868 -0.06648 -0.03319 -0.03328 -0.09971 z m 2.559119,0 h 0.02219 0.276957 0.03319 0.03319 0.06648 0.132944 0.02219 0.03319 0.06648 0.132936 0.03319 0.03319 0.06648 0.132945 0.188327 v 0.54758 h -0.188327 -0.132945 -0.06648 -0.03319 -0.03319 -0.132936 -0.06648 -0.03319 -0.02219 -0.132944 -0.06648 l -0.03319,-0.0116 h -0.03319 -0.276957 -0.03319 z m 2.548043,0.0117 h 0.0997 0.03328 0.03319 0.05538 0.132944 0.03319 0.03319 0.06648 0.121859 0.254804 0.03319 0.03319 0.06648 0.121859 0.03319 0.03319 0.06648 0.02219 v 0.53592 h -0.02219 -0.06648 -0.03319 -0.03319 -0.121859 -0.06648 -0.03319 -0.03319 -0.254804 -0.121859 -0.06648 -0.03319 -0.03319 -0.132944 -0.05538 -0.03319 -0.03328 -0.0997 z m 2.548033,0 h 0.04429 0.132936 0.276967 0.03319 0.04429 0.06648 0.132945 0.04429 0.03319 0.06648 0.144012 0.03319 0.03319 0.06648 0.121868 v 0.53592 h -0.121645 -0.06648 -0.03319 -0.03319 -0.144012 -0.06648 -0.03319 -0.04429 -0.132945 -0.06648 -0.04429 -0.03319 -0.276966 -0.132936 -0.04429 z m 2.548034,0 h 0.05538 0.03319 0.03319 0.06648 0.132945 0.03319 0.03319 0.06648 0.121859 0.03319 0.03319 0.06648 0.132944 0.254796 0.03328 0.04429 0.06648 0.03319 v 0.53592 h -0.03319 -0.06648 -0.04429 -0.03328 -0.254796 -0.132944 -0.06648 -0.03319 -0.03319 -0.121859 -0.06648 -0.03319 -0.03319 -0.132945 -0.06648 -0.03319 -0.03319 -0.05538 z m 2.548042,0 h 0.03319 0.06648 0.144021 0.03319 0.03319 0.06648 0.144021 0.276957 0.03319 0.04429 0.06648 0.132945 0.03319 0.03319 0.07757 0.05538 v 0.53592 h -0.05538 -0.07757 -0.03319 -0.03319 -0.132945 -0.06648 -0.04429 -0.03319 -0.276957 -0.144021 -0.06648 -0.03319 -0.03319 -0.144021 -0.06648 -0.03319 z m 2.54803,0 h 0.04429 0.144022 0.276966 0.03319 0.03319 0.05538 0.132936 0.03319 0.03328 0.06648 0.121868 0.03319 0.03319 0.06648 0.132936 0.03319 v 0.53592 h -0.03319 -0.132936 -0.06648 -0.03319 -0.03319 -0.121868 -0.06648 -0.03328 -0.03319 -0.132936 -0.05538 -0.03319 -0.03319 -0.276966 -0.144022 -0.04429 z m 2.548043,0 h 0.01109 0.03319 0.06648 0.144021 0.03319 0.03319 0.07757 0.132936 0.03319 0.04429 0.06648 0.132944 0.288043 0.03328 0.03319 0.06648 0.04429 v 0.53592 h -0.04429 -0.06648 -0.03319 -0.03328 -0.288043 -0.132944 -0.06648 -0.04429 -0.03319 -0.132936 -0.07757 -0.03319 -0.03319 -0.144021 -0.06648 -0.03319 -0.01109 z m 2.559119,0 h 0.04429 0.132936 0.03328 0.02219 0.06648 0.132945 0.26588 0.03319 0.03319 0.05538 0.132936 0.03328 0.03319 0.06648 0.132945 0.03319 0.02219 v 0.53592 h -0.02219 -0.03319 -0.132945 -0.06648 -0.03319 -0.03328 -0.132936 -0.05538 -0.03319 -0.03319 -0.26588 -0.132945 -0.06648 -0.02219 -0.03328 -0.132936 -0.04429 z m 2.548033,0 h 0.03319 0.288043 0.03319 0.03328 0.07757 0.132936 0.04429 0.03319 0.06648 0.144021 0.03319 0.03319 0.07757 0.132945 0.110783 v 0.53592 h -0.110783 -0.132945 -0.07757 -0.03319 -0.03319 -0.144021 -0.06648 -0.03319 -0.04429 -0.132936 -0.07757 -0.03328 -0.03319 -0.288043 -0.03319 z m 2.548043,0 h 0.01109 0.03319 0.03319 0.07757 0.132936 0.03319 0.03319 0.07757 0.132945 0.03319 0.03319 0.07757 0.132936 0.276966 0.03319 0.03319 0.06648 0.02219 v 0.53592 h -0.02219 -0.06648 -0.03319 -0.03319 -0.276966 -0.132936 -0.07757 -0.03319 -0.03319 -0.132945 -0.07757 -0.03319 -0.03319 -0.132936 -0.07757 -0.03319 -0.03319 -0.01109 z m 2.548034,0 h 0.121859 0.03319 0.03319 0.06648 0.132945 0.254804 0.03319 0.03319 0.07757 0.132945 0.04429 0.03319 0.06648 0.144012 0.03319 0.03319 v 0.53592 h -0.03319 -0.03319 -0.144012 -0.06648 -0.03319 -0.04429 -0.132945 -0.07757 -0.03319 -0.03319 -0.254804 -0.132945 -0.06648 -0.03319 -0.03319 -0.121859 z m 2.548033,0 h 0.05538 0.288042 0.03319 0.03319 0.06648 0.121859 0.03328 0.03319 0.06648 0.132945 0.03319 0.03319 0.06648 0.132936 0.144021 v 0.53592 h -0.144021 -0.132936 -0.06648 -0.03319 -0.03319 -0.132945 -0.06648 -0.03319 -0.03328 -0.121859 -0.06648 -0.03319 -0.03319 -0.288042 -0.05538 z m 2.54804,0 h 0.01109 0.132936 0.03319 0.03319 0.06648 0.121868 0.03319 0.03319 0.06648 0.12186 0.26588 0.02219 0.03319 0.06648 0.132936 0.03328 0.03319 0.03319 v 0.53592 h -0.03319 -0.03319 -0.03328 -0.132936 -0.06648 -0.03319 -0.02219 -0.26588 -0.12186 -0.06648 -0.03319 -0.03319 -0.121868 -0.06648 -0.03319 -0.03319 -0.132936 -0.01109 z m 2.548042,0 h 0.02219 0.06648 0.144013 0.276966 0.03319 0.03319 0.06648 0.144012 0.03319 0.03319 0.07757 0.132945 0.03319 0.04429 0.06648 0.06648 v 0.53592 h -0.06648 -0.06648 -0.04429 -0.03319 -0.132945 -0.07757 -0.03319 -0.03319 -0.144012 -0.06648 -0.03319 -0.03319 -0.276966 -0.144013 -0.06648 -0.02219 z m 2.55911,0 h 0.09971 0.03319 0.03319 0.06648 0.132945 0.03319 0.03319 0.06648 0.12186 0.03319 0.03319 0.06648 0.13295 0.2548 0.0332 0.0443 0.0554 v 0.53592 h -0.0554 -0.0443 -0.0332 -0.2548 -0.13295 -0.06648 -0.03319 -0.03319 -0.12186 -0.06648 -0.03319 -0.03319 -0.132945 -0.06648 -0.03319 -0.03319 -0.09971 z m 2.548046,0 v 0 h 0.0443 0.0332 0.0665 0.14402 0.0332 0.0332 0.0776 0.13293 0.28805 0.0332 0.0332 0.0665 0.14402 0.0332 0.0332 0.0665 0.0111 v 0.53592 h -0.0111 -0.0665 -0.0332 -0.0332 -0.14402 -0.0665 -0.0332 -0.0332 -0.28805 -0.13293 -0.0776 -0.0332 -0.0332 -0.14402 -0.0665 -0.0332 -0.0443 v 0 z m 2.54803,0 h 0.0332 0.0665 0.14403 0.27695 0.0222 0.0332 0.0665 0.13295 0.0332 0.0333 0.0554 0.13294 0.0332 0.0332 0.0665 0.11078 v 0.53592 h -0.11078 -0.0665 -0.0332 -0.0332 -0.13294 -0.0554 -0.0333 -0.0332 -0.13295 -0.0665 -0.0332 -0.0222 -0.27695 -0.14403 -0.0665 -0.0332 z m 2.54805,0 h 0.0332 0.0332 0.0332 0.0776 0.13293 0.0665 0.0776 0.13295 0.0776 0.0665 0.14401 0.27696 0.0665 0.0554 v 0.53592 h -0.0554 -0.0665 -0.27696 -0.14401 -0.0665 -0.0776 -0.13295 -0.0776 -0.0665 -0.13293 -0.0776 -0.0332 -0.0332 -0.0332 z m 2.54803,0 h 0.0443 0.0665 0.13295 0.13294 0.13294 0.2548 0.13294 0.13295 0.13293 0.11079 v 0.53592 h -0.11079 -0.13293 -0.13295 -0.13294 -0.2548 -0.13294 -0.13294 -0.13295 -0.0665 -0.0443 z m 2.54804,0 h 0.0332 0.2548 0.2548 0.25481 0.25479 0.22158 v 0.53592 h -0.22158 -0.25479 -0.25481 -0.2548 -0.2548 -0.0332 z m 2.54804,0 h 0.15509 0.27696 0.27697 0.27695 0.29912 v 0.53592 h -0.29912 -0.27695 -0.27697 -0.27696 -0.15509 z m 2.55911,0 h 0.49853 0.0443 0.0332 0.0665 0.14402 0.27696 0.21049 v 0.53592 h -0.21049 -0.27696 -0.14402 -0.0665 -0.0332 -0.0443 -0.49853 z m 2.54804,0 h 0.19941 1.07461 v 0.53592 h -1.07461 -0.19941 z m 2.54804,0 h 1.27401 v 0.53592 h -1.27401 z m 2.54803,0 h 1.27403 v 0.53592 h -1.27403 z m 2.54805,0 h 1.03029 0.24373 v 0.53592 h -0.24373 -1.03029 z m 2.54803,0 h 0.74226 0.53176 v 0.53592 h -0.53176 -0.74226 z m 2.54804,0 h 0.40991 0.87519 v 0.53592 h -0.87519 -0.40991 z m 2.55911,0 h 1.27402 v 0.53592 h -1.27402 z m 2.54805,0 h 1.27402 v 0.53592 h -1.27402 z m 2.54803,0 h 1.21863 0.0554 v 0.53592 h -0.0554 -1.21863 z m 2.54804,0 h 0.89735 0.37667 v 0.53592 h -0.37667 -0.89735 z m 2.54804,0 h 0.42098 0.0332 0.0443 0.0665 0.14402 0.28805 0.27695 v 0.53592 h -0.27695 -0.28805 -0.14402 -0.0665 -0.0443 -0.0332 -0.42098 z m 2.54804,0 h 0.0443 0.0443 0.0332 0.0332 0.28804 v 0.53592 h -0.28804 -0.0332 -0.0332 -0.0443 -0.0443 z"
       style="fill:#5e81b5;fill-opacity:1;fill-rule:nonzero;stroke:#5e81b5;stroke-width:0.18167502px;stroke-linecap:butt;stroke-linejoin:bevel;stroke-miterlimit:4;stroke-dasharray:none;stroke-opacity:1"
       inkscape:connector-curvature="0" />
    <path
       id="path2955-3"
       d="m 42.302702,231.23852 0.03319,0.0816 0.03319,0.0816 0.06648,0.17476 0.121868,0.33787 0.265881,0.67574 0.520685,1.31653 1.030294,2.53986 2.248923,5.09134 2.093817,4.29912 2.060587,3.80977 2.22677,3.73988 2.08274,3.14569 2.26,3.07578 2.215685,2.71461 2.071663,2.29519 2.237847,2.23694 2.093816,1.88741 2.049511,1.6777 2.22677,1.6544 2.071664,1.38644 2.24891,1.35147 2.215685,1.20002 2.060587,1.00197 2.237847,0.9903 2.08274,0.83885 2.26,0.81555 2.215685,0.7107 2.071663,0.60583 2.248924,0.59419 2.093822,0.50098 2.049511,0.44273 2.237838,0.43108 2.071665,0.37281 2.26,0.34953 2.21569,0.32621 2.06058,0.25632 2.23785,0.26796 2.09382,0.22137 2.04951,0.18641 2.21568,0.19807 2.07167,0.1631 2.24892,0.15146 2.1049,0.13981 2.06059,0.11651 2.22676,0.1165 2.08275,0.0932 2.26,0.0932 2.21568,0.0932 2.07167,0.0699 2.23783,0.0699 2.09383,0.0583 2.06059,0.0466 2.22676,0.0466 2.07167,0.0466 h 0.0332 0.0443 0.0665 l 0.14402,0.0116 h 0.28804 l 0.58716,0.0117 h 0.0332 0.0332 0.0776 0.14402 l 0.28803,0.0117 h 0.0332 0.0443 0.0665 0.14402 0.0443 0.0332 l 0.0665,0.0117 h 0.0443 0.0332 0.0332 0.0332"
       style="fill:none;stroke:#000000;stroke-width:0.52231562px;stroke-linecap:square;stroke-linejoin:miter;stroke-miterlimit:3;stroke-dasharray:none;stroke-opacity:1"
       inkscape:connector-curvature="0" />
    <path
       id="path2957"
       d="m 42.114366,231.41328 0.288042,0.0699 0.02219,0.0117 0.06648,0.0117 0.132936,0.035 0.254804,0.0699 0.520685,0.12816 0.199413,0.0583 -0.12186,0.52428 -0.199412,-0.0583 -0.520685,-0.12815 -0.254805,-0.0699 -0.132944,-0.035 -0.06648,-0.0233 h -0.03319 l -0.276957,-0.0816 z m 2.725293,0.69903 1.240783,0.32623 -0.12186,0.52428 -1.240783,-0.32622 z m 2.481565,0.6408 1.229707,0.31456 -0.110783,0.52429 -1.240783,-0.31457 z m 2.47049,0.62913 1.041379,0.26796 0.199403,0.0466 -0.121859,0.52428 -0.188336,-0.0583 -1.052447,-0.25632 z m 2.481574,0.61749 0.797642,0.19806 0.443141,0.11651 -0.121868,0.52428 -0.443132,-0.11651 -0.797651,-0.19806 z m 2.481566,0.61749 0.398825,0.10485 0.841958,0.19806 -0.110783,0.52428 -0.853043,-0.20971 -0.398826,-0.0932 z m 2.481565,0.60583 0.166175,0.0466 1.074608,0.25631 -0.110783,0.52428 -1.074608,-0.25631 -0.166175,-0.0466 z m 2.481566,0.60584 1.240783,0.30292 -0.110783,0.52428 -1.240783,-0.30292 z m 2.492651,0.59418 1.240783,0.30292 -0.110783,0.51263 -1.240792,-0.29126 z m 2.481566,0.59419 1.240782,0.29127 -0.110782,0.52428 -1.240783,-0.29127 z m 2.492642,0.58253 0.886272,0.19807 0.354511,0.0816 -0.110783,0.52428 -0.354511,-0.0816 -0.886272,-0.19806 z m 2.492642,0.57089 0.6204,0.13981 0.620392,0.13981 -0.110783,0.53593 -0.620401,-0.15146 -0.620382,-0.13981 z m 2.481574,0.57088 0.21049,0.0466 1.04137,0.23301 -0.110783,0.52428 -1.04137,-0.23301 -0.199413,-0.0466 z m 2.492639,0.55923 1.251859,0.27962 -0.110783,0.52429 -1.240782,-0.27962 z m 2.492642,0.55924 1.251868,0.26797 -0.09971,0.53593 -1.251859,-0.27961 z m 2.503728,0.54758 1.240782,0.26797 -0.09971,0.53593 -1.251859,-0.27962 z m 2.492651,0.54758 1.063523,0.23302 0.188336,0.035 -0.110783,0.52428 -0.17726,-0.035 -1.063523,-0.23301 z m 2.492642,0.53594 0.830881,0.17476 0.420978,0.0932 -0.09971,0.52428 -0.420979,-0.0932 -0.830881,-0.17476 z m 2.503727,0.52428 0.553915,0.11651 0.697945,0.15146 -0.09971,0.52428 -0.697945,-0.13981 -0.553914,-0.11651 z m 2.503719,0.53593 0.121868,0.0233 1.118915,0.23302 -0.08867,0.52428 -1.129991,-0.23301 -0.121868,-0.0233 z m 2.492651,0.51263 1.251859,0.25632 -0.09971,0.52428 -1.251859,-0.25632 z m 2.503716,0.51264 1.251868,0.25631 -0.09971,0.52427 -1.251868,-0.2563 z m 2.503728,0.51262 1.240782,0.24467 h 0.01109 l -0.08867,0.53593 -0.02219,-0.0117 -1.240783,-0.24467 z m 2.503727,0.50098 0.8198,0.16311 0.43206,0.0816 -0.0887,0.52429 -0.44314,-0.0816 -0.808716,-0.16311 z m 2.50372,0.48934 0.565,0.1165 0.68686,0.13981 -0.0887,0.52428 -0.68686,-0.13981 -0.565,-0.10485 z m 2.5148,0.50098 0.26588,0.0466 0.98598,0.18641 -0.0997,0.53594 -0.98598,-0.19807 -0.26588,-0.0466 z m 2.50372,0.47767 1.25187,0.24467 -0.0887,0.52428 -1.25186,-0.24467 z m 2.50373,0.47768 1.25187,0.24467 -0.0887,0.52428 -1.25187,-0.23301 z m 2.5148,0.47767 1.18539,0.22138 0.0665,0.0117 -0.0887,0.52429 -0.0776,-0.0117 -1.17431,-0.22136 z m 2.50373,0.46604 0.89735,0.16311 0.36559,0.0699 -0.0887,0.52428 -0.36559,-0.0583 -0.89735,-0.16311 z m 2.5148,0.46602 0.45421,0.0816 0.79765,0.15146 -0.0887,0.52428 -0.79765,-0.13981 -0.45422,-0.0932 z m 2.5148,0.45438 0.18834,0.035 1.06353,0.19806 -0.0887,0.52428 -1.06353,-0.18641 -0.18834,-0.035 z m 2.50373,0.45438 1.26293,0.22137 -0.0887,0.53593 -1.25186,-0.23302 z m 2.5148,0.44273 1.26294,0.22136 -0.0887,0.53593 -1.25186,-0.22136 z m 2.51481,0.44272 1.13,0.19807 0.13293,0.0233 -0.0887,0.53594 -0.12187,-0.0233 -1.13,-0.19806 z m 2.5148,0.44273 0.87519,0.15146 0.38775,0.0583 -0.0887,0.53594 -0.38774,-0.0699 -0.86412,-0.15145 z m 2.51479,0.43108 0.57609,0.0932 0.68686,0.1165 -0.0776,0.53594 -0.68686,-0.11651 -0.57608,-0.10486 z m 2.52589,0.43107 0.12186,0.0117 1.13,0.19807 -0.0776,0.52427 -1.14107,-0.1864 -0.12186,-0.0233 z m 2.5148,0.41942 1.26294,0.20972 -0.0887,0.52428 -1.25186,-0.20971 z m 2.5148,0.41943 1.26295,0.19806 -0.0776,0.53593 -1.26294,-0.2097 z m 2.52588,0.40778 1.17432,0.18641 0.0776,0.0233 -0.0776,0.52428 -0.0776,-0.0117 -1.17432,-0.19806 z m 2.51481,0.40777 0.74225,0.11651 0.0332,0.0117 h 0.0332 l 0.0776,0.0117 0.14402,0.0233 0.23265,0.035 -0.0776,0.53593 -0.23264,-0.035 -0.14402,-0.0233 -0.0776,-0.0117 -0.0332,-0.0117 h -0.0332 l -0.74225,-0.12816 z m 2.5148,0.40778 h 0.0332 l 0.0776,0.0117 0.14402,0.0233 h 0.0332 l 0.0332,0.0117 0.0776,0.0117 h 0.0332 l 0.0332,0.0117 h 0.0443 l 0.28804,0.0466 -0.0776,0.53594 -0.28805,-0.0466 -0.0443,-0.0117 h -0.0332 l -0.0332,-0.0117 -0.0776,-0.0117 h -0.0332 l -0.0332,-0.0117 -0.14401,-0.0233 -0.0776,-0.0117 h -0.0222 z"
       style="fill:#8fb131;fill-opacity:1;fill-rule:nonzero;stroke:#8fb131;stroke-width:0.18167502px;stroke-linecap:butt;stroke-linejoin:bevel;stroke-miterlimit:10;stroke-dasharray:none;stroke-opacity:1"
       inkscape:connector-curvature="0" />
    <path
       id="path2959"
       d="M 40.10917,286.8473 H 147.1046"
       style="fill:none;stroke:#000000;stroke-width:0.32928595px;stroke-linecap:butt;stroke-linejoin:miter;stroke-miterlimit:3;stroke-dasharray:none;stroke-opacity:1"
       inkscape:connector-curvature="0" />
    <path
       id="path2961"
       d="m 146.7944,285.9269 0.0554,0.10485 0.0997,0.25632 0.0554,0.13981 0.0554,0.15146 0.0332,0.13981 0.0111,0.12815 -0.0111,0.10485 -0.0332,0.13981 -0.0554,0.15147 -0.0554,0.1631 -0.0997,0.26797 -0.0554,0.1165 3.30137,-0.9437 z"
       style="fill:#000000;fill-opacity:1;fill-rule:evenodd;stroke:none;stroke-width:0.24262835"
       inkscape:connector-curvature="0" />
    <path
       id="path2969"
       d="M 14.884463,318.39528 V 43.289764"
       clip-path="url(#clipEmfPath1-6)"
       style="fill:none;stroke:#000000;stroke-width:1.35716176px;stroke-linecap:butt;stroke-linejoin:miter;stroke-miterlimit:3;stroke-dasharray:none;stroke-opacity:1"
       inkscape:connector-curvature="0"
       transform="matrix(0.23672516,0,0,0.24867879,38.989665,214.86917)" />
    <path
       id="path2971"
       d="m 41.649072,224.24809 0.09971,-0.0466 0.232652,-0.10486 0.144021,-0.0699 0.144012,-0.0466 0.132945,-0.035 0.110783,-0.0117 0.09971,0.0117 0.132944,0.035 0.155098,0.0466 0.144013,0.0699 0.265889,0.10486 0.110783,0.0466 -0.908434,-3.4719 z"
       style="fill:#000000;fill-opacity:1;fill-rule:evenodd;stroke:none;stroke-width:0.24262835"
       inkscape:connector-curvature="0" />
    <path
       id="path2989"
       d="m 505.56865,127.47992 h 6.45822 v 2.20197 h -6.45822 z m 11.84007,0 h 5.38184 v 2.20197 h -5.38184 z m 10.76369,0 h 5.38185 v 2.20197 h -5.38185 z m 10.7637,0 h 5.38185 v 2.20197 h -5.38185 z m 10.7637,0 h 5.38184 v 2.20197 h -5.38184 z"
       clip-path="url(#clipEmfPath2-9)"
       style="fill:#5e81b5;fill-opacity:1;fill-rule:nonzero;stroke:#5e81b5;stroke-width:0.74877894px;stroke-linecap:butt;stroke-linejoin:bevel;stroke-miterlimit:4;stroke-dasharray:none;stroke-opacity:1"
       inkscape:connector-curvature="0"
       transform="matrix(0.23672516,0,0,0.24867879,38.989665,213.16828)" />
    <text
       id="text2995"
       y="240.53761"
       x="178.03554"
       style="font-style:normal;font-variant:normal;font-weight:700;font-size:4.54928207px;line-height:125%;font-family:'Times New Roman';text-align:start;letter-spacing:0px;word-spacing:0px;text-anchor:start;fill:#000000;fill-opacity:1;stroke:none;stroke-width:0.24262835"
       xml:space="preserve"
       transform="scale(0.97566973,1.024937)"><tspan
         id="tspan2993"
         y="240.53761"
         x="178.03554"
         sodipodi:role="line"
         style="stroke-width:0.24262835"><tspan
           id="tspan2991"
           style="font-style:normal;font-variant:normal;font-weight:700;font-size:4.54928207px;font-family:'Times New Roman';fill:#000000;stroke-width:0.24262835"
           dy="0"
           dx="0">L</tspan></tspan></text>
    <path
       id="path2997"
       d="m 173.7039,246.53588 m 3.8553,-3.06414 -1.11893,3.72823 h -0.33235 l 1.11892,-3.72823 z"
       style="fill:#000000;fill-opacity:1;fill-rule:evenodd;stroke:none;stroke-width:0.24262835"
       inkscape:connector-curvature="0" />
    <text
       id="text3003"
       y="240.53761"
       x="182.39575"
       style="font-style:normal;font-variant:normal;font-weight:700;font-size:4.54928207px;line-height:125%;font-family:'Times New Roman';text-align:start;letter-spacing:0px;word-spacing:0px;text-anchor:start;fill:#000000;fill-opacity:1;stroke:none;stroke-width:0.24262835"
       xml:space="preserve"
       transform="scale(0.97566973,1.024937)"><tspan
         id="tspan3001"
         y="240.53761"
         x="182.39575"
         sodipodi:role="line"
         style="stroke-width:0.24262835"><tspan
           id="tspan2999"
           style="font-style:normal;font-variant:normal;font-weight:700;font-size:4.54928207px;font-family:'Times New Roman';fill:#000000;stroke-width:0.24262835"
           dy="0"
           dx="0">R</tspan></tspan></text>
    <path
       id="path3005"
       d="m 177.95801,246.53588 m 6.49196,-1.47963 h -2.24891 v -0.41944 h 2.24891 z m 0,1.04855 h -2.24891 v -0.41942 h 2.24891 z"
       style="fill:#000000;fill-opacity:1;fill-rule:evenodd;stroke:none;stroke-width:0.24262835"
       inkscape:connector-curvature="0" />
    <path
       id="path3007"
       d="m 187.91752,244.52031 -0.13294,0.41943 h -0.70902 l -0.24372,0.79224 c 0,0.0117 -0.0111,0.0233 -0.0111,0.0466 0,0.0233 0,0.035 0,0.0466 0,0.0466 0.0222,0.0932 0.0665,0.12816 0.0443,0.0233 0.0887,0.0699 0.11078,0.10485 0.0222,0.0233 0.0332,0.0466 0.0443,0.0816 0.0111,0.035 0.0111,0.0816 0.0111,0.1165 0,0.0699 -0.0222,0.12816 -0.0665,0.18641 -0.0443,0.0466 -0.12187,0.0699 -0.22158,0.0699 -0.11078,0 -0.18832,-0.035 -0.25479,-0.10486 -0.0554,-0.0699 -0.0887,-0.17476 -0.0887,-0.30292 0,-0.10485 0.0554,-0.31457 0.16618,-0.66409 0.11078,-0.33787 0.16617,-0.50098 0.16617,-0.50098 h -0.22156 c -0.14403,0 -0.26588,0 -0.35451,0.0117 -0.0887,0.0233 -0.17726,0.0816 -0.24373,0.18641 h -0.0776 c 0.0887,-0.20971 0.19941,-0.37282 0.33234,-0.46603 0.13295,-0.10485 0.26589,-0.15145 0.38775,-0.15145 z"
       style="fill:#000000;fill-opacity:1;fill-rule:evenodd;stroke:none;stroke-width:0.24262835"
       inkscape:connector-curvature="0" />
    <path
       id="path3009"
       d="m 191.54016,245.05625 h -2.26 v -0.41944 h 2.26 z m 0,1.04855 h -2.26 v -0.41942 h 2.26 z"
       style="fill:#000000;fill-opacity:1;fill-rule:evenodd;stroke:none;stroke-width:0.24262835"
       inkscape:connector-curvature="0" />
    <text
       id="text3015"
       y="240.53761"
       x="198.01981"
       style="font-style:normal;font-variant:normal;font-weight:700;font-size:4.54928207px;line-height:125%;font-family:'Times New Roman';text-align:start;letter-spacing:0px;word-spacing:0px;text-anchor:start;fill:#000000;fill-opacity:1;stroke:none;stroke-width:0.24262835"
       xml:space="preserve"
       transform="scale(0.97566973,1.024937)"><tspan
         id="tspan3013"
         y="240.53761"
         x="198.01981"
         sodipodi:role="line"
         style="stroke-width:0.24262835"><tspan
           id="tspan3011"
           style="font-style:normal;font-variant:normal;font-weight:700;font-size:4.54928207px;font-family:'Times New Roman';fill:#000000;stroke-width:0.24262835"
           dy="0"
           dx="0">0.1</tspan></tspan></text>
    <path
       id="path3017"
       d="m 506.64502,159.29134 h 50.91696"
       clip-path="url(#clipEmfPath3-4)"
       style="fill:none;stroke:#000000;stroke-width:2.15273929px;stroke-linecap:square;stroke-linejoin:miter;stroke-miterlimit:3;stroke-dasharray:none;stroke-opacity:1"
       inkscape:connector-curvature="0"
       transform="matrix(0.23672516,0,0,0.24867879,38.989665,213.16828)" />
    <text
       id="text3023"
       y="247.99451"
       x="178.03554"
       style="font-style:normal;font-variant:normal;font-weight:700;font-size:4.54928207px;line-height:125%;font-family:'Times New Roman';text-align:start;letter-spacing:0px;word-spacing:0px;text-anchor:start;fill:#000000;fill-opacity:1;stroke:none;stroke-width:0.24262835"
       xml:space="preserve"
       transform="scale(0.97566973,1.024937)"><tspan
         id="tspan3021"
         y="247.99451"
         x="178.03554"
         sodipodi:role="line"
         style="stroke-width:0.24262835"><tspan
           id="tspan3019"
           style="font-style:normal;font-variant:normal;font-weight:700;font-size:4.54928207px;font-family:'Times New Roman';fill:#000000;stroke-width:0.24262835"
           dy="0"
           dx="0">L</tspan></tspan></text>
    <path
       id="path3025"
       d="m 173.7039,254.17874 m 3.8553,-3.06413 -1.11893,3.72822 h -0.33235 l 1.11892,-3.72822 z"
       style="fill:#000000;fill-opacity:1;fill-rule:evenodd;stroke:none;stroke-width:0.24262835"
       inkscape:connector-curvature="0" />
    <text
       id="text3031"
       y="247.99451"
       x="182.39575"
       style="font-style:normal;font-variant:normal;font-weight:700;font-size:4.54928207px;line-height:125%;font-family:'Times New Roman';text-align:start;letter-spacing:0px;word-spacing:0px;text-anchor:start;fill:#000000;fill-opacity:1;stroke:none;stroke-width:0.24262835"
       xml:space="preserve"
       transform="scale(0.97566973,1.024937)"><tspan
         id="tspan3029"
         y="247.99451"
         x="182.39575"
         sodipodi:role="line"
         style="stroke-width:0.24262835"><tspan
           id="tspan3027"
           style="font-style:normal;font-variant:normal;font-weight:700;font-size:4.54928207px;font-family:'Times New Roman';fill:#000000;stroke-width:0.24262835"
           dy="0"
           dx="0">R</tspan></tspan></text>
    <path
       id="path3033"
       d="m 177.95801,254.17874 m 6.49196,-1.47964 h -2.24891 v -0.41943 h 2.24891 z m 0,1.04857 h -2.24891 v -0.41943 h 2.24891 z"
       style="fill:#000000;fill-opacity:1;fill-rule:evenodd;stroke:none;stroke-width:0.24262835"
       inkscape:connector-curvature="0" />
    <path
       id="path3035"
       d="m 187.91752,252.16316 -0.13294,0.41943 h -0.70902 l -0.24372,0.79225 c 0,0.0117 -0.0111,0.0233 -0.0111,0.0466 0,0.0233 0,0.035 0,0.0466 0,0.0466 0.0222,0.0932 0.0665,0.12815 0.0443,0.0233 0.0887,0.0699 0.11078,0.10486 0.0222,0.0233 0.0332,0.0466 0.0443,0.0816 0.0111,0.035 0.0111,0.0816 0.0111,0.11651 0,0.0699 -0.0222,0.12816 -0.0665,0.18641 -0.0443,0.0466 -0.12187,0.0699 -0.22158,0.0699 -0.11078,0 -0.18832,-0.035 -0.25479,-0.10485 -0.0554,-0.0699 -0.0887,-0.17477 -0.0887,-0.30292 0,-0.10485 0.0554,-0.31457 0.16618,-0.66409 0.11078,-0.33787 0.16617,-0.50099 0.16617,-0.50099 h -0.22156 c -0.14403,0 -0.26588,0 -0.35451,0.0117 -0.0887,0.0233 -0.17726,0.0816 -0.24373,0.18641 h -0.0776 c 0.0887,-0.20971 0.19941,-0.37282 0.33234,-0.46603 0.13295,-0.10485 0.26589,-0.15146 0.38775,-0.15146 z"
       style="fill:#000000;fill-opacity:1;fill-rule:evenodd;stroke:none;stroke-width:0.24262835"
       inkscape:connector-curvature="0" />
    <path
       id="path3037"
       d="m 191.54016,252.6991 h -2.26 v -0.41943 h 2.26 z m 0,1.04857 h -2.26 v -0.41943 h 2.26 z"
       style="fill:#000000;fill-opacity:1;fill-rule:evenodd;stroke:none;stroke-width:0.24262835"
       inkscape:connector-curvature="0" />
    <text
       id="text3043"
       y="247.99451"
       x="198.01981"
       style="font-style:normal;font-variant:normal;font-weight:700;font-size:4.54928207px;line-height:125%;font-family:'Times New Roman';text-align:start;letter-spacing:0px;word-spacing:0px;text-anchor:start;fill:#000000;fill-opacity:1;stroke:none;stroke-width:0.24262835"
       xml:space="preserve"
       transform="scale(0.97566973,1.024937)"><tspan
         id="tspan3041"
         y="247.99451"
         x="198.01981"
         sodipodi:role="line"
         style="stroke-width:0.24262835"><tspan
           id="tspan3039"
           style="font-style:normal;font-variant:normal;font-weight:700;font-size:4.54928207px;font-family:'Times New Roman';fill:#000000;stroke-width:0.24262835"
           dy="0"
           dx="0">1</tspan></tspan></text>
    <path
       id="path3045"
       d="m 505.56865,188.94764 h 6.45822 v 2.20197 h -6.45822 z m 11.84007,0 h 5.38184 v 2.20197 h -5.38184 z m 10.76369,0 h 5.38185 v 2.20197 h -5.38185 z m 10.7637,0 h 5.38185 v 2.20197 h -5.38185 z m 10.7637,0 h 5.38184 v 2.20197 h -5.38184 z"
       clip-path="url(#clipEmfPath4-9)"
       style="fill:#8fb131;fill-opacity:1;fill-rule:nonzero;stroke:#8fb131;stroke-width:0.74877894px;stroke-linecap:butt;stroke-linejoin:bevel;stroke-miterlimit:4;stroke-dasharray:none;stroke-opacity:1"
       inkscape:connector-curvature="0"
       transform="matrix(0.23672516,0,0,0.24867879,38.989665,213.16828)" />
    <text
       id="text3051"
       y="255.4514"
       x="178.03554"
       style="font-style:normal;font-variant:normal;font-weight:700;font-size:4.54928207px;line-height:125%;font-family:'Times New Roman';text-align:start;letter-spacing:0px;word-spacing:0px;text-anchor:start;fill:#000000;fill-opacity:1;stroke:none;stroke-width:0.24262835"
       xml:space="preserve"
       transform="scale(0.97566973,1.024937)"><tspan
         id="tspan3049"
         y="255.4514"
         x="178.03554"
         sodipodi:role="line"
         style="stroke-width:0.24262835"><tspan
           id="tspan3047"
           style="font-style:normal;font-variant:normal;font-weight:700;font-size:4.54928207px;font-family:'Times New Roman';fill:#000000;stroke-width:0.24262835"
           dy="0"
           dx="0">L</tspan></tspan></text>
    <path
       id="path3053"
       d="m 173.7039,261.8216 m 3.8553,-3.06413 -1.11893,3.72822 h -0.33235 l 1.11892,-3.72822 z"
       style="fill:#000000;fill-opacity:1;fill-rule:evenodd;stroke:none;stroke-width:0.24262835"
       inkscape:connector-curvature="0" />
    <text
       id="text3059"
       y="255.4514"
       x="182.39575"
       style="font-style:normal;font-variant:normal;font-weight:700;font-size:4.54928207px;line-height:125%;font-family:'Times New Roman';text-align:start;letter-spacing:0px;word-spacing:0px;text-anchor:start;fill:#000000;fill-opacity:1;stroke:none;stroke-width:0.24262835"
       xml:space="preserve"
       transform="scale(0.97566973,1.024937)"><tspan
         id="tspan3057"
         y="255.4514"
         x="182.39575"
         sodipodi:role="line"
         style="stroke-width:0.24262835"><tspan
           id="tspan3055"
           style="font-style:normal;font-variant:normal;font-weight:700;font-size:4.54928207px;font-family:'Times New Roman';fill:#000000;stroke-width:0.24262835"
           dy="0"
           dx="0">R</tspan></tspan></text>
    <path
       id="path3061"
       d="m 177.95801,261.8216 m 6.49196,-1.47964 h -2.24891 v -0.41942 h 2.24891 z m 0,1.04856 h -2.24891 v -0.41942 h 2.24891 z"
       style="fill:#000000;fill-opacity:1;fill-rule:evenodd;stroke:none;stroke-width:0.24262835"
       inkscape:connector-curvature="0" />
    <path
       id="path3063"
       d="m 187.91752,259.80603 -0.13294,0.41942 h -0.70902 l -0.24372,0.79225 c 0,0.0117 -0.0111,0.0233 -0.0111,0.0466 0,0.0233 0,0.035 0,0.0466 0,0.0466 0.0222,0.0932 0.0665,0.12816 0.0443,0.0233 0.0887,0.0699 0.11078,0.10486 0.0222,0.0233 0.0332,0.0466 0.0443,0.0816 0.0111,0.035 0.0111,0.0816 0.0111,0.11651 0,0.0699 -0.0222,0.12815 -0.0665,0.18641 -0.0443,0.0466 -0.12187,0.0699 -0.22158,0.0699 -0.11078,0 -0.18832,-0.035 -0.25479,-0.10485 -0.0554,-0.0699 -0.0887,-0.17476 -0.0887,-0.30293 0,-0.10485 0.0554,-0.31456 0.16618,-0.66408 0.11078,-0.33788 0.16617,-0.50098 0.16617,-0.50098 h -0.22156 c -0.14403,0 -0.26588,0 -0.35451,0.0117 -0.0887,0.0233 -0.17726,0.0816 -0.24373,0.18641 h -0.0776 c 0.0887,-0.20971 0.19941,-0.37283 0.33234,-0.46603 0.13295,-0.10486 0.26589,-0.15146 0.38775,-0.15146 z"
       style="fill:#000000;fill-opacity:1;fill-rule:evenodd;stroke:none;stroke-width:0.24262835"
       inkscape:connector-curvature="0" />
    <path
       id="path3065"
       d="m 191.54016,260.34196 h -2.26 v -0.41942 h 2.26 z m 0,1.04856 h -2.26 v -0.41942 h 2.26 z"
       style="fill:#000000;fill-opacity:1;fill-rule:evenodd;stroke:none;stroke-width:0.24262835"
       inkscape:connector-curvature="0" />
    <text
       id="text3071"
       y="255.4514"
       x="198.01981"
       style="font-style:normal;font-variant:normal;font-weight:700;font-size:4.54928207px;line-height:125%;font-family:'Times New Roman';text-align:start;letter-spacing:0px;word-spacing:0px;text-anchor:start;fill:#000000;fill-opacity:1;stroke:none;stroke-width:0.24262835"
       xml:space="preserve"
       transform="scale(0.97566973,1.024937)"><tspan
         id="tspan3069"
         y="255.4514"
         x="198.01981"
         sodipodi:role="line"
         style="stroke-width:0.24262835"><tspan
           id="tspan3067"
           style="font-style:normal;font-variant:normal;font-weight:700;font-size:4.54928207px;font-family:'Times New Roman';fill:#000000;stroke-width:0.24262835"
           dy="0"
           dx="0">10</tspan></tspan></text>
    <text
       id="text3175"
       y="217.9752"
       x="38.966"
       style="font-style:normal;font-weight:normal;font-size:10.58333302px;line-height:1.25;font-family:sans-serif;letter-spacing:0px;word-spacing:0px;fill:#000000;fill-opacity:1;stroke:none;stroke-width:0.26458332"
       xml:space="preserve"><tspan
         style="font-style:normal;font-variant:normal;font-weight:bold;font-stretch:normal;font-size:7.05555534px;font-family:'Times New Roman';-inkscape-font-specification:'Times New Roman, Bold';font-variant-ligatures:normal;font-variant-caps:normal;font-variant-numeric:normal;font-feature-settings:normal;text-align:start;writing-mode:lr-tb;text-anchor:start;stroke-width:0.26458332"
         y="217.9752"
         x="38.966"
         id="tspan3173"
         sodipodi:role="line">I(t)</tspan></text>
    <text
       id="text3179"
       y="288.64737"
       x="152.69867"
       style="font-style:normal;font-weight:normal;font-size:10.58333302px;line-height:1.25;font-family:sans-serif;letter-spacing:0px;word-spacing:0px;fill:#000000;fill-opacity:1;stroke:none;stroke-width:0.26458332"
       xml:space="preserve"><tspan
         style="font-style:normal;font-variant:normal;font-weight:bold;font-stretch:normal;font-size:7.05555534px;font-family:'Times New Roman';-inkscape-font-specification:'Times New Roman, Bold';font-variant-ligatures:normal;font-variant-caps:normal;font-variant-numeric:normal;font-feature-settings:normal;text-align:start;writing-mode:lr-tb;text-anchor:start;stroke-width:0.26458332"
         y="288.64737"
         x="152.69867"
         id="tspan3177"
         sodipodi:role="line">t</tspan></text>
    <path
       inkscape:connector-curvature="0"
       id="path3253"
       d="M 41.199404,231.42112 H 43.93973"
       style="fill:none;stroke:#000000;stroke-width:0.5;stroke-linecap:butt;stroke-linejoin:miter;stroke-miterlimit:4;stroke-dasharray:none;stroke-opacity:1" />
    <text
       id="text3259"
       y="233.40552"
       x="35.435272"
       style="font-style:normal;font-weight:normal;font-size:10.58333302px;line-height:1.25;font-family:sans-serif;letter-spacing:0px;word-spacing:0px;fill:#000000;fill-opacity:1;stroke:none;stroke-width:0.26458332"
       xml:space="preserve"><tspan
         style="font-style:normal;font-variant:normal;font-weight:bold;font-stretch:normal;font-size:7.05555534px;font-family:'Times New Roman';-inkscape-font-specification:'Times New Roman, Bold';font-variant-ligatures:normal;font-variant-caps:normal;font-variant-numeric:normal;font-feature-settings:normal;text-align:start;writing-mode:lr-tb;text-anchor:start;stroke-width:0.26458332"
         y="233.40552"
         x="35.435272"
         id="tspan3257"
         sodipodi:role="line">I<tspan
   id="tspan3255"
   style="font-size:64.99999762%;baseline-shift:sub">0</tspan></tspan></text>
    <text
       id="text3263"
       y="293.03125"
       x="59.720242"
       style="font-style:normal;font-weight:normal;font-size:10.58333302px;line-height:1.25;font-family:sans-serif;letter-spacing:0px;word-spacing:0px;fill:#000000;fill-opacity:1;stroke:none;stroke-width:0.26458332"
       xml:space="preserve"><tspan
         style="font-style:normal;font-variant:normal;font-weight:bold;font-stretch:normal;font-size:7.05555534px;font-family:'Times New Roman';-inkscape-font-specification:'Times New Roman, Bold';font-variant-ligatures:normal;font-variant-caps:normal;font-variant-numeric:normal;font-feature-settings:normal;text-align:start;writing-mode:lr-tb;text-anchor:start;stroke-width:0.26458332"
         y="293.03125"
         x="59.720242"
         id="tspan3261"
         sodipodi:role="line">t=τ</tspan></text>
    <path
       style="fill:none;stroke:#000000;stroke-width:0.5;stroke-linecap:butt;stroke-linejoin:miter;stroke-miterlimit:4;stroke-dasharray:none;stroke-opacity:1"
       d="m 64.397693,288.44828 v -2.74032"
       id="path3265"
       inkscape:connector-curvature="0" />
    <path
       inkscape:connector-curvature="0"
       id="path5036"
       d="m 42.333333,152.80208 h 2.740326"
       style="fill:none;stroke:#000000;stroke-width:0.5;stroke-linecap:butt;stroke-linejoin:miter;stroke-opacity:1;stroke-miterlimit:4;stroke-dasharray:none" />
  </g>
</svg>
