<?xml version="1.0" encoding="UTF-8" standalone="no"?>
<!-- Created with Inkscape (http://www.inkscape.org/) -->

<svg
   xmlns:dc="http://purl.org/dc/elements/1.1/"
   xmlns:cc="http://creativecommons.org/ns#"
   xmlns:rdf="http://www.w3.org/1999/02/22-rdf-syntax-ns#"
   xmlns:svg="http://www.w3.org/2000/svg"
   xmlns="http://www.w3.org/2000/svg"
   xmlns:sodipodi="http://sodipodi.sourceforge.net/DTD/sodipodi-0.dtd"
   xmlns:inkscape="http://www.inkscape.org/namespaces/inkscape"
   width="210mm"
   height="210mm"
   viewBox="0 0 210 210"
   version="1.1"
   id="svg2171"
   inkscape:version="0.92.3 (2405546, 2018-03-11)"
   sodipodi:docname="Spiegel-Abbildung.svg"
   inkscape:export-filename="E:\Beschäftigungsverhältnis - Universität Hamburg - ab SS 2017\Wintersemester 2017 - 2018\Skript-Physik II\Vorlesungsskript-Physik-II-UniHH--dieter\v0.1\figures\Spiegel-Abbildung.png"
   inkscape:export-xdpi="96"
   inkscape:export-ydpi="96">
  <defs
     id="defs2165">
    <marker
       inkscape:isstock="true"
       style="overflow:visible"
       id="marker3440"
       refX="0.0"
       refY="0.0"
       orient="auto"
       inkscape:stockid="Arrow2Lstart">
      <path
         transform="scale(1.1) translate(1,0)"
         d="M 8.7185878,4.0337352 L -2.2072895,0.016013256 L 8.7185884,-4.0017078 C 6.9730900,-1.6296469 6.9831476,1.6157441 8.7185878,4.0337352 z "
         style="fill-rule:evenodd;stroke-width:0.625;stroke-linejoin:round;stroke:#000000;stroke-opacity:1;fill:#000000;fill-opacity:1"
         id="path3438" />
    </marker>
    <marker
       inkscape:stockid="Arrow2Lstart"
       orient="auto"
       refY="0.0"
       refX="0.0"
       id="marker3128"
       style="overflow:visible"
       inkscape:isstock="true"
       inkscape:collect="always">
      <path
         id="path3126"
         style="fill-rule:evenodd;stroke-width:0.625;stroke-linejoin:round;stroke:#000000;stroke-opacity:1;fill:#000000;fill-opacity:1"
         d="M 8.7185878,4.0337352 L -2.2072895,0.016013256 L 8.7185884,-4.0017078 C 6.9730900,-1.6296469 6.9831476,1.6157441 8.7185878,4.0337352 z "
         transform="scale(1.1) translate(1,0)" />
    </marker>
    <marker
       inkscape:isstock="true"
       style="overflow:visible"
       id="marker2918"
       refX="0.0"
       refY="0.0"
       orient="auto"
       inkscape:stockid="Arrow2Lstart"
       inkscape:collect="always">
      <path
         transform="scale(1.1) translate(1,0)"
         d="M 8.7185878,4.0337352 L -2.2072895,0.016013256 L 8.7185884,-4.0017078 C 6.9730900,-1.6296469 6.9831476,1.6157441 8.7185878,4.0337352 z "
         style="fill-rule:evenodd;stroke-width:0.625;stroke-linejoin:round;stroke:#000000;stroke-opacity:1;fill:#000000;fill-opacity:1"
         id="path2916" />
    </marker>
    <marker
       inkscape:stockid="Arrow2Lstart"
       orient="auto"
       refY="0.0"
       refX="0.0"
       id="Arrow2Lstart"
       style="overflow:visible"
       inkscape:isstock="true"
       inkscape:collect="always">
      <path
         id="path859"
         style="fill-rule:evenodd;stroke-width:0.625;stroke-linejoin:round;stroke:#000000;stroke-opacity:1;fill:#000000;fill-opacity:1"
         d="M 8.7185878,4.0337352 L -2.2072895,0.016013256 L 8.7185884,-4.0017078 C 6.9730900,-1.6296469 6.9831476,1.6157441 8.7185878,4.0337352 z "
         transform="scale(1.1) translate(1,0)" />
    </marker>
  </defs>
  <sodipodi:namedview
     id="base"
     pagecolor="#ffffff"
     bordercolor="#666666"
     borderopacity="1.0"
     inkscape:pageopacity="0.0"
     inkscape:pageshadow="2"
     inkscape:zoom="0.98994949"
     inkscape:cx="270.23517"
     inkscape:cy="471.73215"
     inkscape:document-units="mm"
     inkscape:current-layer="layer1"
     showgrid="true"
     inkscape:snap-global="false"
     inkscape:window-width="1879"
     inkscape:window-height="1017"
     inkscape:window-x="40"
     inkscape:window-y="69"
     inkscape:window-maximized="0">
    <inkscape:grid
       type="xygrid"
       id="grid2716" />
  </sodipodi:namedview>
  <metadata
     id="metadata2168">
    <rdf:RDF>
      <cc:Work
         rdf:about="">
        <dc:format>image/svg+xml</dc:format>
        <dc:type
           rdf:resource="http://purl.org/dc/dcmitype/StillImage" />
        <dc:title />
      </cc:Work>
    </rdf:RDF>
  </metadata>
  <g
     inkscape:label="Ebene 1"
     inkscape:groupmode="layer"
     id="layer1"
     transform="translate(0,-87)">
    <path
       transform="scale(-1,1)"
       d="m -159.2589,242.39099 a 65.574883,63.146183 0 0 1 -32.78744,-54.6862 65.574883,63.146183 0 0 1 32.78744,-54.6862"
       sodipodi:open="true"
       sodipodi:end="4.1887902"
       sodipodi:start="2.0943951"
       sodipodi:ry="63.146183"
       sodipodi:rx="65.574883"
       sodipodi:cy="187.70479"
       sodipodi:cx="-126.47146"
       sodipodi:type="arc"
       id="path2720"
       style="fill:none;fill-opacity:1;stroke:#d5d5d5;stroke-width:3.8138237;stroke-linecap:square;stroke-miterlimit:4;stroke-dasharray:none;stroke-dashoffset:0;stroke-opacity:1" />
    <path
       style="fill:none;fill-opacity:1;stroke:#000000;stroke-width:0.54504478;stroke-linecap:square;stroke-miterlimit:4;stroke-dasharray:none;stroke-dashoffset:0;stroke-opacity:1"
       id="path2718"
       sodipodi:type="arc"
       sodipodi:cx="-125.03188"
       sodipodi:cy="187.58591"
       sodipodi:rx="64.894394"
       sodipodi:ry="62.490894"
       sodipodi:start="2.0943951"
       sodipodi:end="4.1887902"
       sodipodi:open="true"
       d="m -157.47908,241.70461 a 64.894394,62.490894 0 0 1 -32.4472,-54.1187 64.894394,62.490894 0 0 1 32.4472,-54.1187"
       transform="scale(-1,1)" />
    <path
       style="fill:none;stroke:#000000;stroke-width:0.89328003;stroke-linecap:butt;stroke-linejoin:miter;stroke-miterlimit:4;stroke-dasharray:none;stroke-opacity:1"
       d="M 189.97091,187.18981 H 15.667972"
       id="path2722"
       inkscape:connector-curvature="0" />
    <path
       style="fill:none;stroke:#000000;stroke-width:0.94356161;stroke-linecap:butt;stroke-linejoin:miter;stroke-miterlimit:4;stroke-dasharray:none;stroke-opacity:1"
       d="m 189.74514,157.24346 v 74.41969"
       id="path2724"
       inkscape:connector-curvature="0" />
    <text
       xml:space="preserve"
       style="font-style:normal;font-weight:normal;font-size:13.31470203px;line-height:1.25;font-family:sans-serif;letter-spacing:0px;word-spacing:0px;fill:#000000;fill-opacity:1;stroke:none;stroke-width:0.33286753"
       x="194.42621"
       y="190.30008"
       id="text2728"><tspan
         sodipodi:role="line"
         id="tspan2726"
         x="194.42621"
         y="190.30008"
         style="font-style:normal;font-variant:normal;font-weight:normal;font-stretch:normal;font-size:10.65176105px;font-family:'Times New Roman';-inkscape-font-specification:'Times New Roman, Normal';font-variant-ligatures:normal;font-variant-caps:normal;font-variant-numeric:normal;font-feature-settings:normal;text-align:start;writing-mode:lr-tb;text-anchor:start;stroke-width:0.33286753">0</tspan></text>
    <path
       style="fill:none;stroke:#000000;stroke-width:0.33861312px;stroke-linecap:butt;stroke-linejoin:miter;stroke-opacity:1"
       d="m 179.75912,154.36147 v 32.47746"
       id="path2730"
       inkscape:connector-curvature="0" />
    <text
       xml:space="preserve"
       style="font-style:normal;font-weight:normal;font-size:13.31470203px;line-height:1.25;font-family:sans-serif;letter-spacing:0px;word-spacing:0px;fill:#000000;fill-opacity:1;stroke:none;stroke-width:0.33286753"
       x="183.16191"
       y="151.71574"
       id="text2734"><tspan
         sodipodi:role="line"
         id="tspan2732"
         x="183.16191"
         y="151.71574"
         style="font-style:normal;font-variant:normal;font-weight:normal;font-stretch:normal;font-size:10.65176105px;font-family:'Times New Roman';-inkscape-font-specification:'Times New Roman, Normal';font-variant-ligatures:normal;font-variant-caps:normal;font-variant-numeric:normal;font-feature-settings:normal;text-align:start;writing-mode:lr-tb;text-anchor:start;stroke-width:0.33286753">S</tspan></text>
    <text
       id="text2738"
       y="176.76614"
       x="172.40201"
       style="font-style:normal;font-weight:normal;font-size:13.31470203px;line-height:1.25;font-family:sans-serif;letter-spacing:0px;word-spacing:0px;fill:#000000;fill-opacity:1;stroke:none;stroke-width:0.33286753"
       xml:space="preserve"><tspan
         style="font-style:normal;font-variant:normal;font-weight:normal;font-stretch:normal;font-size:10.65176105px;font-family:'Times New Roman';-inkscape-font-specification:'Times New Roman, Normal';font-variant-ligatures:normal;font-variant-caps:normal;font-variant-numeric:normal;font-feature-settings:normal;text-align:start;writing-mode:lr-tb;text-anchor:start;stroke-width:0.33286753"
         y="176.76614"
         x="172.40201"
         id="tspan2736"
         sodipodi:role="line">h</tspan></text>
    <circle
       style="fill:#000000;fill-opacity:1;stroke:#000000;stroke-width:0.83794785;stroke-linecap:square;stroke-miterlimit:4;stroke-dasharray:none;stroke-dashoffset:0;stroke-opacity:1"
       id="path2740"
       cx="123.63941"
       cy="187.17586"
       r="2.3465285" />
    <path
       style="fill:none;stroke:#000000;stroke-width:0.33286753px;stroke-linecap:butt;stroke-linejoin:miter;stroke-opacity:1"
       d="m 179.71537,154.06947 -55.90106,33.03627"
       id="path2742"
       inkscape:connector-curvature="0" />
    <path
       style="fill:none;stroke:#ff0000;stroke-width:0.33286753px;stroke-linecap:butt;stroke-linejoin:miter;stroke-opacity:1"
       d="m 179.71537,154.15354 -32.19565,33.03627"
       id="path2746"
       inkscape:connector-curvature="0" />
    <circle
       r="2.3465285"
       cy="187.25993"
       cx="147.51295"
       id="circle2744"
       style="fill:#000000;fill-opacity:1;stroke:#000000;stroke-width:0.83794785;stroke-linecap:square;stroke-miterlimit:4;stroke-dasharray:none;stroke-dashoffset:0;stroke-opacity:1" />
    <path
       sodipodi:type="star"
       style="fill:#ff0000;fill-opacity:1;stroke:#ff0000;stroke-width:0.52045262;stroke-linecap:square;stroke-miterlimit:4;stroke-dasharray:none;stroke-dashoffset:0;stroke-opacity:1"
       id="path2748"
       sodipodi:sides="3"
       sodipodi:cx="144.66216"
       sodipodi:cy="164.52255"
       sodipodi:r1="1.0392857"
       sodipodi:r2="0.51964289"
       sodipodi:arg1="1.4601391"
       sodipodi:arg2="2.5073367"
       inkscape:flatsided="false"
       inkscape:rounded="0"
       inkscape:randomized="0"
       d="m 144.77693,165.55548 -0.53335,-0.725 -0.53335,-0.725 0.89454,-0.0994 0.89454,-0.0994 -0.36119,0.8244 z"
       inkscape:transform-center-x="-0.13901231"
       inkscape:transform-center-y="-0.12501859"
       transform="matrix(0.62404375,0.75775616,-0.75775616,0.62404375,198.52374,-42.163153)" />
    <path
       transform="matrix(-0.98953552,0.14428947,0.14428947,0.98953552,0,0)"
       d="m -130.24912,207.79108 a 1.3922753,5.4198666 0 0 1 -0.69613,-4.69374 1.3922753,5.4198666 0 0 1 0.69613,-4.69375"
       sodipodi:open="true"
       sodipodi:end="4.1887902"
       sodipodi:start="2.0943951"
       sodipodi:ry="5.4198666"
       sodipodi:rx="1.3922753"
       sodipodi:cy="203.09734"
       sodipodi:cx="-129.55298"
       sodipodi:type="arc"
       id="path2752"
       style="fill:#ffffff;fill-opacity:1;stroke:#000000;stroke-width:0.42000678;stroke-linecap:square;stroke-miterlimit:4;stroke-dasharray:none;stroke-dashoffset:0;stroke-opacity:1" />
    <path
       style="fill:#ffffff;fill-opacity:1;stroke:#000000;stroke-width:0.42019942;stroke-linecap:square;stroke-miterlimit:4;stroke-dasharray:none;stroke-dashoffset:0;stroke-opacity:1"
       id="path2754"
       sodipodi:type="arc"
       sodipodi:cx="-109.4483"
       sodipodi:cy="201.0721"
       sodipodi:rx="1.0978513"
       sodipodi:ry="4.2737288"
       sodipodi:start="2.0943951"
       sodipodi:end="4.1887902"
       sodipodi:open="true"
       d="m -109.99723,204.77326 a 1.0978513,4.2737288 0 0 1 -0.54892,-3.70116 1.0978513,4.2737288 0 0 1 0.54892,-3.70116"
       transform="matrix(-0.98953552,0.14428947,0.14428947,0.98953552,0,0)" />
    <path
       transform="matrix(0.84922627,-0.52802912,-0.52802912,-0.84922627,0,0)"
       d="m 41.664213,-225.37752 a 1.0978513,4.2737288 0 0 1 -0.548926,-3.70115 1.0978513,4.2737288 0 0 1 0.548926,-3.70116"
       sodipodi:open="true"
       sodipodi:end="4.1887902"
       sodipodi:start="2.0943951"
       sodipodi:ry="4.2737288"
       sodipodi:rx="1.0978513"
       sodipodi:cy="-229.07867"
       sodipodi:cx="42.213139"
       sodipodi:type="arc"
       id="path2756"
       style="fill:#ffffff;fill-opacity:1;stroke:#000000;stroke-width:0.42019942;stroke-linecap:square;stroke-miterlimit:4;stroke-dasharray:none;stroke-dashoffset:0;stroke-opacity:1" />
    <path
       inkscape:connector-curvature="0"
       id="path2760"
       d="M 179.35638,153.91295 72.399198,186.66463"
       style="fill:none;stroke:#ff0000;stroke-width:0.33339176;stroke-linecap:butt;stroke-linejoin:miter;stroke-miterlimit:4;stroke-dasharray:none;stroke-opacity:1" />
    <circle
       r="2.3465285"
       cy="187.44421"
       cx="72.58931"
       id="circle2758"
       style="fill:#000000;fill-opacity:1;stroke:#000000;stroke-width:0.83794785;stroke-linecap:square;stroke-miterlimit:4;stroke-dasharray:none;stroke-dashoffset:0;stroke-opacity:1" />
    <path
       transform="matrix(-0.70095609,0.68723036,-0.68723036,-0.70095609,340.75029,186.12496)"
       inkscape:transform-center-y="0.18092161"
       inkscape:transform-center-x="-0.081788271"
       d="m 144.77693,165.55548 -0.53335,-0.725 -0.53335,-0.725 0.89454,-0.0994 0.89454,-0.0994 -0.36119,0.8244 z"
       inkscape:randomized="0"
       inkscape:rounded="0"
       inkscape:flatsided="false"
       sodipodi:arg2="2.5073367"
       sodipodi:arg1="1.4601391"
       sodipodi:r2="0.51964289"
       sodipodi:r1="1.0392857"
       sodipodi:cy="164.52255"
       sodipodi:cx="144.66216"
       sodipodi:sides="3"
       id="path2762"
       style="fill:#ff0000;fill-opacity:1;stroke:#ff0000;stroke-width:0.52045262;stroke-linecap:square;stroke-miterlimit:4;stroke-dasharray:none;stroke-dashoffset:0;stroke-opacity:1"
       sodipodi:type="star" />
    <path
       transform="matrix(-0.98953552,0.14428947,0.14428947,0.98953552,0,0)"
       d="m -70.996969,198.87706 a 1.0978513,4.2737288 0 0 1 -0.548926,-3.70116 1.0978513,4.2737288 0 0 1 0.548926,-3.70115"
       sodipodi:open="true"
       sodipodi:end="4.1887902"
       sodipodi:start="2.0943951"
       sodipodi:ry="4.2737288"
       sodipodi:rx="1.0978513"
       sodipodi:cy="195.1759"
       sodipodi:cx="-70.448044"
       sodipodi:type="arc"
       id="path2764"
       style="fill:#ffffff;fill-opacity:1;stroke:#000000;stroke-width:0.42019942;stroke-linecap:square;stroke-miterlimit:4;stroke-dasharray:none;stroke-dashoffset:0;stroke-opacity:1" />
    <path
       style="fill:#ffffff;fill-opacity:1;stroke:#000000;stroke-width:0.49454936;stroke-linecap:square;stroke-miterlimit:4;stroke-dasharray:none;stroke-dashoffset:0;stroke-opacity:1"
       id="path2766"
       sodipodi:type="arc"
       sodipodi:cx="34.755817"
       sodipodi:cy="-220.23331"
       sodipodi:rx="1.2921048"
       sodipodi:ry="5.0299215"
       sodipodi:start="2.0943951"
       sodipodi:end="4.1887902"
       sodipodi:open="true"
       d="m 34.109765,-215.87727 a 1.2921048,5.0299215 0 0 1 -0.646052,-4.35604 1.2921048,5.0299215 0 0 1 0.646052,-4.35604"
       transform="matrix(0.84922627,-0.52802912,-0.52802912,-0.84922627,0,0)" />
    <text
       xml:space="preserve"
       style="font-style:normal;font-weight:normal;font-size:10.80729866px;line-height:1.25;font-family:sans-serif;letter-spacing:0px;word-spacing:0px;fill:#000000;fill-opacity:1;stroke:none;stroke-width:0.27018246"
       x="146.17589"
       y="169.56427"
       id="text2770"><tspan
         sodipodi:role="line"
         id="tspan2768"
         x="146.17589"
         y="169.56427"
         style="font-style:normal;font-variant:normal;font-weight:normal;font-stretch:normal;font-size:8.64583874px;font-family:'Times New Roman';-inkscape-font-specification:'Times New Roman, Normal';font-variant-ligatures:normal;font-variant-caps:normal;font-variant-numeric:normal;font-feature-settings:normal;text-align:start;writing-mode:lr-tb;text-anchor:start;stroke-width:0.27018246">α</tspan></text>
    <text
       id="text2774"
       y="171.87715"
       x="156.91704"
       style="font-style:normal;font-weight:normal;font-size:10.80987835px;line-height:1.25;font-family:sans-serif;letter-spacing:0px;word-spacing:0px;fill:#000000;fill-opacity:1;stroke:none;stroke-width:0.27024695"
       xml:space="preserve"><tspan
         style="font-style:normal;font-variant:normal;font-weight:normal;font-stretch:normal;font-size:8.64790249px;font-family:'Times New Roman';-inkscape-font-specification:'Times New Roman, Normal';font-variant-ligatures:normal;font-variant-caps:normal;font-variant-numeric:normal;font-feature-settings:normal;text-align:start;writing-mode:lr-tb;text-anchor:start;stroke-width:0.27024695"
         y="171.87715"
         x="156.91704"
         id="tspan2772"
         sodipodi:role="line">α</tspan></text>
    <text
       xml:space="preserve"
       style="font-style:normal;font-weight:normal;font-size:8.97406387px;line-height:1.25;font-family:sans-serif;letter-spacing:0px;word-spacing:0px;fill:#000000;fill-opacity:1;stroke:none;stroke-width:0.2243516"
       x="154.14839"
       y="185.09105"
       id="text2778"><tspan
         sodipodi:role="line"
         id="tspan2776"
         x="154.14839"
         y="185.09105"
         style="font-style:normal;font-variant:normal;font-weight:normal;font-stretch:normal;font-size:7.17925119px;font-family:'Times New Roman';-inkscape-font-specification:'Times New Roman, Normal';font-variant-ligatures:normal;font-variant-caps:normal;font-variant-numeric:normal;font-feature-settings:normal;text-align:start;writing-mode:lr-tb;text-anchor:start;stroke-width:0.2243516">β</tspan></text>
    <text
       xml:space="preserve"
       style="font-style:normal;font-weight:normal;font-size:7.74921942px;line-height:1.25;font-family:sans-serif;letter-spacing:0px;word-spacing:0px;fill:#000000;fill-opacity:1;stroke:none;stroke-width:0.19373049"
       x="133.45844"
       y="185.89528"
       id="text2782"><tspan
         sodipodi:role="line"
         id="tspan2780"
         x="133.45844"
         y="185.89528"
         style="font-style:normal;font-variant:normal;font-weight:normal;font-stretch:normal;font-size:6.19937563px;font-family:'Times New Roman';-inkscape-font-specification:'Times New Roman, Normal';font-variant-ligatures:normal;font-variant-caps:normal;font-variant-numeric:normal;font-feature-settings:normal;text-align:start;writing-mode:lr-tb;text-anchor:start;stroke-width:0.19373049">δ</tspan></text>
    <text
       xml:space="preserve"
       style="font-style:normal;font-weight:normal;font-size:8.23671532px;line-height:1.25;font-family:sans-serif;letter-spacing:0px;word-spacing:0px;fill:#000000;fill-opacity:1;stroke:none;stroke-width:0.20591792"
       x="93.837654"
       y="184.31499"
       id="text2786"><tspan
         sodipodi:role="line"
         id="tspan2784"
         x="93.837654"
         y="184.31499"
         style="font-style:normal;font-variant:normal;font-weight:normal;font-stretch:normal;font-size:8.23671532px;font-family:'Times New Roman';-inkscape-font-specification:'Times New Roman, Normal';font-variant-ligatures:normal;font-variant-caps:normal;font-variant-numeric:normal;font-feature-settings:normal;text-align:start;writing-mode:lr-tb;text-anchor:start;stroke-width:0.20591792">γ</tspan></text>
    <path
       style="fill:none;stroke:#000000;stroke-width:0.33286753px;stroke-linecap:butt;stroke-linejoin:miter;stroke-opacity:1"
       d="M 161.68917,164.25746 145.40244,154.5092"
       id="path2788"
       inkscape:connector-curvature="0" />
    <text
       xml:space="preserve"
       style="font-style:normal;font-weight:normal;font-size:13.31470203px;line-height:1.25;font-family:sans-serif;letter-spacing:0px;word-spacing:0px;fill:#000000;fill-opacity:1;stroke:none;stroke-width:0.33286753"
       x="141.83603"
       y="153.55814"
       id="text2792"><tspan
         sodipodi:role="line"
         id="tspan2790"
         x="141.83603"
         y="153.55814"
         style="font-style:normal;font-variant:normal;font-weight:normal;font-stretch:normal;font-size:10.65176105px;font-family:'Times New Roman';-inkscape-font-specification:'Times New Roman, Normal';font-variant-ligatures:normal;font-variant-caps:normal;font-variant-numeric:normal;font-feature-settings:normal;text-align:start;writing-mode:lr-tb;text-anchor:start;stroke-width:0.33286753">R</tspan></text>
    <text
       xml:space="preserve"
       style="font-style:normal;font-weight:normal;font-size:13.31470203px;line-height:1.25;font-family:sans-serif;letter-spacing:0px;word-spacing:0px;fill:#000000;fill-opacity:1;stroke:none;stroke-width:0.33286753"
       x="68.842888"
       y="198.8519"
       id="text2796"><tspan
         sodipodi:role="line"
         id="tspan2794"
         x="68.842888"
         y="198.8519"
         style="font-style:normal;font-variant:normal;font-weight:normal;font-stretch:normal;font-size:10.65176105px;font-family:'Times New Roman';-inkscape-font-specification:'Times New Roman, Normal';font-variant-ligatures:normal;font-variant-caps:normal;font-variant-numeric:normal;font-feature-settings:normal;text-align:start;writing-mode:lr-tb;text-anchor:start;stroke-width:0.33286753">A</tspan></text>
    <text
       id="text2800"
       y="198.8519"
       x="118.77303"
       style="font-style:normal;font-weight:normal;font-size:13.31470203px;line-height:1.25;font-family:sans-serif;letter-spacing:0px;word-spacing:0px;fill:#000000;fill-opacity:1;stroke:none;stroke-width:0.33286753"
       xml:space="preserve"><tspan
         style="font-style:normal;font-variant:normal;font-weight:normal;font-stretch:normal;font-size:10.65176105px;font-family:'Times New Roman';-inkscape-font-specification:'Times New Roman, Normal';font-variant-ligatures:normal;font-variant-caps:normal;font-variant-numeric:normal;font-feature-settings:normal;text-align:start;writing-mode:lr-tb;text-anchor:start;stroke-width:0.33286753"
         y="198.8519"
         x="118.77303"
         id="tspan2798"
         sodipodi:role="line">M</tspan></text>
    <text
       xml:space="preserve"
       style="font-style:normal;font-weight:normal;font-size:13.31470203px;line-height:1.25;font-family:sans-serif;letter-spacing:0px;word-spacing:0px;fill:#000000;fill-opacity:1;stroke:none;stroke-width:0.33286753"
       x="144.33249"
       y="198.73302"
       id="text2804"><tspan
         sodipodi:role="line"
         id="tspan2802"
         x="144.33249"
         y="198.73302"
         style="font-style:normal;font-variant:normal;font-weight:normal;font-stretch:normal;font-size:10.65176105px;font-family:'Times New Roman';-inkscape-font-specification:'Times New Roman, Normal';font-variant-ligatures:normal;font-variant-caps:normal;font-variant-numeric:normal;font-feature-settings:normal;text-align:start;writing-mode:lr-tb;text-anchor:start;stroke-width:0.33286753">B</tspan></text>
    <path
       style="fill:none;stroke:#000000;stroke-width:0.33286753px;stroke-linecap:butt;stroke-linejoin:miter;stroke-opacity:1"
       d="m 147.89894,207.05472 v 9.86714"
       id="path2806"
       inkscape:connector-curvature="0" />
    <path
       style="fill:none;stroke:#000000;stroke-width:0.37742466;stroke-linecap:butt;stroke-linejoin:miter;stroke-miterlimit:4;stroke-dasharray:none;stroke-opacity:1;marker-start:url(#Arrow2Lstart)"
       d="m 188.43746,211.80997 h -15.2168"
       id="path2808"
       inkscape:connector-curvature="0" />
    <path
       inkscape:connector-curvature="0"
       id="path2914"
       d="m 148.70722,211.75352 h 15.2168"
       style="fill:none;stroke:#000000;stroke-width:0.37742466;stroke-linecap:butt;stroke-linejoin:miter;stroke-miterlimit:4;stroke-dasharray:none;stroke-opacity:1;marker-start:url(#marker2918)" />
    <text
       xml:space="preserve"
       style="font-style:normal;font-weight:normal;font-size:13.31470203px;line-height:1.25;font-family:sans-serif;letter-spacing:0px;word-spacing:0px;fill:#000000;fill-opacity:1;stroke:none;stroke-width:0.33286753"
       x="165.3745"
       y="215.01976"
       id="text3114"><tspan
         sodipodi:role="line"
         id="tspan3112"
         x="165.3745"
         y="215.01976"
         style="font-style:normal;font-variant:normal;font-weight:normal;font-stretch:normal;font-size:10.65176105px;font-family:'Times New Roman';-inkscape-font-specification:'Times New Roman, Normal';font-variant-ligatures:normal;font-variant-caps:normal;font-variant-numeric:normal;font-feature-settings:normal;text-align:start;writing-mode:lr-tb;text-anchor:start;stroke-width:0.33286753">b</tspan></text>
    <path
       inkscape:connector-curvature="0"
       id="path3116"
       d="m 72.765978,223.57921 v 9.86714"
       style="fill:none;stroke:#000000;stroke-width:0.33286753px;stroke-linecap:butt;stroke-linejoin:miter;stroke-opacity:1" />
    <path
       style="fill:none;stroke:#000000;stroke-width:0.37742466;stroke-linecap:butt;stroke-linejoin:miter;stroke-miterlimit:4;stroke-dasharray:none;stroke-opacity:1;marker-start:url(#marker3128)"
       d="M 73.605088,228.63465 H 125.40648"
       id="path3124"
       inkscape:connector-curvature="0" />
    <path
       inkscape:connector-curvature="0"
       id="path3436"
       d="M 188.5431,228.4317 H 137.4477"
       style="fill:none;stroke:#000000;stroke-width:0.37742466;stroke-linecap:butt;stroke-linejoin:miter;stroke-miterlimit:4;stroke-dasharray:none;stroke-opacity:1;marker-start:url(#marker3440)" />
    <text
       xml:space="preserve"
       style="font-style:normal;font-weight:normal;font-size:13.31470203px;line-height:1.25;font-family:sans-serif;letter-spacing:0px;word-spacing:0px;fill:#000000;fill-opacity:1;stroke:none;stroke-width:0.33286753"
       x="129.35347"
       y="231.54427"
       id="text3606"><tspan
         sodipodi:role="line"
         id="tspan3604"
         x="129.35347"
         y="231.54427"
         style="font-style:normal;font-variant:normal;font-weight:normal;font-stretch:normal;font-size:10.65176105px;font-family:'Times New Roman';-inkscape-font-specification:'Times New Roman, Normal';font-variant-ligatures:normal;font-variant-caps:normal;font-variant-numeric:normal;font-feature-settings:normal;text-align:start;writing-mode:lr-tb;text-anchor:start;stroke-width:0.33286753">g</tspan></text>
  </g>
</svg>
